<svg xmlns="http://www.w3.org/2000/svg" width="54" height="53" viewBox="0 0 54 53">
    <defs>
        <style>
            .cls-2{fill:#35b1b8;stroke:#35b1b8;stroke-width:.2px}
        </style>
    </defs>
    <g id="Grupo_8018" transform="translate(-144 -121)">
        <ellipse id="Elipse_343" cx="27" cy="26.5" fill="none" rx="27" ry="26.5" transform="translate(144 121)"/>
        <g id="_018-newspaper" transform="translate(160 134.645)">
            <path id="Trazado_1368" d="M15.844 8.37V0H-1.918v21.83A2.818 2.818 0 0 0 .9 24.646h16.363a2.868 2.868 0 0 0 2.865-2.865V8.37zM.9 23.2a1.371 1.371 0 0 1-1.372-1.37V1.446H14.4v20.497a2.863 2.863 0 0 0 .372 1.257zm17.786-1.419a1.419 1.419 0 0 1-2.839 0V9.816h2.839zm0 0" class="cls-2" transform="translate(1.918)"/>
            <path id="Trazado_1369" d="M72.215 87.056h12.072v-6.814H72.215zm1.446-5.368h9.18v3.923h-9.18zm0 0" class="cls-2" transform="translate(-69.36 -77.152)"/>
            <path id="Trazado_1370" d="M73.152 293.273h11.976v1.446H73.152zm0 0" class="cls-2" transform="translate(-70.261 -281.98)"/>
            <path id="Trazado_1371" d="M73.152 366.9h11.976v1.446H73.152zm0 0" class="cls-2" transform="translate(-70.261 -352.77)"/>
            <path id="Trazado_1372" d="M73.152 440.527h11.976v1.446H73.152zm0 0" class="cls-2" transform="translate(-70.261 -423.563)"/>
            <path id="Trazado_1373" d="M73.152 514.148h11.976v1.446H73.152zm0 0" class="cls-2" transform="translate(-70.261 -494.349)"/>
        </g>
    </g>
</svg>
