<svg xmlns="http://www.w3.org/2000/svg" width="45.587" height="45.587" viewBox="0 0 45.587 45.587">
    <defs>
        <style>
            .prefix__cls-1{fill:#529d44}.prefix__cls-2{fill:#146ea3}.prefix__cls-3{fill:#35b1b8}.prefix__cls-4{fill:#8b9035}.prefix__cls-5{fill:#f2aa3e}.prefix__cls-6{fill:#d12228}.prefix__cls-7{fill:#a06434}.prefix__cls-8{fill:#de6b5f}.prefix__cls-9{fill:#a1d049}
        </style>
    </defs>
    <g id="prefix__Group_4038" data-name="Group 4038" transform="translate(-41 -91.614) translate(41 91.614)">
        <g id="prefix__Group_4033" data-name="Group 4033">
            <path id="prefix__Path_25" d="M-3739.017 509.779a22.686 22.686 0 0 1-1.611-8.411 22.828 22.828 0 0 1 .528-4.88 12.319 12.319 0 0 0 9.492 4.453c.148 0 .294-.006.441-.011-.006.145-.012.292-.012.438a12.322 12.322 0 0 0 4.451 9.494 22.806 22.806 0 0 1-4.88.525 22.737 22.737 0 0 1-8.409-1.608z" class="prefix__cls-1" data-name="Path 25" transform="translate(3740.628 -465.8)"/>
            <path id="prefix__Path_26" d="M-3688.692 509.779a22.723 22.723 0 0 0 1.607-8.411 22.8 22.8 0 0 0-.526-4.88 12.317 12.317 0 0 1-9.491 4.453c-.148 0-.294-.006-.442-.011.007.145.013.292.013.438a12.32 12.32 0 0 1-4.453 9.494 22.838 22.838 0 0 0 4.882.525 22.742 22.742 0 0 0 8.41-1.608z" class="prefix__cls-2" data-name="Path 26" transform="translate(3732.672 -465.8)"/>
            <g id="prefix__Group_17" data-name="Group 17" transform="translate(.528 22.794)">
                <g id="prefix__Group_15" data-name="Group 15">
                    <path id="prefix__Path_27" d="M-3730.036 498.838c0 .038.007.044.007.044-.151 0-.3.011-.445.011a12.32 12.32 0 0 1-9.489-4.449 22.66 22.66 0 0 1 3.4-7.9 23 23 0 0 0 3.057 3.632 5.209 5.209 0 0 0 1.206.927l.01.007c.14.076.285.148.43.211.012.006.023.013.037.018.137.06.28.11.421.159.023.007.045.017.069.024.132.043.271.078.408.109.035.007.068.018.1.025.133.028.269.048.406.065.04 0 .08.014.12.018.179.017.359.029.541.029a5.2 5.2 0 0 0 3.563-1.412h.009a11.784 11.784 0 0 0-3.85 8.482z" class="prefix__cls-3" data-name="Path 27" transform="translate(3739.963 -486.547)"/>
                </g>
                <g id="prefix__Group_16" data-name="Group 16" transform="translate(30.761)">
                    <path id="prefix__Path_28" d="M-3697.38 498.838c0 .038-.008.044 0 .044.146 0 .292.011.438.011a12.319 12.319 0 0 0 9.49-4.449 22.676 22.676 0 0 0-3.4-7.9 23 23 0 0 1-3.057 3.632 5.233 5.233 0 0 1-1.2.927l-.01.007c-.14.076-.284.148-.43.211-.013.006-.023.013-.037.018-.136.06-.279.11-.42.159l-.069.024c-.133.043-.271.078-.41.109-.034.007-.066.018-.1.025-.133.028-.27.048-.406.065-.041 0-.08.014-.121.018-.178.017-.358.029-.542.029a5.2 5.2 0 0 1-3.562-1.412l-.01.006a11.779 11.779 0 0 1 3.846 8.476z" class="prefix__cls-3" data-name="Path 28" transform="translate(3701.227 -486.547)"/>
                </g>
            </g>
            <path id="prefix__Path_29" d="M-3739.017 459.452a22.688 22.688 0 0 0-1.611 8.411 22.843 22.843 0 0 0 .528 4.881 12.318 12.318 0 0 1 9.492-4.453c.148 0 .294.006.441.011-.006-.146-.012-.292-.012-.439a12.32 12.32 0 0 1 4.451-9.492 22.806 22.806 0 0 0-4.88-.526 22.736 22.736 0 0 0-8.409 1.607z" class="prefix__cls-4" data-name="Path 29" transform="translate(3740.628 -457.844)"/>
            <g id="prefix__Group_20" data-name="Group 20" transform="translate(10.449 .53)">
                <g id="prefix__Group_18" data-name="Group 18" transform="translate(0 30.756)">
                    <path id="prefix__Path_30" d="M-3727.416 501.087c-.037 0-.042-.009-.042 0-.006.145-.011.291-.011.438a12.317 12.317 0 0 0 4.449 9.491 22.675 22.675 0 0 0 7.9-3.4 22.936 22.936 0 0 1-3.632-3.057 5.2 5.2 0 0 1-.928-1.206l-.006-.01c-.078-.138-.148-.283-.212-.43a.318.318 0 0 1-.017-.035c-.059-.137-.111-.278-.16-.421-.007-.024-.017-.045-.024-.068-.042-.134-.075-.272-.108-.41l-.025-.1c-.027-.133-.047-.269-.064-.407-.006-.041-.013-.08-.017-.12a5.265 5.265 0 0 1-.029-.541 5.208 5.208 0 0 1 1.41-3.562.04.04 0 0 1-.006-.009 11.787 11.787 0 0 1-8.478 3.847z" class="prefix__cls-5" data-name="Path 30" transform="translate(3727.469 -497.241)"/>
                </g>
                <g id="prefix__Group_19" data-name="Group 19">
                    <path id="prefix__Path_31" d="M-3727.416 468.438c-.037 0-.042.007-.042 0-.006-.146-.011-.292-.011-.439a12.315 12.315 0 0 1 4.449-9.489 22.677 22.677 0 0 1 7.9 3.4 22.937 22.937 0 0 0-3.632 3.057 5.219 5.219 0 0 0-.928 1.205l-.006.01c-.078.139-.148.283-.212.43l-.017.036c-.059.137-.111.279-.16.422-.007.021-.017.044-.024.068-.042.134-.075.271-.108.409l-.025.1c-.027.133-.047.27-.064.407-.006.04-.013.08-.017.121a5.248 5.248 0 0 0-.029.54 5.213 5.213 0 0 0 1.41 3.563.064.064 0 0 0-.006.01 11.785 11.785 0 0 0-8.478-3.85z" class="prefix__cls-5" data-name="Path 31" transform="translate(3727.469 -458.511)"/>
                </g>
            </g>
            <g id="prefix__Group_21" data-name="Group 21" transform="translate(17.571 3.925)">
                <path id="prefix__Path_32" d="M-3708.715 502.927v-.01a4.507 4.507 0 0 0 .215-.431l.017-.034c.059-.14.11-.28.16-.423l.022-.068c.043-.133.077-.271.108-.407.008-.036.019-.069.027-.1.028-.133.045-.269.064-.406 0-.04.013-.079.018-.121a5.265 5.265 0 0 0 .029-.541 5.224 5.224 0 0 0-5.224-5.224 5.223 5.223 0 0 0-5.224 5.224 5.3 5.3 0 0 0 .029.542c0 .028.009.054.011.082.019.15.041.3.071.445.006.025.013.052.021.077.033.146.068.292.114.433l.018.05c.049.149.1.3.165.44l.011.021a5.2 5.2 0 0 0 1.158 1.664 22.959 22.959 0 0 0 3.628 3.053 23.035 23.035 0 0 0 3.63-3.056 5.311 5.311 0 0 0 .932-1.21z" class="prefix__cls-6" data-name="Path 32" transform="translate(3718.501 -469.452)"/>
                <path id="prefix__Path_33" d="M-3708.082 469.053c0-.041-.014-.08-.018-.121-.019-.137-.036-.273-.064-.407-.008-.035-.019-.067-.027-.1-.031-.138-.064-.275-.106-.409a.524.524 0 0 0-.026-.068c-.048-.144-.1-.286-.157-.422l-.017-.036c-.065-.147-.134-.291-.212-.43l-.005-.01a5.213 5.213 0 0 0-.93-1.205 22.967 22.967 0 0 0-3.631-3.057 22.963 22.963 0 0 0-3.63 3.055 5.235 5.235 0 0 0-1.157 1.662.14.14 0 0 1-.01.021c-.061.143-.116.291-.165.439-.006.018-.014.033-.018.051-.045.141-.081.285-.114.43l-.021.081c-.03.145-.051.3-.071.446 0 .028-.009.054-.011.08a5.308 5.308 0 0 0-.029.542 5.223 5.223 0 0 0 5.224 5.224 5.224 5.224 0 0 0 5.224-5.224 5.249 5.249 0 0 0-.029-.542z" class="prefix__cls-6" data-name="Path 33" transform="translate(3718.501 -462.787)"/>
            </g>
            <path id="prefix__Path_34" d="M-3688.692 459.452a22.725 22.725 0 0 1 1.607 8.411 22.811 22.811 0 0 1-.526 4.881 12.316 12.316 0 0 0-9.491-4.453c-.148 0-.294.006-.442.011.007-.146.013-.292.013-.439a12.318 12.318 0 0 0-4.453-9.492 22.839 22.839 0 0 1 4.882-.526 22.741 22.741 0 0 1 8.41 1.607z" class="prefix__cls-7" data-name="Path 34" transform="translate(3732.672 -457.844)"/>
            <g id="prefix__Group_24" data-name="Group 24" transform="translate(22.795 .53)">
                <g id="prefix__Group_22" data-name="Group 22" transform="translate(0 30.756)">
                    <path id="prefix__Path_35" d="M-3699.632 501.087c.038 0 .043-.009.043 0 .007.145.013.291.013.438a12.318 12.318 0 0 1-4.45 9.491 22.672 22.672 0 0 1-7.9-3.4 22.956 22.956 0 0 0 3.631-3.057 5.188 5.188 0 0 0 .93-1.206l.005-.01c.078-.138.148-.283.212-.43.006-.012.012-.021.017-.035.059-.137.11-.278.157-.421.01-.024.019-.045.026-.068.042-.134.075-.272.106-.41l.027-.1c.028-.133.045-.269.064-.407 0-.041.014-.08.018-.12a5.265 5.265 0 0 0 .029-.541 5.2 5.2 0 0 0-1.411-3.562.018.018 0 0 0 0-.009 11.78 11.78 0 0 0 8.483 3.847z" class="prefix__cls-8" data-name="Path 35" transform="translate(3711.923 -497.241)"/>
                </g>
                <g id="prefix__Group_23" data-name="Group 23">
                    <path id="prefix__Path_36" d="M-3699.632 468.438c.038 0 .043.007.043 0 .007-.146.013-.292.013-.439a12.316 12.316 0 0 0-4.45-9.489 22.673 22.673 0 0 0-7.9 3.4 22.957 22.957 0 0 1 3.631 3.057 5.206 5.206 0 0 1 .93 1.205l.005.01c.078.139.148.283.212.43l.017.036c.059.137.11.279.157.422a.52.52 0 0 1 .026.068c.042.134.075.271.106.409.008.034.019.066.027.1.028.133.045.27.064.407 0 .04.014.08.018.121a5.248 5.248 0 0 1 .029.54 5.208 5.208 0 0 1-1.411 3.563.021.021 0 0 1 0 .01 11.778 11.778 0 0 1 8.483-3.85z" class="prefix__cls-8" data-name="Path 36" transform="translate(3711.923 -458.511)"/>
                </g>
            </g>
            <g id="prefix__Group_27" data-name="Group 27" transform="translate(.528 10.447)">
                <g id="prefix__Group_25" data-name="Group 25">
                    <path id="prefix__Path_37" d="M-3730.036 471.055c0-.038.007-.044.007-.044-.151 0-.3-.011-.445-.011a12.328 12.328 0 0 0-9.489 4.449 22.673 22.673 0 0 0 3.4 7.9 23.009 23.009 0 0 1 3.057-3.632 5.191 5.191 0 0 1 1.206-.928s.006 0 .01-.006c.14-.078.285-.148.43-.213l.037-.018c.137-.059.28-.11.421-.157.023-.007.045-.018.069-.026.132-.04.271-.075.408-.106.035-.008.068-.02.1-.027.133-.027.269-.045.406-.063.04 0 .08-.013.12-.018a5.327 5.327 0 0 1 .541-.027 5.2 5.2 0 0 1 3.563 1.41l.009-.006a11.784 11.784 0 0 1-3.85-8.477z" class="prefix__cls-9" data-name="Path 37" transform="translate(3739.963 -470.999)"/>
                </g>
                <g id="prefix__Group_26" data-name="Group 26" transform="translate(30.761)">
                    <path id="prefix__Path_38" d="M-3697.38 471.055c0-.038-.008-.044 0-.044.146 0 .292-.011.438-.011a12.327 12.327 0 0 1 9.49 4.449 22.689 22.689 0 0 1-3.4 7.9 23.011 23.011 0 0 0-3.057-3.632 5.215 5.215 0 0 0-1.2-.928l-.01-.006c-.14-.078-.284-.148-.43-.213l-.037-.018c-.136-.059-.279-.11-.42-.157-.024-.007-.046-.018-.069-.026-.133-.04-.271-.075-.41-.106-.034-.008-.066-.02-.1-.027-.133-.027-.27-.045-.406-.063-.041 0-.08-.013-.121-.018a5.3 5.3 0 0 0-.542-.027 5.2 5.2 0 0 0-3.562 1.41l-.01-.006a11.779 11.779 0 0 0 3.846-8.477z" class="prefix__cls-9" data-name="Path 38" transform="translate(3701.227 -470.999)"/>
                </g>
            </g>
            <g id="prefix__Group_28" data-name="Group 28" transform="translate(3.926 17.571)">
                <path id="prefix__Path_39" d="M-3728.877 479.97a5.226 5.226 0 0 0-.54.027l-.118.018c-.138.018-.275.036-.409.064-.034.006-.066.018-.1.026-.139.031-.275.066-.41.107l-.064.024c-.145.048-.286.1-.426.16l-.032.015c-.149.066-.292.137-.432.214h-.008a5.255 5.255 0 0 0-1.208.931 23.026 23.026 0 0 0-3.058 3.632 23.044 23.044 0 0 0 3.057 3.631 5.26 5.26 0 0 0 1.206.929l.01.006c.141.078.285.149.431.214.014 0 .022.012.036.017.137.06.28.11.423.16.023.006.044.016.067.023.135.043.271.078.41.109.034.007.066.018.1.025.133.028.27.048.406.065.04 0 .08.013.121.018a5.232 5.232 0 0 0 .54.028 5.224 5.224 0 0 0 5.224-5.224 5.224 5.224 0 0 0-5.226-5.219z" class="prefix__cls-1" data-name="Path 39" transform="translate(3735.684 -479.97)"/>
                <path id="prefix__Path_40" d="M-3691.283 485.193a22.885 22.885 0 0 0-3.057-3.632 5.254 5.254 0 0 0-1.2-.926l-.011-.007c-.138-.078-.284-.148-.43-.213-.013 0-.024-.011-.037-.017-.135-.059-.276-.11-.417-.157l-.072-.026c-.131-.041-.266-.075-.4-.106l-.109-.028c-.131-.027-.266-.045-.4-.063-.043-.006-.082-.014-.124-.019a5.185 5.185 0 0 0-.535-.027h-.006a5.224 5.224 0 0 0-5.223 5.223 5.224 5.224 0 0 0 5.223 5.224c.182 0 .361-.011.537-.028.042 0 .083-.014.126-.018.134-.019.269-.037.4-.065.037-.006.071-.018.107-.026.134-.031.271-.065.4-.107.024-.007.047-.017.072-.025.14-.048.281-.1.418-.157l.04-.02c.145-.064.288-.133.425-.21l.015-.01a5.206 5.206 0 0 0 1.2-.926 22.912 22.912 0 0 0 3.058-3.634z" class="prefix__cls-1" data-name="Path 40" transform="translate(3729.019 -479.97)"/>
            </g>
        </g>
        <g id="prefix__Group_4037" data-name="Group 4037">
            <path id="prefix__Path_25-2" d="M-3739.017 509.779a22.686 22.686 0 0 1-1.611-8.411 22.828 22.828 0 0 1 .528-4.88 12.319 12.319 0 0 0 9.492 4.453c.148 0 .294-.006.441-.011-.006.145-.012.292-.012.438a12.322 12.322 0 0 0 4.451 9.494 22.806 22.806 0 0 1-4.88.525 22.737 22.737 0 0 1-8.409-1.608z" class="prefix__cls-1" data-name="Path 25" transform="translate(3740.628 -465.8)"/>
            <path id="prefix__Path_26-2" d="M-3688.692 509.779a22.723 22.723 0 0 0 1.607-8.411 22.8 22.8 0 0 0-.526-4.88 12.317 12.317 0 0 1-9.491 4.453c-.148 0-.294-.006-.442-.011.007.145.013.292.013.438a12.32 12.32 0 0 1-4.453 9.494 22.838 22.838 0 0 0 4.882.525 22.742 22.742 0 0 0 8.41-1.608z" class="prefix__cls-2" data-name="Path 26" transform="translate(3732.672 -465.8)"/>
            <g id="prefix__Group_17-2" data-name="Group 17" transform="translate(.528 22.794)">
                <g id="prefix__Group_15-2" data-name="Group 15">
                    <path id="prefix__Path_27-2" d="M-3730.036 498.838c0 .038.007.044.007.044-.151 0-.3.011-.445.011a12.32 12.32 0 0 1-9.489-4.449 22.66 22.66 0 0 1 3.4-7.9 23 23 0 0 0 3.057 3.632 5.209 5.209 0 0 0 1.206.927l.01.007c.14.076.285.148.43.211.012.006.023.013.037.018.137.06.28.11.421.159.023.007.045.017.069.024.132.043.271.078.408.109.035.007.068.018.1.025.133.028.269.048.406.065.04 0 .08.014.12.018.179.017.359.029.541.029a5.2 5.2 0 0 0 3.563-1.412h.009a11.784 11.784 0 0 0-3.85 8.482z" class="prefix__cls-3" data-name="Path 27" transform="translate(3739.963 -486.547)"/>
                </g>
                <g id="prefix__Group_16-2" data-name="Group 16" transform="translate(30.761)">
                    <path id="prefix__Path_28-2" d="M-3697.38 498.838c0 .038-.008.044 0 .044.146 0 .292.011.438.011a12.319 12.319 0 0 0 9.49-4.449 22.676 22.676 0 0 0-3.4-7.9 23 23 0 0 1-3.057 3.632 5.233 5.233 0 0 1-1.2.927l-.01.007c-.14.076-.284.148-.43.211-.013.006-.023.013-.037.018-.136.06-.279.11-.42.159l-.069.024c-.133.043-.271.078-.41.109-.034.007-.066.018-.1.025-.133.028-.27.048-.406.065-.041 0-.08.014-.121.018-.178.017-.358.029-.542.029a5.2 5.2 0 0 1-3.562-1.412l-.01.006a11.779 11.779 0 0 1 3.846 8.476z" class="prefix__cls-3" data-name="Path 28" transform="translate(3701.227 -486.547)"/>
                </g>
            </g>
            <path id="prefix__Path_29-2" d="M-3739.017 459.452a22.688 22.688 0 0 0-1.611 8.411 22.843 22.843 0 0 0 .528 4.881 12.318 12.318 0 0 1 9.492-4.453c.148 0 .294.006.441.011-.006-.146-.012-.292-.012-.439a12.32 12.32 0 0 1 4.451-9.492 22.806 22.806 0 0 0-4.88-.526 22.736 22.736 0 0 0-8.409 1.607z" class="prefix__cls-4" data-name="Path 29" transform="translate(3740.628 -457.844)"/>
            <g id="prefix__Group_20-2" data-name="Group 20" transform="translate(10.449 .53)">
                <g id="prefix__Group_18-2" data-name="Group 18" transform="translate(0 30.756)">
                    <path id="prefix__Path_30-2" d="M-3727.416 501.087c-.037 0-.042-.009-.042 0-.006.145-.011.291-.011.438a12.317 12.317 0 0 0 4.449 9.491 22.675 22.675 0 0 0 7.9-3.4 22.936 22.936 0 0 1-3.632-3.057 5.2 5.2 0 0 1-.928-1.206l-.006-.01c-.078-.138-.148-.283-.212-.43a.318.318 0 0 1-.017-.035c-.059-.137-.111-.278-.16-.421-.007-.024-.017-.045-.024-.068-.042-.134-.075-.272-.108-.41l-.025-.1c-.027-.133-.047-.269-.064-.407-.006-.041-.013-.08-.017-.12a5.265 5.265 0 0 1-.029-.541 5.208 5.208 0 0 1 1.41-3.562.04.04 0 0 1-.006-.009 11.787 11.787 0 0 1-8.478 3.847z" class="prefix__cls-5" data-name="Path 30" transform="translate(3727.469 -497.241)"/>
                </g>
                <g id="prefix__Group_19-2" data-name="Group 19">
                    <path id="prefix__Path_31-2" d="M-3727.416 468.438c-.037 0-.042.007-.042 0-.006-.146-.011-.292-.011-.439a12.315 12.315 0 0 1 4.449-9.489 22.677 22.677 0 0 1 7.9 3.4 22.937 22.937 0 0 0-3.632 3.057 5.219 5.219 0 0 0-.928 1.205l-.006.01c-.078.139-.148.283-.212.43l-.017.036c-.059.137-.111.279-.16.422-.007.021-.017.044-.024.068-.042.134-.075.271-.108.409l-.025.1c-.027.133-.047.27-.064.407-.006.04-.013.08-.017.121a5.248 5.248 0 0 0-.029.54 5.213 5.213 0 0 0 1.41 3.563.064.064 0 0 0-.006.01 11.785 11.785 0 0 0-8.478-3.85z" class="prefix__cls-5" data-name="Path 31" transform="translate(3727.469 -458.511)"/>
                </g>
            </g>
            <g id="prefix__Group_21-2" data-name="Group 21" transform="translate(17.571 3.925)">
                <path id="prefix__Path_32-2" d="M-3708.715 502.927v-.01a4.507 4.507 0 0 0 .215-.431l.017-.034c.059-.14.11-.28.16-.423l.022-.068c.043-.133.077-.271.108-.407.008-.036.019-.069.027-.1.028-.133.045-.269.064-.406 0-.04.013-.079.018-.121a5.265 5.265 0 0 0 .029-.541 5.224 5.224 0 0 0-5.224-5.224 5.223 5.223 0 0 0-5.224 5.224 5.3 5.3 0 0 0 .029.542c0 .028.009.054.011.082.019.15.041.3.071.445.006.025.013.052.021.077.033.146.068.292.114.433l.018.05c.049.149.1.3.165.44l.011.021a5.2 5.2 0 0 0 1.158 1.664 22.959 22.959 0 0 0 3.628 3.053 23.035 23.035 0 0 0 3.63-3.056 5.311 5.311 0 0 0 .932-1.21z" class="prefix__cls-6" data-name="Path 32" transform="translate(3718.501 -469.452)"/>
                <path id="prefix__Path_33-2" d="M-3708.082 469.053c0-.041-.014-.08-.018-.121-.019-.137-.036-.273-.064-.407-.008-.035-.019-.067-.027-.1-.031-.138-.064-.275-.106-.409a.524.524 0 0 0-.026-.068c-.048-.144-.1-.286-.157-.422l-.017-.036c-.065-.147-.134-.291-.212-.43l-.005-.01a5.213 5.213 0 0 0-.93-1.205 22.967 22.967 0 0 0-3.631-3.057 22.963 22.963 0 0 0-3.63 3.055 5.235 5.235 0 0 0-1.157 1.662.14.14 0 0 1-.01.021c-.061.143-.116.291-.165.439-.006.018-.014.033-.018.051-.045.141-.081.285-.114.43l-.021.081c-.03.145-.051.3-.071.446 0 .028-.009.054-.011.08a5.308 5.308 0 0 0-.029.542 5.223 5.223 0 0 0 5.224 5.224 5.224 5.224 0 0 0 5.224-5.224 5.249 5.249 0 0 0-.029-.542z" class="prefix__cls-6" data-name="Path 33" transform="translate(3718.501 -462.787)"/>
            </g>
            <path id="prefix__Path_34-2" d="M-3688.692 459.452a22.725 22.725 0 0 1 1.607 8.411 22.811 22.811 0 0 1-.526 4.881 12.316 12.316 0 0 0-9.491-4.453c-.148 0-.294.006-.442.011.007-.146.013-.292.013-.439a12.318 12.318 0 0 0-4.453-9.492 22.839 22.839 0 0 1 4.882-.526 22.741 22.741 0 0 1 8.41 1.607z" class="prefix__cls-7" data-name="Path 34" transform="translate(3732.672 -457.844)"/>
            <g id="prefix__Group_24-2" data-name="Group 24" transform="translate(22.795 .53)">
                <g id="prefix__Group_22-2" data-name="Group 22" transform="translate(0 30.756)">
                    <path id="prefix__Path_35-2" d="M-3699.632 501.087c.038 0 .043-.009.043 0 .007.145.013.291.013.438a12.318 12.318 0 0 1-4.45 9.491 22.672 22.672 0 0 1-7.9-3.4 22.956 22.956 0 0 0 3.631-3.057 5.188 5.188 0 0 0 .93-1.206l.005-.01c.078-.138.148-.283.212-.43.006-.012.012-.021.017-.035.059-.137.11-.278.157-.421.01-.024.019-.045.026-.068.042-.134.075-.272.106-.41l.027-.1c.028-.133.045-.269.064-.407 0-.041.014-.08.018-.12a5.265 5.265 0 0 0 .029-.541 5.2 5.2 0 0 0-1.411-3.562.018.018 0 0 0 0-.009 11.78 11.78 0 0 0 8.483 3.847z" class="prefix__cls-8" data-name="Path 35" transform="translate(3711.923 -497.241)"/>
                </g>
                <g id="prefix__Group_23-2" data-name="Group 23">
                    <path id="prefix__Path_36-2" d="M-3699.632 468.438c.038 0 .043.007.043 0 .007-.146.013-.292.013-.439a12.316 12.316 0 0 0-4.45-9.489 22.673 22.673 0 0 0-7.9 3.4 22.957 22.957 0 0 1 3.631 3.057 5.206 5.206 0 0 1 .93 1.205l.005.01c.078.139.148.283.212.43l.017.036c.059.137.11.279.157.422a.52.52 0 0 1 .026.068c.042.134.075.271.106.409.008.034.019.066.027.1.028.133.045.27.064.407 0 .04.014.08.018.121a5.248 5.248 0 0 1 .029.54 5.208 5.208 0 0 1-1.411 3.563.021.021 0 0 1 0 .01 11.778 11.778 0 0 1 8.483-3.85z" class="prefix__cls-8" data-name="Path 36" transform="translate(3711.923 -458.511)"/>
                </g>
            </g>
            <g id="prefix__Group_27-2" data-name="Group 27" transform="translate(.528 10.447)">
                <g id="prefix__Group_25-2" data-name="Group 25">
                    <path id="prefix__Path_37-2" d="M-3730.036 471.055c0-.038.007-.044.007-.044-.151 0-.3-.011-.445-.011a12.328 12.328 0 0 0-9.489 4.449 22.673 22.673 0 0 0 3.4 7.9 23.009 23.009 0 0 1 3.057-3.632 5.191 5.191 0 0 1 1.206-.928s.006 0 .01-.006c.14-.078.285-.148.43-.213l.037-.018c.137-.059.28-.11.421-.157.023-.007.045-.018.069-.026.132-.04.271-.075.408-.106.035-.008.068-.02.1-.027.133-.027.269-.045.406-.063.04 0 .08-.013.12-.018a5.327 5.327 0 0 1 .541-.027 5.2 5.2 0 0 1 3.563 1.41l.009-.006a11.784 11.784 0 0 1-3.85-8.477z" class="prefix__cls-9" data-name="Path 37" transform="translate(3739.963 -470.999)"/>
                </g>
                <g id="prefix__Group_26-2" data-name="Group 26" transform="translate(30.761)">
                    <path id="prefix__Path_38-2" d="M-3697.38 471.055c0-.038-.008-.044 0-.044.146 0 .292-.011.438-.011a12.327 12.327 0 0 1 9.49 4.449 22.689 22.689 0 0 1-3.4 7.9 23.011 23.011 0 0 0-3.057-3.632 5.215 5.215 0 0 0-1.2-.928l-.01-.006c-.14-.078-.284-.148-.43-.213l-.037-.018c-.136-.059-.279-.11-.42-.157-.024-.007-.046-.018-.069-.026-.133-.04-.271-.075-.41-.106-.034-.008-.066-.02-.1-.027-.133-.027-.27-.045-.406-.063-.041 0-.08-.013-.121-.018a5.3 5.3 0 0 0-.542-.027 5.2 5.2 0 0 0-3.562 1.41l-.01-.006a11.779 11.779 0 0 0 3.846-8.477z" class="prefix__cls-9" data-name="Path 38" transform="translate(3701.227 -470.999)"/>
                </g>
            </g>
            <g id="prefix__Group_28-2" data-name="Group 28" transform="translate(3.926 17.571)">
                <path id="prefix__Path_39-2" d="M-3728.877 479.97a5.226 5.226 0 0 0-.54.027l-.118.018c-.138.018-.275.036-.409.064-.034.006-.066.018-.1.026-.139.031-.275.066-.41.107l-.064.024c-.145.048-.286.1-.426.16l-.032.015c-.149.066-.292.137-.432.214h-.008a5.255 5.255 0 0 0-1.208.931 23.026 23.026 0 0 0-3.058 3.632 23.044 23.044 0 0 0 3.057 3.631 5.26 5.26 0 0 0 1.206.929l.01.006c.141.078.285.149.431.214.014 0 .022.012.036.017.137.06.28.11.423.16.023.006.044.016.067.023.135.043.271.078.41.109.034.007.066.018.1.025.133.028.27.048.406.065.04 0 .08.013.121.018a5.232 5.232 0 0 0 .54.028 5.224 5.224 0 0 0 5.224-5.224 5.224 5.224 0 0 0-5.226-5.219z" class="prefix__cls-1" data-name="Path 39" transform="translate(3735.684 -479.97)"/>
                <path id="prefix__Path_40-2" d="M-3691.283 485.193a22.885 22.885 0 0 0-3.057-3.632 5.254 5.254 0 0 0-1.2-.926l-.011-.007c-.138-.078-.284-.148-.43-.213-.013 0-.024-.011-.037-.017-.135-.059-.276-.11-.417-.157l-.072-.026c-.131-.041-.266-.075-.4-.106l-.109-.028c-.131-.027-.266-.045-.4-.063-.043-.006-.082-.014-.124-.019a5.185 5.185 0 0 0-.535-.027h-.006a5.224 5.224 0 0 0-5.223 5.223 5.224 5.224 0 0 0 5.223 5.224c.182 0 .361-.011.537-.028.042 0 .083-.014.126-.018.134-.019.269-.037.4-.065.037-.006.071-.018.107-.026.134-.031.271-.065.4-.107.024-.007.047-.017.072-.025.14-.048.281-.1.418-.157l.04-.02c.145-.064.288-.133.425-.21l.015-.01a5.206 5.206 0 0 0 1.2-.926 22.912 22.912 0 0 0 3.058-3.634z" class="prefix__cls-1" data-name="Path 40" transform="translate(3729.019 -479.97)"/>
            </g>
        </g>
    </g>
</svg>
