<svg xmlns="http://www.w3.org/2000/svg" width="11.299" height="11.299" viewBox="0 0 11.299 11.299">
    <defs>
        <style>
            .prefix__cls-1{fill:none;stroke:#35b1b8;stroke-miterlimit:10;stroke-width:2px}
        </style>
    </defs>
    <g id="prefix__Group_3391" data-name="Group 3391" transform="rotate(45 7.937 4.703)">
        <path id="prefix__Line_7" d="M0 13.98L0 0" class="prefix__cls-1" data-name="Line 7" transform="translate(6.99)"/>
        <path id="prefix__Line_8" d="M13.98 0L0 0" class="prefix__cls-1" data-name="Line 8" transform="translate(0 6.99)"/>
    </g>
</svg>
