<svg xmlns="http://www.w3.org/2000/svg" id="prefix__Component_15_39" width="22" height="21.014" data-name="Component 15 – 39" viewBox="0 0 22 21.014">
    <defs>
        <style>
            .prefix__cls-1{fill:#35b1b8}
        </style>
    </defs>
    <g id="prefix__Group_2039" data-name="Group 2039">
        <path id="prefix__Path_37" d="M87.668 128.095l-10.507-10.507 10.507-10.507 2.588 2.588-7.919 7.92 7.919 7.92z" class="prefix__cls-1" data-name="Path 37" transform="translate(-77.161 -107.081)"/>
    </g>
    <path id="prefix__Rectangle_781" d="M0 0H18V3H0z" class="prefix__cls-1" data-name="Rectangle 781" transform="translate(4 8.91)"/>
</svg>
