<svg xmlns="http://www.w3.org/2000/svg" width="54" height="53" viewBox="0 0 54 53">
    <defs>
        <style>
            .prefix__cls-2{fill:#f7fbfc}
        </style>
    </defs>
    <g id="prefix__Group_4816" data-name="Group 4816" transform="translate(0 -.468)">
        <ellipse id="prefix__Ellipse_343" cx="27" cy="26.5" data-name="Ellipse 343" rx="27" ry="26.5" transform="translate(0 .468)" style="fill:#35b1b8"/>
        <g id="prefix__document_1_" data-name="document (1)" transform="translate(15 14)">
            <g id="prefix__Group_4184" data-name="Group 4184">
                <g id="prefix__Group_4183" data-name="Group 4183">
                    <path id="prefix__Path_1375" d="M23.984 7.742a2.165 2.165 0 0 0-3.058 0l-2.168 2.17V4.2a2.148 2.148 0 0 0-.633-1.529L16.086.633A2.148 2.148 0 0 0 14.557 0H2.18A2.165 2.165 0 0 0 .018 2.162V22.44A2.165 2.165 0 0 0 2.18 24.6H16.6a2.165 2.165 0 0 0 2.162-2.162v-6.407l5.222-5.231a2.161 2.161 0 0 0 0-3.058zm-9.551-6.3a.787.787 0 0 1 .633.211l2.039 2.039a.787.787 0 0 1 .211.633h-2.883zm2.883 21a.722.722 0 0 1-.721.721H2.18a.722.722 0 0 1-.721-.721V2.162a.722.722 0 0 1 .721-.721h10.812v3.6a.721.721 0 0 0 .721.721h3.6v5.589l-2.123 2.133-1.019 1.016a.721.721 0 0 0-.174.282l-1.019 3.058a.721.721 0 0 0 .912.912l3.058-1.019a.72.72 0 0 0 .282-.174l.087-.087v4.968zm-1.616-7.43l1.019 1.019-.389.389-1.529.51.51-1.529zm2.038 0l-1.019-1.019 3.465-3.468 1.016 1.019zm5.227-5.231l-.743.744-1.022-1.02.743-.744a.721.721 0 1 1 1.019 1.02z" class="prefix__cls-2" data-name="Path 1375" transform="translate(-.018)"/>
                </g>
            </g>
            <g id="prefix__Group_4186" data-name="Group 4186" transform="translate(2.883 7.208)">
                <g id="prefix__Group_4185" data-name="Group 4185">
                    <path id="prefix__Path_1376" d="M70.829 150h-10.09a.721.721 0 0 0 0 1.442h10.09a.721.721 0 0 0 0-1.442z" class="prefix__cls-2" data-name="Path 1376" transform="translate(-60.018 -150)"/>
                </g>
            </g>
            <g id="prefix__Group_4188" data-name="Group 4188" transform="translate(2.883 10.091)">
                <g id="prefix__Group_4187" data-name="Group 4187">
                    <path id="prefix__Path_1377" d="M67.946 210h-7.207a.721.721 0 0 0 0 1.442h7.208a.721.721 0 0 0 0-1.442z" class="prefix__cls-2" data-name="Path 1377" transform="translate(-60.018 -210)"/>
                </g>
            </g>
            <g id="prefix__Group_4190" data-name="Group 4190" transform="translate(2.883 12.974)">
                <g id="prefix__Group_4189" data-name="Group 4189">
                    <path id="prefix__Path_1378" d="M67.946 270h-7.207a.721.721 0 1 0 0 1.441h7.208a.721.721 0 0 0 0-1.441z" class="prefix__cls-2" data-name="Path 1378" transform="translate(-60.018 -270)"/>
                </g>
            </g>
            <g id="prefix__Group_4192" data-name="Group 4192" transform="translate(2.883 15.857)">
                <g id="prefix__Group_4191" data-name="Group 4191">
                    <path id="prefix__Path_1379" d="M67.946 330h-7.207a.721.721 0 0 0 0 1.442h7.208a.721.721 0 0 0 0-1.442z" class="prefix__cls-2" data-name="Path 1379" transform="translate(-60.018 -330)"/>
                </g>
            </g>
            <g id="prefix__Group_4194" data-name="Group 4194" transform="translate(8.649 20.277)">
                <g id="prefix__Group_4193" data-name="Group 4193">
                    <path id="prefix__Path_1380" d="M185.063 422h-4.325a.721.721 0 1 0 0 1.441h4.325a.721.721 0 0 0 0-1.441z" class="prefix__cls-2" data-name="Path 1380" transform="translate(-180.018 -422)"/>
                </g>
            </g>
        </g>
    </g>
</svg>
