<svg xmlns="http://www.w3.org/2000/svg" width="17.9" height="17.157" viewBox="0 0 17.9 17.157">
    <defs>
        <style>
            .cls-1{fill:#ff5722}
        </style>
    </defs>
    <g id="microsoft-powerpoint">
        <g id="Group_7389">
            <path id="Path_1869" d="M363.04 117.377a.373.373 0 0 0-.373.373v2.238a.373.373 0 0 0 .373.373h2.238a.373.373 0 0 0 .373-.373 2.611 2.611 0 0 0-2.611-2.611z" class="cls-1" transform="translate(-349.988 -113.645)"/>
            <path id="Path_1870" d="M280.677 142.744a1.119 1.119 0 0 1-1.119-1.119V139.8a2.6 2.6 0 1 0 2.945 2.945z" class="cls-1" transform="translate(-267.625 -135.283)"/>
            <path id="Path_1871" d="M10.3 10.709a.373.373 0 0 0-.316-.075l-9.7 2.238a.373.373 0 0 0-.284.367v12.68a.373.373 0 0 0 .316.368l9.7 1.492a.373.373 0 0 0 .43-.368V11a.373.373 0 0 0-.146-.291z" class="cls-1" transform="translate(0 -10.626)"/>
            <path id="Path_1872" d="M285.164 67.548h-7.458a.373.373 0 0 1 0-.746h7.086V54.123h-7.086a.373.373 0 1 1 0-.746h7.458a.373.373 0 0 1 .373.373v13.425a.373.373 0 0 1-.373.373z" class="cls-1" transform="translate(-267.637 -51.882)"/>
            <path id="Path_1873" d="M282.927 374.122h-5.221a.373.373 0 0 1 0-.746h5.221a.373.373 0 0 1 0 .746z" class="cls-1" transform="translate(-267.637 -360.694)"/>
            <path id="Path_1874" d="M282.927 310.122h-5.221a.373.373 0 0 1 0-.746h5.221a.373.373 0 0 1 0 .746z" class="cls-1" transform="translate(-267.637 -298.931)"/>
        </g>
        <path id="Path_1875" fill="#fafafa" d="M85.706 166.756a.373.373 0 0 1-.373-.373v-5.967a.373.373 0 0 1 .373-.373H87.2a1.865 1.865 0 0 1 1.865 1.865v.746a1.865 1.865 0 0 1-1.865 1.865h-1.121v1.865a.373.373 0 0 1-.373.372zm.373-2.983H87.2a1.119 1.119 0 0 0 1.119-1.119v-.746a1.119 1.119 0 0 0-1.119-1.119h-1.121z" transform="translate(-82.35 -154.819)"/>
    </g>
</svg>
