<svg xmlns="http://www.w3.org/2000/svg" width="22.475" height="22.475" viewBox="0 0 22.475 22.475">
    <path fill="#fff" d="M8.061 7.83L.405 4.944a.626.626 0 0 1 .073-1.195L15.892 0l-3.749 15.414a.626.626 0 0 1-1.194.073z" transform="rotate(45 5.619 13.564)"/>
</svg>
