<svg xmlns="http://www.w3.org/2000/svg" width="20" height="20" viewBox="0 0 20 20">
    <g transform="translate(-.257 .121)">
        <rect width="20" height="20" fill="#d12228" rx="10" transform="translate(.257 -.121)"/>
        <path fill="#fff" d="M5.9.61L3.947 2.561 1.919.533A1.01 1.01 0 0 0 .5.45a.554.554 0 0 0-.083.09 1 1 0 0 0-.09 1.412 1.186 1.186 0 0 0 .09.09l1.951 1.95L.34 6.02a1 1 0 0 0-.083 1.418 1.186 1.186 0 0 0 .09.09 1 1 0 0 0 1.418.083 1.022 1.022 0 0 0 .083-.083L3.8 5.577l2.027 2.028a1 1 0 0 0 1.418.083 1.022 1.022 0 0 0 .083-.083 1 1 0 0 0 .09-1.418 1.186 1.186 0 0 0-.09-.09L5.372 4.146 7.4 2.118A1 1 0 0 0 7.483.7a1.186 1.186 0 0 0-.09-.09A1 1 0 0 0 5.981.527z" transform="translate(6.296 5.863)"/>
    </g>
</svg>
