<svg xmlns="http://www.w3.org/2000/svg" width="54" height="53" viewBox="0 0 54 53">
    <g id="prefix__Group_4814" data-name="Group 4814" transform="translate(0 -.312)">
        <ellipse id="prefix__Ellipse_343" cx="27" cy="26.5" data-name="Ellipse 343" rx="27" ry="26.5" transform="translate(0 .312)" style="fill:#35b1b8"/>
        <g id="prefix__luggage" transform="translate(13.785 13.17)">
            <path id="prefix__Path_1474" d="M23.275 4.38h-3.034a.781.781 0 0 0-.779-.731h-.04V1.972A1.985 1.985 0 0 0 17.429 0h-6.7a1.984 1.984 0 0 0-1.995 1.972v1.676h-.04a.781.781 0 0 0-.779.731H4.881a4.109 4.109 0 0 0-4.1 4.1v14.852a3.356 3.356 0 0 0 3.352 3.352h19.9a3.356 3.356 0 0 0 3.352-3.352V8.484a4.109 4.109 0 0 0-4.11-4.104zm-8.71 1.563a2.748 2.748 0 0 1 1.889 3.98l-2.2.252a.782.782 0 0 0-.555.334l-3.218 4.678a.782.782 0 0 0 .2 1.087l3.219 2.207a.782.782 0 0 0 1.087-.2L18.2 13.6a.782.782 0 0 0 .113-.638l-.557-2.162a4.316 4.316 0 0 0-.2-4.632c-.054-.077-.111-.151-.169-.224h2.823v19.175H7.942V5.943zm2.145 7.065l-2.573 3.742-1.921-1.321 2.573-3.741 1.536-.176zM10.3 1.972a.41.41 0 0 1 .429-.409h6.7a.41.41 0 0 1 .429.409v1.676h-.04a.781.781 0 0 0-.779.731h-5.921a.781.781 0 0 0-.779-.731H10.3zM2.34 23.331V8.484a2.543 2.543 0 0 1 2.541-2.541h1.5v19.176H4.129a1.791 1.791 0 0 1-1.789-1.788zm23.475 0a1.791 1.791 0 0 1-1.789 1.789h-2.25V5.943h1.5a2.543 2.543 0 0 1 2.541 2.541v14.847z" data-name="Path 1474" transform="translate(-.777)" style="fill:#fff;stroke:#fff;stroke-width:.2px"/>
        </g>
    </g>
</svg>
