<svg xmlns="http://www.w3.org/2000/svg" width="39" height="40" viewBox="0 0 39 40">
    <g id="prefix__Group_4527" data-name="Group 4527" transform="translate(-.029)">
        <rect id="prefix__Rectangle_1027" width="39" height="40" data-name="Rectangle 1027" rx="19.5" transform="translate(.029)" style="fill:#8dc646"/>
        <g id="prefix__Grupo_2910_1_" transform="translate(11.884 14.294)">
            <g id="prefix__Grupo_2908_1_">
                <path id="prefix__Trazado_628_1_" d="M-159.112 8.036a1.492 1.492 0 0 1-.953-.377l-3.613-3.424a1.5 1.5 0 0 1 0-2.094 1.5 1.5 0 0 1 2.094 0l2.471 2.471 7.774-7.837a1.476 1.476 0 0 1 2.085.072 1.473 1.473 0 0 1 0 2.013l-8.915 8.789c-.189.387-.566.387-.943.387z" transform="translate(164.103 3.621)" style="fill:#fff"/>
            </g>
        </g>
    </g>
</svg>
