<svg xmlns="http://www.w3.org/2000/svg" width="39" height="40" viewBox="0 0 39 40">
    <g id="prefix__Group_4529" data-name="Group 4529" transform="translate(-.029)">
        <rect id="prefix__Rectangle_1027" width="39" height="40" data-name="Rectangle 1027" rx="19.5" transform="translate(.029)" style="fill:#d12228"/>
        <path id="prefix__Trazado_625_1_" d="M8.3.778L5.557 3.525 2.7.67a1.423 1.423 0 0 0-2-.118.78.78 0 0 0-.113.127 1.4 1.4 0 0 0-.126 1.988 1.67 1.67 0 0 0 .126.126L3.334 5.54.479 8.4a1.406 1.406 0 0 0-.117 2 1.67 1.67 0 0 0 .126.126 1.406 1.406 0 0 0 2 .117 1.44 1.44 0 0 0 .117-.117l2.744-2.754L8.2 10.627a1.406 1.406 0 0 0 2 .117 1.44 1.44 0 0 0 .117-.117 1.415 1.415 0 0 0 .126-2 1.67 1.67 0 0 0-.126-.126L7.563 5.757 10.418 2.9a1.406 1.406 0 0 0 .117-2 1.67 1.67 0 0 0-.126-.126A1.411 1.411 0 0 0 8.421.661z" transform="translate(14.176 14.564)" style="fill:#fff"/>
    </g>
</svg>
