<svg xmlns="http://www.w3.org/2000/svg" width="25.52" height="30.5" viewBox="0 0 25.52 30.5">
    <defs>
        <style>
            .prefix__cls-1{fill:#002655;stroke:#002655;stroke-width:.5px}
        </style>
    </defs>
    <g id="prefix__bell_4_" data-name="bell (4)" transform="translate(-42.398 .25)">
        <g id="prefix__Group_4003" data-name="Group 4003" transform="translate(42.657 4.25)">
            <g id="prefix__Group_4002" data-name="Group 4002">
                <path id="prefix__Path_1333" d="M67.569 95.817L65.422 92.2a10.832 10.832 0 0 1-1.514-5.525v-3.166a8.75 8.75 0 1 0-17.5 0v3.167a10.832 10.832 0 0 1-1.514 5.524l-2.148 3.615a.637.637 0 0 0-.009.635.626.626 0 0 0 .545.321h23.75a.626.626 0 0 0 .545-.321.637.637 0 0 0-.008-.633zm-23.182-.307l1.579-2.659a12.094 12.094 0 0 0 1.692-6.175v-3.167a7.5 7.5 0 1 1 15 0v3.167a12.105 12.105 0 0 0 1.691 6.175l1.58 2.659H44.387z" class="prefix__cls-1" data-name="Path 1333" transform="translate(-42.657 -74.667)"/>
            </g>
        </g>
        <g id="prefix__Group_4005" data-name="Group 4005" transform="translate(52.729)">
            <g id="prefix__Group_4004" data-name="Group 4004">
                <path id="prefix__Path_1334" d="M215.762 0a2.431 2.431 0 0 0-2.429 2.429v2.429a.607.607 0 0 0 1.214 0V2.429a1.214 1.214 0 1 1 2.429 0v2.429a.607.607 0 0 0 1.214 0V2.429A2.431 2.431 0 0 0 215.762 0z" class="prefix__cls-1" data-name="Path 1334" transform="translate(-213.333)"/>
            </g>
        </g>
        <g id="prefix__Group_4007" data-name="Group 4007" transform="translate(52.122 25.143)">
            <g id="prefix__Group_4006" data-name="Group 4006">
                <path id="prefix__Path_1335" d="M208.33 426.979a.608.608 0 0 0-1.049.614 1.822 1.822 0 1 1-3.155 0 .608.608 0 0 0-1.049-.614 3.037 3.037 0 1 0 5.254 0z" class="prefix__cls-1" data-name="Path 1335" transform="translate(-202.666 -426.68)"/>
            </g>
        </g>
    </g>
</svg>
