<svg xmlns="http://www.w3.org/2000/svg" width="175.412" height="175.707" viewBox="0 0 175.412 175.707">
    <defs>
        <style>
            .prefix__cls-2{fill:#002655}
        </style>
    </defs>
    <g id="prefix__Group_751" data-name="Group 751" transform="rotate(-90 87.854 87.853)" style="opacity:.05">
        <path id="prefix__Path_552" d="M170.7 1342.736a87.519 87.519 0 0 1-32.411-6.185.546.546 0 0 1-.306-.3 86.985 86.985 0 0 1-6.209-32.365 87.9 87.9 0 0 1 2.035-18.778.546.546 0 0 1 .953-.232A46.672 46.672 0 0 0 170.7 1301.7c.478 0 .961-.017 1.428-.034l.24-.008a.546.546 0 0 1 .565.568c-.023.555-.044 1.1-.044 1.654a46.562 46.562 0 0 0 16.852 35.884.545.545 0 0 1-.233.951 88.234 88.234 0 0 1-18.808 2.021zm-31.789-7.112a87.13 87.13 0 0 0 49.282 4.256 47.639 47.639 0 0 1-16.4-36c0-.372.009-.746.022-1.111-.367.012-.741.022-1.119.022a47.755 47.755 0 0 1-36.054-16.376 86.813 86.813 0 0 0-1.78 17.465 85.9 85.9 0 0 0 6.049 31.744z" class="prefix__cls-2" data-name="Path 552" transform="translate(-131.774 -1167.324)"/>
        <path id="prefix__Path_553" d="M1371.32 1342.736a88.349 88.349 0 0 1-18.816-2.02.545.545 0 0 1-.233-.951 46.551 46.551 0 0 0 16.86-35.884c0-.556-.022-1.123-.046-1.652a.545.545 0 0 1 .564-.57l.235.008c.47.017.957.034 1.435.034a46.67 46.67 0 0 0 35.936-16.832.546.546 0 0 1 .953.232 87.754 87.754 0 0 1-4.168 51.143.546.546 0 0 1-.306.305 87.561 87.561 0 0 1-32.414 6.187zm-17.5-2.856a87.368 87.368 0 0 0 17.5 1.766 86.468 86.468 0 0 0 31.793-6.022 86.672 86.672 0 0 0 4.259-49.208 47.752 47.752 0 0 1-36.052 16.376c-.376 0-.751-.01-1.119-.022.013.364.023.738.023 1.111a47.628 47.628 0 0 1-16.404 35.999zm49.714-3.836z" class="prefix__cls-2" data-name="Path 553" transform="translate(-1234.53 -1167.324)"/>
        <g id="prefix__Group_739" data-name="Group 739" transform="translate(2.022 87.164)">
            <g id="prefix__Group_737" data-name="Group 737">
                <path id="prefix__Path_554" d="M189.66 1019.084a47.761 47.761 0 0 1-36.764-17.213.544.544 0 0 1-.114-.465 86.75 86.75 0 0 1 13.089-30.387.546.546 0 0 1 .452-.239.546.546 0 0 1 .451.238 87.6 87.6 0 0 0 11.636 13.8.526.526 0 0 1 .048.053 19.481 19.481 0 0 0 4.461 3.416c.022.013.041.025.056.036.535.291 1.067.551 1.58.773l.035.017.058.032a.457.457 0 0 0 .041.022c.546.237 1.1.431 1.574.59.043.014.087.031.132.047s.076.029.116.041c.428.138.9.262 1.524.4.061.013.124.03.187.047s.127.034.18.043h.017c.514.108 1.052.182 1.511.24.08.009.162.023.24.036s.143.024.2.03c.738.071 1.4.106 2.016.106a19.407 19.407 0 0 0 13.276-5.253.564.564 0 1 1 .743.849 48.13 48.13 0 0 0-10.469 14.308 41 41 0 0 0-4.058 17.669.545.545 0 0 1-.5.715l-.532.017c-.385.019-.786.032-1.186.032zm2.225-.73zm-.164-.271zm-37.814-16.705a46.671 46.671 0 0 0 35.753 16.616c.376 0 .744-.012 1.133-.025a42.111 42.111 0 0 1 4.161-17.778 48.213 48.213 0 0 1 6.961-10.7 20.431 20.431 0 0 1-9.524 2.349c-.653 0-1.348-.036-2.124-.112-.1-.01-.191-.025-.278-.04-.063-.011-.126-.022-.189-.029-.485-.061-1.047-.138-1.6-.254-.095-.017-.183-.041-.261-.062-.047-.013-.095-.026-.143-.036-.666-.151-1.162-.282-1.613-.428-.053-.016-.113-.038-.173-.061-.031-.012-.063-.024-.094-.034-.467-.157-1.076-.369-1.659-.622a1.5 1.5 0 0 1-.142-.071l-.016-.009c-.539-.234-1.1-.506-1.656-.812a.577.577 0 0 1-.092-.056 20.558 20.558 0 0 1-4.713-3.625l-.024-.027a88.605 88.605 0 0 1-11.287-13.272 85.625 85.625 0 0 0-12.42 29.088zm28.975-13.1zm0 0zm23.007-2.89z" class="prefix__cls-2" data-name="Path 554" transform="translate(-152.77 -970.78)"/>
            </g>
            <g id="prefix__Group_738" data-name="Group 738" transform="translate(117.826)">
                <path id="prefix__Path_555" d="M1392.932 1019.084c-.4 0-.8-.014-1.189-.027l-.505-.016a.552.552 0 0 1-.524-.678.173.173 0 0 0 0-.036 40.991 40.991 0 0 0-4.058-17.67 48.113 48.113 0 0 0-10.429-14.269.567.567 0 1 1 .7-.888 19.4 19.4 0 0 0 13.27 5.253c.624 0 1.286-.035 2.024-.107.06-.006.13-.018.2-.03s.16-.027.249-.037c.45-.057.988-.131 1.5-.239h.018c.051-.009.108-.025.173-.043s.123-.034.187-.048c.61-.136 1.094-.264 1.522-.4.041-.013.077-.026.113-.04s.1-.036.149-.053c.434-.146 1.01-.347 1.562-.586l.023-.013.1-.055.012-.005c.523-.225 1.053-.484 1.574-.769a.744.744 0 0 1 .07-.042 19.541 19.541 0 0 0 4.484-3.448.546.546 0 0 1 .041-.038 87.6 87.6 0 0 0 11.611-13.778.546.546 0 0 1 .452-.239.546.546 0 0 1 .451.239 86.854 86.854 0 0 1 13.089 30.387.545.545 0 0 1-.114.465 47.767 47.767 0 0 1-36.755 17.21zm-1.125-1.116c.37.013.752.025 1.125.025a46.677 46.677 0 0 0 35.759-16.616 85.742 85.742 0 0 0-12.421-29.077 88.59 88.59 0 0 1-11.323 13.307l-.016.015a20.639 20.639 0 0 1-4.708 3.615.591.591 0 0 1-.051.032c-.557.306-1.125.584-1.686.826l-.021.012a1.26 1.26 0 0 1-.129.065c-.586.254-1.191.465-1.651.62-.041.013-.075.026-.108.039-.055.021-.111.041-.166.059-.456.146-.97.282-1.614.426-.046.01-.09.023-.134.035-.078.022-.166.046-.264.064-.551.115-1.113.193-1.59.253-.071.008-.134.019-.2.03-.088.015-.178.03-.277.04-.776.075-1.473.112-2.132.112a20.415 20.415 0 0 1-9.516-2.348 48.2 48.2 0 0 1 6.96 10.7 42.109 42.109 0 0 1 4.163 17.767zm8.385-28.719zm-23.2-3.677zm-.706-.126z" class="prefix__cls-2" data-name="Path 555" transform="translate(-1375.984 -970.78)"/>
            </g>
        </g>
        <path id="prefix__Path_556" d="M134.343 122.449a.546.546 0 0 1-.534-.429 87.949 87.949 0 0 1-2.035-18.782 87 87 0 0 1 6.209-32.364.545.545 0 0 1 .306-.305 88.106 88.106 0 0 1 51.219-4.161.545.545 0 0 1 .233.951 46.542 46.542 0 0 0-16.852 35.879c0 .553.021 1.1.044 1.656a.546.546 0 0 1-.567.568c-.533-.02-1.1-.04-1.666-.04a46.671 46.671 0 0 0-35.938 16.831.546.546 0 0 1-.419.196zm4.568-50.949a85.91 85.91 0 0 0-6.045 31.742 86.863 86.863 0 0 0 1.78 17.468 47.754 47.754 0 0 1 36.054-16.378c.378 0 .753.009 1.119.02-.013-.369-.022-.738-.022-1.113a47.619 47.619 0 0 1 16.4-35.994 87.017 87.017 0 0 0-49.286 4.255z" class="prefix__cls-2" data-name="Path 556" transform="translate(-131.774 -64.383)"/>
        <g id="prefix__Group_742" data-name="Group 742" transform="translate(40.023 2.026)">
            <g id="prefix__Group_740" data-name="Group 740" transform="translate(0 117.611)">
                <path id="prefix__Path_557" d="M564.862 1362.216a.547.547 0 0 1-.35-.126 47.621 47.621 0 0 1-17.24-36.71c0-.576.022-1.155.045-1.7a.553.553 0 0 1 .686-.515h.02a41.165 41.165 0 0 0 17.7-4.053 48.226 48.226 0 0 0 14.306-10.423.547.547 0 0 1 .845-.056.544.544 0 0 1 .172.4.557.557 0 0 1-.159.388l-.03.029a19.357 19.357 0 0 0-5.212 13.207 19.013 19.013 0 0 0 .108 2.008c.01.093.025.19.041.292l.023.145v.014c.055.448.126.977.239 1.509.017.081.037.157.056.234l.034.136c.118.5.245 1.025.4 1.526l.032.085c.021.055.043.111.062.171.151.437.355 1.008.594 1.57a.513.513 0 0 0 .025.051l.028.054.011.023c.269.609.526 1.131.786 1.594l.022.039v.005a19.442 19.442 0 0 0 3.441 4.468c.013.011.026.023.037.035a87.448 87.448 0 0 0 13.825 11.618.545.545 0 0 1 0 .9 87.086 87.086 0 0 1-30.438 13.068.563.563 0 0 1-.109.014zm-16.474-37.961c-.014.375-.023.748-.023 1.125a46.533 46.533 0 0 0 16.642 35.7 85.962 85.962 0 0 0 29.131-12.4 88.481 88.481 0 0 1-13.311-11.285l-.015-.014a20.535 20.535 0 0 1-3.646-4.724l-.025-.046c-.277-.491-.548-1.041-.83-1.679l-.012-.022a1.5 1.5 0 0 1-.067-.14c-.251-.588-.464-1.185-.621-1.639v-.012c-.013-.04-.028-.077-.042-.114s-.035-.089-.05-.134v-.015c-.167-.537-.3-1.087-.423-1.6l-.03-.121c-.023-.092-.047-.184-.066-.277-.122-.572-.2-1.152-.254-1.595l-.02-.128c-.018-.112-.036-.227-.048-.349a20.093 20.093 0 0 1-.114-2.121 20.361 20.361 0 0 1 2.352-9.509 48.353 48.353 0 0 1-10.716 6.951 42.293 42.293 0 0 1-17.812 4.148zm28.762 8.373l.01.016z" class="prefix__cls-2" data-name="Path 557" transform="translate(-547.273 -1308.46)"/>
            </g>
            <g id="prefix__Group_741" data-name="Group 741">
                <path id="prefix__Path_558" d="M580.472 139.2a.538.538 0 0 1-.2-.038.551.551 0 0 1-.243-.187 48.21 48.21 0 0 0-14.309-10.423 41.185 41.185 0 0 0-17.7-4.051.16.16 0 0 0-.036 0 .557.557 0 0 1-.471-.117.564.564 0 0 1-.2-.4c-.024-.569-.045-1.127-.045-1.7a47.611 47.611 0 0 1 17.24-36.7.547.547 0 0 1 .466-.114 87.113 87.113 0 0 1 30.438 13.066.545.545 0 0 1 0 .9 87.518 87.518 0 0 0-13.826 11.618.542.542 0 0 1-.048.044 19.479 19.479 0 0 0-3.431 4.458l-.01.018-.012.023c-.269.476-.527 1-.789 1.593l-.011.024-.057.116c-.238.558-.441 1.131-.591 1.57l-.046.124c-.016.041-.032.082-.046.125-.146.465-.266.945-.4 1.522l-.036.144c-.019.074-.038.148-.054.225-.112.524-.184 1.059-.24 1.513v.015l-.02.129c-.017.106-.033.206-.043.3a19.1 19.1 0 0 0-.108 2.01 19.361 19.361 0 0 0 5.2 13.2.557.557 0 0 1 .2.425.544.544 0 0 1-.214.433.554.554 0 0 1-.358.135zm-32.084-15.787a42.3 42.3 0 0 1 17.8 4.154 48.322 48.322 0 0 1 10.712 6.943 20.365 20.365 0 0 1-2.348-9.5 20.158 20.158 0 0 1 .114-2.122c.013-.126.032-.246.05-.363l.018-.113c.058-.476.135-1.037.254-1.6.02-.095.043-.184.065-.271l.032-.126c.14-.6.266-1.1.422-1.6.022-.068.045-.128.068-.188l.033-.089c.156-.455.369-1.057.623-1.65l.008-.019.065-.134c.273-.62.544-1.166.826-1.668l.018-.034.008-.014a20.557 20.557 0 0 1 3.653-4.737l.022-.02a88.542 88.542 0 0 1 13.3-11.277A86 86 0 0 0 565 86.585a46.524 46.524 0 0 0-16.642 35.695c.007.379.017.754.031 1.132z" class="prefix__cls-2" data-name="Path 558" transform="translate(-547.273 -85.45)"/>
            </g>
        </g>
        <g id="prefix__Group_743" data-name="Group 743" transform="translate(67.303 15.01)">
            <path id="prefix__Path_559" d="M851.038 1289.776a.545.545 0 0 1-.307-.094 88.428 88.428 0 0 1-13.976-11.741 20.4 20.4 0 0 1-4.54-6.508l-.026-.047a.522.522 0 0 1-.028-.056c-.229-.535-.447-1.117-.648-1.729l-.03-.087-.035-.1c-.193-.592-.335-1.187-.448-1.693-.026-.092-.058-.2-.082-.313-.132-.633-.218-1.268-.279-1.751v-.037c0-.012-.008-.062-.015-.1s-.021-.119-.027-.192a20.53 20.53 0 0 1 20.443-22.646 20.5 20.5 0 0 1 20.441 22.644c-.009.1-.025.191-.039.274-.011.068-.022.131-.028.188v.019l-.02.143c-.065.474-.133.965-.234 1.446-.017.078-.036.148-.056.218s-.033.116-.046.177c-.112.491-.249 1.061-.43 1.615l-.038.115c-.013.04-.029.085-.043.131l-.008.024c-.183.525-.386 1.088-.624 1.653 0 .01-.009.021-.014.031l-.031.061-.028.055a17.341 17.341 0 0 1-.817 1.647.543.543 0 0 1-.036.078 20.724 20.724 0 0 1-3.657 4.733 88.74 88.74 0 0 1-13.982 11.749.546.546 0 0 1-.312.093zm-17.883-18.9l.033.06.02.04a19.32 19.32 0 0 0 4.314 6.188l.014.014a87.306 87.306 0 0 0 13.5 11.393 87.624 87.624 0 0 0 13.509-11.4l.013-.013a19.625 19.625 0 0 0 3.448-4.449.555.555 0 0 1 .039-.084 16.2 16.2 0 0 0 .793-1.594l.009-.019.046-.091.016-.032c.222-.527.414-1.06.588-1.559.017-.056.035-.109.053-.161.011-.032.022-.063.032-.1.169-.515.3-1.055.4-1.515.017-.081.04-.162.06-.233.015-.053.029-.1.041-.158.092-.437.154-.887.22-1.364l.019-.135c.009-.086.023-.167.035-.244s.023-.142.03-.206a19.413 19.413 0 0 0-19.354-21.445 19.4 19.4 0 0 0-19.356 21.449v.017c0 .024.008.059.014.1a1.973 1.973 0 0 1 .028.206c.061.488.141 1.063.261 1.643.017.078.046.177.068.257 0 .01.006.021.008.031.108.484.243 1.053.423 1.6l.028.079.038.108c.194.574.397 1.116.609 1.616zm35.353 2.058z" class="prefix__cls-2" data-name="Path 559" transform="translate(-830.481 -1144.379)"/>
            <path id="prefix__Path_560" d="M851.038 267.564a20.492 20.492 0 0 1-20.443-22.645c.007-.082.019-.159.03-.227l.015-.1c.065-.518.149-1.133.278-1.746.018-.084.038-.161.058-.235l.023-.088c.1-.459.247-1.06.44-1.662a1.312 1.312 0 0 1 .056-.17l.016-.041c.2-.617.421-1.2.65-1.731a.447.447 0 0 1 .02-.042l.006-.011.013-.031a20.444 20.444 0 0 1 4.546-6.522 88.6 88.6 0 0 1 13.984-11.748.547.547 0 0 1 .614 0 88.681 88.681 0 0 1 13.994 11.763l.02.021a20.436 20.436 0 0 1 3.617 4.689.761.761 0 0 1 .037.068c.288.512.565 1.072.823 1.664l.066.135.007.015c.2.469.4.99.614 1.639l.011.026a2.493 2.493 0 0 1 .1.271c.141.453.271.948.417 1.6.012.051.027.1.041.155.019.068.042.146.06.229.1.486.17.976.235 1.449l.021.151v.02c.006.06.017.125.028.194s.028.171.038.266a20.769 20.769 0 0 1 .112 2.118 20.561 20.561 0 0 1-20.547 20.526zM832.5 241.121c0 .017-.008.034-.014.051-.185.571-.323 1.153-.423 1.6v.015l-.028.108c-.016.06-.032.118-.044.177-.12.574-.2 1.162-.263 1.661-.006.048-.013.091-.02.135s-.017.1-.02.146v.015a19.438 19.438 0 0 0 19.356 21.447 19.412 19.412 0 0 0 19.354-21.441c-.006-.06-.017-.126-.029-.2s-.027-.163-.037-.253l-.02-.143c-.065-.476-.127-.925-.22-1.368-.011-.051-.027-.106-.043-.161-.02-.071-.04-.141-.056-.213-.14-.624-.262-1.093-.4-1.522a1.611 1.611 0 0 0-.063-.161l-.021-.05-.015-.039c-.208-.625-.394-1.122-.584-1.565l-.056-.114-.013-.027a17.565 17.565 0 0 0-.788-1.592l-.013-.024v-.006l-.006-.011a19.354 19.354 0 0 0-3.464-4.485.547.547 0 0 1-.046-.05 87.542 87.542 0 0 0-13.483-11.376 87.5 87.5 0 0 0-13.511 11.4l-.013.013a19.357 19.357 0 0 0-4.3 6.161.941.941 0 0 1-.054.119c-.214.5-.417 1.042-.606 1.613-.01.032-.024.069-.038.106-.011.013-.019.023-.019.034zm0-.007zm-.322-2.225v.008zm35.868-1.276l.018.026z" class="prefix__cls-2" data-name="Path 560" transform="translate(-830.481 -220.469)"/>
        </g>
        <path id="prefix__Path_561" d="M1407.676 122.449a.546.546 0 0 1-.42-.2 46.669 46.669 0 0 0-35.936-16.831c-.566 0-1.135.02-1.668.04a.545.545 0 0 1-.566-.569c.028-.614.046-1.13.046-1.654a46.531 46.531 0 0 0-16.86-35.879.545.545 0 0 1 .233-.952 88.147 88.147 0 0 1 51.231 4.161.546.546 0 0 1 .306.305 87.761 87.761 0 0 1 4.168 51.145.546.546 0 0 1-.534.429zm-36.356-18.118a47.751 47.751 0 0 1 36.052 16.376 86.678 86.678 0 0 0-4.259-49.21 87.053 87.053 0 0 0-49.293-4.252 47.606 47.606 0 0 1 16.4 35.994c0 .366-.009.726-.023 1.113.37-.012.745-.02 1.123-.02z" class="prefix__cls-2" data-name="Path 561" transform="translate(-1234.53 -64.383)"/>
        <g id="prefix__Group_746" data-name="Group 746" transform="translate(87.313 2.026)">
            <g id="prefix__Group_744" data-name="Group 744" transform="translate(0 117.611)">
                <path id="prefix__Path_562" d="M1069.01 1362.217a.541.541 0 0 1-.117-.013 87.043 87.043 0 0 1-30.434-13.068.545.545 0 0 1 0-.9 87.535 87.535 0 0 0 13.787-11.582.538.538 0 0 1 .049-.054 19.32 19.32 0 0 0 3.464-4.484l.005-.01.021-.038a17.5 17.5 0 0 0 .784-1.589l.012-.026.027-.051c.007-.014.015-.026.022-.043v-.011c.193-.447.38-.946.588-1.568l.008-.022.045-.112c.015-.036.035-.085.046-.117.166-.535.3-1.095.395-1.522.016-.073.036-.144.057-.215.016-.056.032-.112.044-.168.094-.447.156-.906.223-1.392l.015-.11c.01-.094.025-.183.038-.262s.022-.131.028-.188a19.612 19.612 0 0 0 .106-2.01 19.359 19.359 0 0 0-5.223-13.222.552.552 0 0 1-.179-.407.562.562 0 0 1 1-.361 48.224 48.224 0 0 0 14.319 10.441 41.154 41.154 0 0 0 17.7 4.053h.026a.553.553 0 0 1 .685.514c.025.542.048 1.123.048 1.7a47.622 47.622 0 0 1-17.242 36.71.547.547 0 0 1-.347.127zm-29.272-13.536a85.935 85.935 0 0 0 29.127 12.4 46.535 46.535 0 0 0 16.644-35.7c0-.375-.01-.756-.024-1.125a42.266 42.266 0 0 1-17.807-4.156 48.326 48.326 0 0 1-10.71-6.949 20.359 20.359 0 0 1 2.351 9.507 20.738 20.738 0 0 1-.112 2.122c-.009.091-.023.174-.037.255s-.023.138-.029.2v.021l-.016.12c-.066.483-.135.983-.238 1.474-.019.083-.039.158-.06.233-.015.054-.031.107-.043.161-.1.446-.24 1.033-.418 1.609-.026.08-.054.148-.078.208l-.031.075c-.216.644-.411 1.165-.614 1.636a1.508 1.508 0 0 1-.066.138l-.011.02a18.5 18.5 0 0 1-.825 1.67.57.57 0 0 1-.038.068 20.394 20.394 0 0 1-3.608 4.678l-.024.027a88.542 88.542 0 0 1-13.333 11.308zm16.974-16.037zm0 0zm0 0zm0 0zm0 0zm-.864-.645zm0 0zm-3-22.988z" class="prefix__cls-2" data-name="Path 562" transform="translate(-1038.22 -1308.461)"/>
            </g>
            <g id="prefix__Group_745" data-name="Group 745">
                <path id="prefix__Path_563" d="M1053.395 139.2a.589.589 0 0 1-.569-.57.556.556 0 0 1 .192-.421 19.357 19.357 0 0 0 5.209-13.205 19.648 19.648 0 0 0-.106-2.008c-.006-.062-.017-.128-.029-.2s-.027-.163-.036-.253l-.02-.143c-.065-.476-.127-.925-.22-1.368-.011-.051-.027-.106-.043-.161-.02-.071-.04-.141-.056-.213-.14-.624-.262-1.093-.4-1.522a1.542 1.542 0 0 0-.062-.161l-.022-.05-.015-.039c-.208-.625-.393-1.122-.584-1.565l-.056-.114-.013-.027a17.456 17.456 0 0 0-.788-1.592l-.013-.024v-.006l-.006-.011a19.344 19.344 0 0 0-3.464-4.485.546.546 0 0 1-.046-.05 87.6 87.6 0 0 0-13.79-11.586.544.544 0 0 1 0-.9 87.076 87.076 0 0 1 30.434-13.066.547.547 0 0 1 .466.114 47.613 47.613 0 0 1 17.242 36.7c0 .545-.019 1.075-.048 1.7a.566.566 0 0 1-.2.4.557.557 0 0 1-.47.119.216.216 0 0 0-.045 0 41.172 41.172 0 0 0-17.7 4.051 48.2 48.2 0 0 0-14.309 10.427.546.546 0 0 1-.433.229zm-.546-.545zm5.4-20.132l.011.026a2.52 2.52 0 0 1 .1.271c.141.453.271.948.417 1.6.011.051.027.1.041.155.02.068.042.146.06.229.1.486.17.976.235 1.449l.021.151v.02c.006.06.017.125.028.194s.028.171.038.266a20.729 20.729 0 0 1 .112 2.118 20.367 20.367 0 0 1-2.348 9.5 48.307 48.307 0 0 1 10.707-6.943 42.294 42.294 0 0 1 17.806-4.154c.015-.4.024-.762.024-1.131a46.525 46.525 0 0 0-16.644-35.695 85.966 85.966 0 0 0-29.127 12.4 88.621 88.621 0 0 1 13.329 11.308l.02.021A20.443 20.443 0 0 1 1056.7 115a.691.691 0 0 1 .037.068 18.536 18.536 0 0 1 .823 1.664c.024.046.045.09.066.136l.007.015c.207.471.402.993.618 1.642zm-2.476-2.947l.018.026z" class="prefix__cls-2" data-name="Path 563" transform="translate(-1038.22 -85.45)"/>
            </g>
        </g>
        <g id="prefix__Group_749" data-name="Group 749" transform="translate(2.022 39.949)">
            <g id="prefix__Group_747" data-name="Group 747">
                <path id="prefix__Path_564" d="M166.324 528.106a.546.546 0 0 1-.452-.239 86.828 86.828 0 0 1-13.089-30.392.544.544 0 0 1 .114-.465 47.783 47.783 0 0 1 36.763-17.21c.431 0 .864.014 1.283.028l.438.014a.545.545 0 0 1 .5.715 40.989 40.989 0 0 0 4.058 17.668 48.127 48.127 0 0 0 10.447 14.287.546.546 0 0 1 .127.736l-.012.021a.547.547 0 0 1-.658.22.562.562 0 0 1-.171-.1.546.546 0 0 1-.054-.052 19.4 19.4 0 0 0-13.228-5.2c-.672 0-1.347.033-2.007.1-.056.008-.113.017-.169.027-.092.016-.187.032-.288.043-.568.075-1.041.14-1.51.237-.048.01-.105.026-.165.043s-.141.039-.22.057c-.589.133-1.087.264-1.518.4-.024.008-.054.02-.083.033-.051.021-.108.044-.173.065-.6.2-1.116.392-1.567.585l-.048.024-.07.035-.012.006c-.584.26-1.1.513-1.576.773a.61.61 0 0 1-.087.052 19.394 19.394 0 0 0-4.474 3.443l-.013.013a87.589 87.589 0 0 0-11.636 13.8.547.547 0 0 1-.45.233zm-12.417-30.6a85.7 85.7 0 0 0 12.421 29.087 88.606 88.606 0 0 1 11.318-13.307 20.481 20.481 0 0 1 4.725-3.633l.051-.032c.514-.283 1.064-.553 1.687-.831l.03-.015c.039-.02.08-.041.125-.06.478-.2 1.02-.406 1.654-.617h.01c.031-.009.061-.022.091-.035.049-.02.1-.042.166-.062.466-.144.99-.281 1.61-.422.057-.013.11-.028.162-.042.071-.02.152-.043.238-.061.508-.1 1-.173 1.6-.251h.012c.07-.008.148-.021.229-.035s.143-.024.215-.034h.019c.7-.07 1.414-.1 2.125-.1a20.453 20.453 0 0 1 9.522 2.343 48.211 48.211 0 0 1-6.959-10.694 42.11 42.11 0 0 1-4.161-17.777c-.387-.012-.756-.023-1.133-.023a46.691 46.691 0 0 0-35.757 16.595zm28.6 12.09zm0 0zm9.223-28.8zm0 0z" class="prefix__cls-2" data-name="Path 564" transform="translate(-152.77 -479.801)"/>
            </g>
            <g id="prefix__Group_748" data-name="Group 748" transform="translate(117.831)">
                <path id="prefix__Path_565" d="M1416.319 528.106a.546.546 0 0 1-.452-.239 87.594 87.594 0 0 0-11.591-13.764.483.483 0 0 1-.062-.054 19.46 19.46 0 0 0-4.46-3.439.617.617 0 0 1-.109-.063c-.461-.253-.972-.5-1.559-.765-.04-.017-.075-.035-.109-.053l-.026-.013c-.456-.195-.968-.386-1.564-.584-.069-.022-.13-.046-.183-.068-.027-.011-.054-.022-.081-.031-.446-.137-.944-.266-1.522-.4-.078-.017-.15-.038-.213-.056s-.113-.033-.162-.043c-.506-.1-1.039-.174-1.51-.237-.1-.011-.2-.027-.287-.043-.057-.01-.115-.019-.172-.027-.658-.065-1.335-.1-2.013-.1a19.392 19.392 0 0 0-13.27 5.246.547.547 0 0 1-.726.018.553.553 0 0 1-.106-.12.546.546 0 0 1 .118-.772 48.119 48.119 0 0 0 10.441-14.28 40.988 40.988 0 0 0 4.058-17.668.3.3 0 0 0 0-.032.555.555 0 0 1 .109-.481.561.561 0 0 1 .413-.2l.409-.013c.42-.014.854-.028 1.287-.028a47.789 47.789 0 0 1 36.77 17.209.545.545 0 0 1 .114.465 86.936 86.936 0 0 1-13.089 30.392.547.547 0 0 1-.452.239zm-11.363-14.86l.036.032a88.634 88.634 0 0 1 11.322 13.313 85.807 85.807 0 0 0 12.421-29.087 46.7 46.7 0 0 0-35.759-16.612c-.373 0-.754.011-1.125.023a42.1 42.1 0 0 1-4.162 17.777 48.192 48.192 0 0 1-6.959 10.692 20.436 20.436 0 0 1 9.514-2.342c.718 0 1.435.035 2.131.1h.018c.073.01.146.022.219.034s.157.027.228.034h.013c.491.065 1.047.138 1.594.25.091.019.173.043.246.064.048.014.1.028.147.039.61.136 1.137.273 1.612.42h.011c.052.017.1.038.154.058s.071.029.1.036h.013c.628.209 1.168.411 1.653.618.04.017.075.035.111.054l.026.013h.009c.637.283 1.19.555 1.691.832a.507.507 0 0 1 .044.027 20.532 20.532 0 0 1 4.692 3.625zm-4.6-3.514zm0 0" class="prefix__cls-2" data-name="Path 565" transform="translate(-1376.034 -479.801)"/>
            </g>
        </g>
        <g id="prefix__Group_750" data-name="Group 750" transform="translate(15.038 67.19)">
            <path id="prefix__Path_566" d="M314.512 804.117a21.2 21.2 0 0 1-2.124-.108h-.011c-.083-.01-.164-.024-.244-.037s-.148-.025-.211-.032h-.015c-.51-.066-1.056-.143-1.591-.254-.1-.018-.184-.042-.261-.063-.045-.012-.09-.025-.137-.036-.62-.138-1.134-.274-1.616-.427-.05-.016-.1-.034-.15-.053-.031-.011-.061-.023-.092-.033l-.022-.007c-.5-.17-1.092-.377-1.664-.625a1.213 1.213 0 0 1-.112-.056l-.013-.007-.016-.007c-.61-.272-1.159-.543-1.678-.828-.022-.011-.041-.023-.057-.032a20.585 20.585 0 0 1-4.736-3.644 88.578 88.578 0 0 1-11.774-13.96.544.544 0 0 1 0-.613 88.552 88.552 0 0 1 11.752-13.945l.02-.022a20.562 20.562 0 0 1 4.756-3.656l.031-.018c.542-.3 1.114-.58 1.7-.839l.038-.018c.029-.015.058-.029.088-.042.519-.221 1.066-.426 1.674-.627l.084-.032c.054-.021.11-.042.162-.06h.01c.493-.152 1.021-.29 1.613-.422.049-.011.1-.025.143-.038.076-.022.161-.046.256-.064.513-.106 1.03-.177 1.6-.251.073-.008.146-.021.222-.034s.151-.026.228-.036h.017a21.218 21.218 0 0 1 2.124-.1 20.519 20.519 0 1 1 0 41.037zm-2.008-1.192c.669.067 1.345.1 2.008.1a19.428 19.428 0 1 0 0-38.856c-.681 0-1.355.033-2.005.1-.06.008-.12.018-.18.029-.088.015-.18.031-.275.042-.543.071-1.038.138-1.521.238-.055.011-.112.027-.171.044s-.135.038-.2.054c-.561.125-1.059.256-1.523.4-.034.011-.069.025-.1.039s-.088.034-.129.048c-.586.194-1.106.388-1.6.6l-.031.015c-.028.014-.057.028-.088.041-.544.24-1.078.5-1.584.78a.584.584 0 0 1-.08.045 19.467 19.467 0 0 0-4.448 3.416.529.529 0 0 1-.044.048A87.436 87.436 0 0 0 289.1 783.6a87.443 87.443 0 0 0 11.426 13.488l.014.014a19.493 19.493 0 0 0 4.487 3.455l.039.022c.493.272 1.016.53 1.6.79a1.089 1.089 0 0 1 .125.062l.017.009c.531.229 1.091.426 1.57.589.061.018.114.039.161.057.029.011.058.022.089.032.454.144.939.271 1.527.4.064.014.126.031.188.048s.122.034.173.043h.016c.5.1 1.019.177 1.508.241.1.01.188.026.275.041.062.015.125.026.185.034zm-6.248-.545zm-1.735-.858zm.619-34.956zm-.519-.938z" class="prefix__cls-2" data-name="Path 566" transform="translate(-287.892 -763.08)"/>
            <path id="prefix__Path_567" d="M1330.691 804.117h-.015a20.519 20.519 0 1 1 0-41.037h.022c.705 0 1.413.035 2.1.1h.014c.092.012.18.027.268.042.068.012.137.024.208.033.5.061 1.04.134 1.579.246.105.023.193.047.279.07l.156.041c.617.139 1.12.272 1.574.415.06.019.114.04.168.061.037.014.074.029.113.041.622.206 1.16.409 1.646.621l.079.037.023.011.046.018c.651.29 1.2.562 1.689.833a.572.572 0 0 1 .055.035 20.6 20.6 0 0 1 4.727 3.631.61.61 0 0 1 .042.049 87.989 87.989 0 0 1 11.724 13.921.545.545 0 0 1 0 .612 88.108 88.108 0 0 1-11.77 13.967l-.036.032a20.335 20.335 0 0 1-4.68 3.592l-.015.011a.515.515 0 0 1-.046.029c-.5.28-1.04.548-1.66.82l-.017.009c-.046.024-.1.051-.158.077-.556.237-1.112.433-1.634.614l-.019.006c-.034.01-.066.023-.1.035-.052.02-.111.043-.178.063-.465.145-.983.282-1.585.419-.054.012-.1.026-.152.039-.081.022-.172.047-.273.065-.526.11-1.058.183-1.573.253h-.015c-.068.007-.142.02-.22.033s-.167.028-.252.038h-.016c-.789.084-1.457.118-2.098.118zm-.015-39.947a19.428 19.428 0 1 0 0 38.856h.015c.6 0 1.239-.032 2-.1.066-.008.13-.019.195-.03.088-.015.178-.03.276-.041.5-.067 1.008-.137 1.5-.24h.016c.057-.01.117-.027.188-.046s.132-.036.2-.051c.572-.13 1.064-.26 1.5-.4h.01c.034-.01.066-.023.1-.035.052-.02.1-.039.158-.057.5-.174 1.035-.363 1.557-.585.026-.011.051-.025.077-.038l.038-.02.032-.015c.584-.256 1.093-.506 1.557-.766a.917.917 0 0 1 .084-.053 19.238 19.238 0 0 0 4.471-3.441.552.552 0 0 1 .064-.057 86.974 86.974 0 0 0 11.375-13.45 86.871 86.871 0 0 0-11.424-13.5.549.549 0 0 1-.065-.075 19.51 19.51 0 0 0-4.439-3.394c-.025-.014-.047-.029-.065-.041-.446-.248-.956-.5-1.556-.767a1.318 1.318 0 0 1-.125-.055l-.029-.014c-.462-.2-.97-.392-1.558-.587-.054-.017-.108-.038-.162-.058l-.111-.041c-.421-.133-.9-.258-1.491-.392-.071-.017-.132-.034-.194-.05s-.146-.04-.218-.056c-.5-.1-1.01-.172-1.49-.231-.091-.012-.174-.026-.257-.041s-.14-.024-.212-.034c-.653-.065-1.321-.1-1.987-.1zm10.024 37.33z" class="prefix__cls-2" data-name="Path 567" transform="translate(-1211.657 -763.08)"/>
        </g>
    </g>
</svg>
