<svg xmlns="http://www.w3.org/2000/svg" width="36.318" height="48.091" viewBox="0 0 36.318 48.091">
    <defs>
        <style>
            .cls-2{fill:#fea428}.cls-3{fill:#ffb93e}
        </style>
    </defs>
    <g id="Grupo_7853" opacity="0.3" transform="translate(-333.935 -296.292)">
        <g id="Grupo_7850" transform="translate(333.935 296.292)">
            <path id="Trazado_2753" d="M344.959 317.331c-9.268-7.881-12.054-15.195-10.7-18.948a2.861 2.861 0 0 1 2.617-2.089 4.92 4.92 0 0 1 3.608 1.457 8.642 8.642 0 0 1 2.217 6.08h-1.976a6.751 6.751 0 0 0-1.629-4.673 3 3 0 0 0-2.193-.887c-.418.006-.658.429-.785.782-.9 2.513 1.045 9.054 10.124 16.773z" class="cls-2" transform="translate(-333.935 -296.293)"/>
            <path id="Trazado_2754" d="M424.867 317.33l-1.28-1.506c9.078-7.719 11.028-14.26 10.124-16.773-.128-.354-.367-.777-.785-.782a2.985 2.985 0 0 0-2.193.887 6.751 6.751 0 0 0-1.629 4.673h-1.976a8.641 8.641 0 0 1 2.218-6.08 4.925 4.925 0 0 1 3.608-1.457 2.861 2.861 0 0 1 2.617 2.089c1.35 3.754-1.436 11.068-10.704 18.949z" class="cls-2" transform="translate(-399.574 -296.292)"/>
        </g>
        <path id="Trazado_2755" d="M393.321 380.759a11.9 11.9 0 0 0 1.174 5.177h-8.347a12 12 0 0 0 0-10.354h8.352a11.9 11.9 0 0 0-1.179 5.177z" class="cls-2" transform="translate(-38.229 -58.053)"/>
        <path id="Trazado_2756" d="M359.333 306.9v9.267a11.356 11.356 0 0 0 22.712 0V306.9z" class="cls-3" transform="translate(-18.596 -7.763)"/>
        <path id="Trazado_2757" d="M390.762 414.169a6.327 6.327 0 0 0-12.654 0z" class="cls-2" transform="translate(-32.342 -81.672)"/>
        <path id="Rectángulo_3191" d="M0 0H24.572V3.162H0z" class="cls-2" transform="translate(339.808 341.221)"/>
        <path id="Rectángulo_3192" d="M0 0H19.322V9.37H0z" class="cls-3" transform="translate(342.432 331.851)"/>
        <path id="Trazado_2758" d="M389.51 441.451h-10.15a1.252 1.252 0 0 0-1.252-1.252v-3.37a1.252 1.252 0 0 0 1.252-1.252h10.15a1.252 1.252 0 0 0 1.252 1.252v3.37a1.252 1.252 0 0 0-1.252 1.252z" class="cls-2" transform="translate(-32.342 -101.978)"/>
    </g>
</svg>
