<svg xmlns="http://www.w3.org/2000/svg" id="Group_7370" width="18.18" height="21.856" viewBox="0 0 18.18 21.856">
    <defs>
        <style>
            .cls-1{fill:#35b1b8}
        </style>
    </defs>
    <g id="Group_7369">
        <path id="Path_1847" d="M337.387 182.938c-2.293-2.28-4.662-4.647-7.041-7.034a1.184 1.184 0 0 0-.912-.378c-1.137.007-2.294.006-3.412.006h-1.894a4.47 4.47 0 0 0-4.527 4.519V192.957a4.461 4.461 0 0 0 4.419 4.42c3.083.007 6.219.008 9.321 0a4.47 4.47 0 0 0 4.433-4.44v-4.162-4.9a1.228 1.228 0 0 0-.387-.937zm-6.957-3.794v-.653l4.345 4.392-.284-.006h-.467a5.752 5.752 0 0 1-1.364-.09 2.817 2.817 0 0 1-2.227-2.779c-.009-.29-.006-.582-.003-.865zm5.7 9.88v3.719a2.852 2.852 0 0 1-2.2 2.9 3.748 3.748 0 0 1-.85.092h-8.835a2.871 2.871 0 0 1-2.99-2.989c-.006-1.462 0-2.949 0-4.386v-3.5-4.622a3.029 3.029 0 0 1 .561-1.877 2.867 2.867 0 0 1 2.4-1.173c.71-.006 1.431-.005 2.129 0h2.03a.437.437 0 0 1 .323.1.446.446 0 0 1 .1.333c-.009.77-.01 1.59 0 2.579a4.478 4.478 0 0 0 4.332 4.336c.946.008 1.742.011 2.55 0a.486.486 0 0 1 .36.1.472.472 0 0 1 .106.346c-.018 1.339-.018 2.713-.018 4.042z" class="cls-1" transform="translate(-319.599 -175.525)"/>
        <path id="Path_1848" d="M399.669 384.463a.793.793 0 0 0 .237.6.922.922 0 0 0 .648.228h7.22a.8.8 0 0 0 .885-.823.794.794 0 0 0-.883-.822h-7.22a.8.8 0 0 0-.887.817z" class="cls-1" transform="translate(-395.074 -371.699)"/>
        <path id="Path_1849" d="M408.6 448.339a.794.794 0 0 0-.795-.7h-7.26a1.472 1.472 0 0 0-.332.025.824.824 0 0 0 .226 1.619h7.336a.923.923 0 0 0 .251-.031.818.818 0 0 0 .574-.913z" class="cls-1" transform="translate(-395.02 -432.026)"/>
        <path id="Path_1850" d="M399.668 320.4a.79.79 0 0 0 .788.808h1.888a.822.822 0 0 0 0-1.643c-.294 0-.591-.007-.89-.007-.332 0-.666 0-1 .009a.788.788 0 0 0-.786.833z" class="cls-1" transform="translate(-395.074 -311.295)"/>
    </g>
</svg>
