<svg xmlns="http://www.w3.org/2000/svg" width="179.504" height="132.101" viewBox="0 0 179.504 132.101">
    <g>
        <path d="M18828.039 7298.877c16.957-24.468 37.738-26.235 54.217-22.484s33.334 30.078 65.26 30.808 58.031-1.809 48.707 42.43-84.652 80.773-143.023 38.926-25.161-89.68-25.161-89.68z" transform="translate(-97.617 -137.899) translate(-18721.016 -7136.983)" style="mix-blend-mode:multiply;isolation:isolate" fill="#002655" opacity="0.2"/>
        <path fill="#f27065" d="M-26.25 0h51.8v-13.3h-30.5l11.4-8.8c12.4-9.6 18.4-15.4 18.4-27.1v-.2c0-13.1-9.6-21.6-24.1-21.6-12.5 0-19.2 5.1-26.1 14.5l10.8 8.7c5.2-6.4 8.9-9.4 14.3-9.4 5.5 0 9.4 3.2 9.4 9.1 0 5.8-3.4 9.6-12.1 16.8l-23.3 19.1z" transform="translate(-97.617 -137.899) translate(188 246)"/>
    </g>
</svg>
