<svg xmlns="http://www.w3.org/2000/svg" width="179.504" height="132.101" viewBox="0 0 179.504 132.101">
    <g>
        <path d="M18828.039 7298.877c16.957-24.468 37.738-26.235 54.217-22.484s33.334 30.078 65.26 30.808 58.031-1.809 48.707 42.43-84.652 80.773-143.023 38.926-25.161-89.68-25.161-89.68z" transform="translate(-97.617 -137.899) translate(-18721.016 -7136.983)" style="mix-blend-mode:multiply;isolation:isolate" fill="#002655" opacity="0.2"/>
        <path fill="#31a5ed" d="M5.35 0h14.7v-15.1h9.4v-12.5h-9.4v-42.9h-13L-31.35-26l2.5 10.9h34.2zm-18.6-27.6l18.6-21.8v21.8z" transform="translate(-97.617 -137.899) translate(188 246)"/>
    </g>
</svg>
