<?xml version="1.0" standalone="no"?>
<!DOCTYPE svg PUBLIC "-//W3C//DTD SVG 1.1//EN" "http://www.w3.org/Graphics/SVG/1.1/DTD/svg11.dtd" >
<svg xmlns="http://www.w3.org/2000/svg" xmlns:xlink="http://www.w3.org/1999/xlink" version="1.1">
<metadata>
Created by FontForge 20170924 at Sun Jan 22 08:00:56 2006
 By www-data
HTF Gotham\252 Copr. 2002 The Hoefler Type Foundry, Inc. Info: www.typography.com
</metadata>
<defs>
<font id="Gotham-BookItalic" horiz-adv-x="500" >
  <font-face 
    font-family="Gotham"
    font-weight="400"
    font-style="italic"
    font-stretch="normal"
    units-per-em="1000"
    panose-1="2 0 5 4 3 0 0 9 0 4"
    ascent="800"
    descent="-200"
    x-height="517"
    cap-height="700"
    bbox="-125 -200 1185 907"
    underline-thickness="20"
    underline-position="-143"
    slope="-12"
    unicode-range="U+0020-FB02"
  />
<missing-glyph 
 />
    <glyph glyph-name=".notdef" 
 />
    <glyph glyph-name="NUL" horiz-adv-x="0" 
 />
    <glyph glyph-name="nonmarkingreturn" horiz-adv-x="300" 
 />
    <glyph glyph-name="space" unicode=" " horiz-adv-x="300" 
 />
    <glyph glyph-name="exclam" unicode="!" horiz-adv-x="271" 
d="M97 198h44l143 445l15 57h-90l-16 -57zM20 0h92l28 105h-92z" />
    <glyph glyph-name="quotedbl" unicode="&#x22;" horiz-adv-x="442" 
d="M297 428h43l139 267l1 5h-92zM100 428h43l139 267l1 5h-92z" />
    <glyph glyph-name="numbersign" unicode="#" horiz-adv-x="682" 
d="M77 0h71l61 177h191l-62 -177h71l61 177h129l18 69h-123l75 212h116l18 69h-111l61 173h-71l-60 -173h-191l61 173h-71l-60 -173h-128l-18 -69h122l-74 -212h-117l-17 -69h110zM234 246l74 212h190l-75 -212h-189z" />
    <glyph glyph-name="dollar" unicode="$" horiz-adv-x="623" 
d="M182 -98h64l27 98h14q58 0 106 15t82.5 42t54 64.5t19.5 82.5q0 66 -42 106.5t-128 72.5l66 238q42 -9 75.5 -28t60.5 -46l55 53q-32 32 -73 55.5t-94 34.5l18 68h-63l-17 -59q-8 0 -16.5 0.5t-17.5 0.5q-52 0 -96.5 -15t-77.5 -41t-51.5 -62t-18.5 -78q0 -33 10.5 -58.5
t32.5 -46.5t55 -38t77 -34l-68 -252q-57 9 -102 34.5t-78 63.5l-58 -49q37 -45 91.5 -76t122.5 -42zM326 402q-63 24 -89.5 48t-26.5 62q0 27 13.5 50t37 39t56 24t71.5 4zM292 70l66 238q62 -25 86 -51t24 -61q0 -29 -13 -52.5t-36.5 -40t-55.5 -25.5t-71 -8z" />
    <glyph glyph-name="percent" unicode="%" horiz-adv-x="837" 
d="M232 346q41 0 76.5 18.5t61 48.5t40 69t14.5 80q0 31 -10 57.5t-29 46t-45 31t-58 11.5q-41 0 -76 -18.5t-60.5 -48.5t-40 -69t-14.5 -80q0 -31 10 -57.5t29 -46t44.5 -31t57.5 -11.5zM64 0h79l679 700h-79zM603 -7q41 0 76.5 18.5t61 48.5t40 69t14.5 80q0 31 -10 57.5
t-29 46t-45 31t-57 11.5q-41 0 -76.5 -18.5t-61 -48.5t-40 -69t-14.5 -80q0 -31 10 -58t29 -46.5t44.5 -30.5t57.5 -11zM237 401q-41 0 -62.5 26t-21.5 70q0 28 9.5 55.5t26.5 50t39.5 36.5t49.5 14q40 0 62 -26t22 -70q0 -28 -9.5 -55.5t-26.5 -50t-39.5 -36.5t-49.5 -14z
M608 48q-40 0 -62 26t-22 69q0 28 9.5 56t26.5 50.5t39.5 36.5t49.5 14q40 0 62 -26t22 -70q0 -28 -9.5 -55.5t-26.5 -50t-39.5 -36.5t-49.5 -14z" />
    <glyph glyph-name="ampersand" unicode="&#x26;" horiz-adv-x="692" 
d="M557 -14l59 38l-85 119q32 35 62 76.5t60 91.5l-53 34q-52 -89 -108 -152l-125 175q63 18 104.5 40t66 47t35 52t10.5 54q0 33 -12.5 61t-35 48t-54 31t-70.5 11q-41 0 -76.5 -14t-61.5 -38.5t-41 -57.5t-15 -71q0 -32 12 -64.5t32 -65.5q-118 -32 -175 -93t-57 -139
q0 -42 16 -75.5t43.5 -56.5t65 -35t81.5 -12q74 0 131 26.5t113 78.5zM332 418q-23 34 -32 60t-9 53q0 24 9 45t25 37t37.5 25t45.5 9q47 0 74 -25.5t27 -64.5q0 -19 -8.5 -38t-28.5 -36.5t-54 -34t-86 -30.5zM244 58q-64 0 -100.5 31.5t-36.5 85.5q0 55 45 102t144 73
l145 -204q-48 -44 -95.5 -66t-101.5 -22z" />
    <glyph glyph-name="quotesingle" unicode="'" horiz-adv-x="245" 
d="M100 428h43l139 267l1 5h-92z" />
    <glyph glyph-name="parenleft" unicode="(" horiz-adv-x="434" 
d="M264 -141l46 48q-29 30 -55 63.5t-45.5 71t-31 81.5t-11.5 95q0 61 19.5 123t61 119.5t106.5 108.5t157 91l-27 57q-101 -41 -175 -96t-123.5 -120t-73.5 -137.5t-24 -147.5q0 -58 13.5 -109t37.5 -95.5t56 -82.5t69 -70z" />
    <glyph glyph-name="parenright" unicode=")" horiz-adv-x="434" 
d="M-34 -139q100 40 174.5 95.5t124 120.5t73.5 138t24 148q0 58 -13.5 109t-37.5 95t-56 82t-69 70l-47 -47q30 -31 56 -64t45.5 -71t30.5 -81.5t11 -94.5q0 -62 -19.5 -123.5t-60.5 -119t-106.5 -108.5t-156.5 -91z" />
    <glyph glyph-name="asterisk" unicode="*" horiz-adv-x="430" 
d="M272 395l22 124l81 -97l39 38l-99 82l127 21l-15 52l-119 -43l43 118l-51 13l-22 -123l-81 97l-39 -38l99 -82l-127 -22l15 -51l119 43l-43 -119z" />
    <glyph glyph-name="plus" unicode="+" horiz-adv-x="642" 
d="M244 110h74l56 206h207l19 72h-207l55 206h-75l-55 -206h-207l-19 -72h207z" />
    <glyph glyph-name="comma" unicode="," horiz-adv-x="255" 
d="M-37 -121q60 11 94 41t51 95l24 90h-91l-29 -105h37q-6 -32 -28 -54t-66 -33z" />
    <glyph glyph-name="hyphen" unicode="-" horiz-adv-x="410" 
d="M66 260h279l21 81h-279z" />
    <glyph glyph-name="period" unicode="." horiz-adv-x="255" 
d="M12 0h92l28 105h-91z" />
    <glyph glyph-name="slash" unicode="/" horiz-adv-x="508" 
d="M-125 -128h78l707 926h-78z" />
    <glyph glyph-name="zero" unicode="0" horiz-adv-x="715" 
d="M322 -12q81 0 148 40t115 104.5t74.5 145.5t26.5 164q0 59 -16.5 108.5t-47.5 85.5t-77 56t-104 20q-81 0 -148 -40t-115 -104.5t-74.5 -145.5t-26.5 -164q0 -59 16 -108.5t47.5 -85.5t77 -56t104.5 -20zM327 60q-41 0 -72.5 15t-52.5 41.5t-32 62.5t-11 79
q0 69 21.5 137.5t59 122.5t88 88t107.5 34q41 0 72.5 -15t53 -41.5t32.5 -62.5t11 -79q0 -69 -21.5 -137.5t-59 -122.5t-88 -88t-108.5 -34z" />
    <glyph glyph-name="one" unicode="1" horiz-adv-x="361" 
d="M94 0h79l189 705h-59l-188 -60l2 -69l142 41z" />
    <glyph glyph-name="two" unicode="2" horiz-adv-x="595" 
d="M-22 0h498l19 72h-374l323 245q73 56 111.5 106t38.5 113q0 39 -15.5 71t-43.5 55t-67 35.5t-86 12.5q-79 0 -139 -33.5t-108 -84.5l52 -50q39 40 86 68t106 28q63 0 98 -30t35 -77q0 -45 -29.5 -83t-87.5 -82l-401 -304z" />
    <glyph glyph-name="three" unicode="3" horiz-adv-x="605" 
d="M248 -12q57 0 107.5 17.5t89 48.5t60.5 73.5t22 93.5q0 40 -15 70.5t-41.5 52t-61.5 34t-74 15.5l285 249l16 58h-456l-20 -71h345l-283 -250l10 -45h32q83 0 132 -29.5t49 -89.5q0 -33 -14.5 -61.5t-40.5 -49.5t-61.5 -32.5t-76.5 -11.5q-70 0 -114.5 27.5t-72.5 76.5
l-62 -40q31 -62 92 -99t153 -37z" />
    <glyph glyph-name="four" unicode="4" horiz-adv-x="649" 
d="M354 0h77l44 166h109l18 66h-109l127 473h-76l-519 -480l10 -59h364zM129 232l384 357l-96 -357h-288z" />
    <glyph glyph-name="five" unicode="5" horiz-adv-x="603" 
d="M251 -12q66 0 120 20t92 54.5t59 79.5t21 95q0 45 -16 81.5t-45 62t-69.5 39.5t-90.5 14q-28 0 -63 -8t-57 -19l74 220h319l21 73h-391l-110 -337l45 -36q36 20 73.5 29t69.5 9q70 0 113.5 -35.5t43.5 -98.5q0 -34 -14.5 -65t-41 -55t-64 -38t-83.5 -14q-63 0 -108 26
t-79 73l-61 -45q35 -52 95.5 -88.5t146.5 -36.5z" />
    <glyph glyph-name="six" unicode="6" horiz-adv-x="641" 
d="M316 -12q58 0 108 20.5t86.5 55t57 80t20.5 95.5q0 42 -15.5 78.5t-44 64t-69.5 43t-92 15.5q-35 0 -65 -8.5t-55.5 -22.5t-46 -32.5t-35.5 -38.5q7 65 37 126t71 102q74 74 169 74q53 0 92.5 -20t68.5 -52l52 54q-36 41 -87 65.5t-120 24.5q-68 0 -125.5 -26t-106.5 -75
q-31 -31 -56.5 -71t-44 -86.5t-28.5 -99t-10 -108.5q0 -67 18 -114t51 -80q29 -30 73 -47t97 -17zM318 57q-35 0 -65 10.5t-53 33.5q-20 20 -30.5 45t-10.5 58q0 32 14 62t39 53.5t60.5 38t79.5 14.5q39 0 68 -12t48.5 -31.5t29 -44.5t9.5 -51q0 -35 -14 -67t-39 -56
t-59.5 -38.5t-76.5 -14.5z" />
    <glyph glyph-name="seven" unicode="7" horiz-adv-x="586" 
d="M61 0h92l466 641l17 59h-475l-20 -72h381z" />
    <glyph glyph-name="eight" unicode="8" horiz-adv-x="647" 
d="M296 -10q61 0 112.5 15.5t89 43t58 64.5t20.5 80q0 29 -10 54t-26.5 44.5t-38 34t-44.5 22.5q36 7 68 23t55 39t36.5 53t13.5 66q0 40 -17.5 73t-49 57t-74.5 37.5t-95 13.5q-56 0 -102.5 -15t-80 -41.5t-52 -61.5t-18.5 -74q0 -52 29 -90t72 -55q-43 -8 -80 -23.5
t-64.5 -40t-43.5 -57.5t-16 -75q0 -39 19 -73.5t53.5 -59.5t81.5 -39.5t104 -14.5zM376 390q-35 0 -64 9.5t-49.5 25.5t-32 38t-11.5 48q0 28 12.5 52t35.5 41.5t54.5 27.5t70.5 10q73 0 116.5 -34t43.5 -87q0 -25 -11.5 -48.5t-34 -42t-55 -29.5t-75.5 -11zM301 58
q-84 0 -133.5 35.5t-49.5 91.5q0 28 14 53.5t39 44.5t61.5 30.5t81.5 11.5q42 0 75.5 -10.5t57.5 -28t36.5 -41t12.5 -48.5q0 -31 -14.5 -56.5t-40 -44t-61.5 -28.5t-79 -10z" />
    <glyph glyph-name="nine" unicode="9" horiz-adv-x="641" 
d="M243 -13q66 0 122.5 26t106.5 75q63 63 101.5 156.5t38.5 204.5q0 71 -17.5 118t-51.5 81q-30 30 -74.5 46.5t-95.5 16.5q-59 0 -108.5 -20.5t-86.5 -55.5t-58 -81t-21 -98q0 -43 15.5 -80.5t44 -65t69.5 -43.5t92 -16q37 0 68 9.5t56.5 24.5t45 34t33.5 38
q-7 -63 -36 -122.5t-71 -100.5q-75 -75 -169 -75q-53 0 -93 21t-74 58l-52 -54q40 -45 94.5 -71t120.5 -26zM338 320q-40 0 -69.5 12t-49 31.5t-29 45.5t-9.5 53q0 36 14 69t39 57.5t60 39.5t77 15q73 0 118 -45q40 -40 40 -102q0 -34 -14 -65.5t-39 -56t-60.5 -39.5
t-77.5 -15z" />
    <glyph glyph-name="colon" unicode=":" horiz-adv-x="262" 
d="M126 412h92l29 105h-92zM16 0h92l28 105h-92z" />
    <glyph glyph-name="semicolon" unicode=";" horiz-adv-x="262" 
d="M126 412h92l29 105h-92zM-33 -121q60 11 94 41t51 95l24 90h-92l-28 -105h36q-6 -32 -27.5 -54t-65.5 -33z" />
    <glyph glyph-name="less" unicode="&#x3c;" horiz-adv-x="640" 
d="M484 86l20 72l-335 189l436 188l22 83l-533 -233l-18 -66z" />
    <glyph glyph-name="equal" unicode="=" horiz-adv-x="640" 
d="M137 432h460l19 74h-459zM74 198h459l20 74h-459z" />
    <glyph glyph-name="greater" unicode="&#x3e;" horiz-adv-x="640" 
d="M46 86l532 233l18 66l-407 233l-20 -72l334 -189l-435 -188z" />
    <glyph glyph-name="question" unicode="?" horiz-adv-x="537" 
d="M189 198h51l40 110q56 8 104 26t83 46t55 66t20 86q0 37 -14 69.5t-41 56.5t-65.5 37.5t-86.5 13.5q-74 0 -133 -28.5t-102 -71.5l45 -52q33 32 80 56t102 24q57 0 95 -28.5t38 -82.5q0 -35 -17 -63.5t-48 -48.5t-75 -32.5t-97 -16.5l-6 -5zM117 0h92l28 105h-92z" />
    <glyph glyph-name="at" unicode="@" horiz-adv-x="980" 
d="M482 -159q61 0 114 11.5t107 36.5l-15 31q-51 -23 -100 -34t-106 -11q-86 0 -156.5 26t-120.5 73t-77.5 112.5t-27.5 145.5q0 89 35.5 170t97 142.5t144 98t176.5 36.5q84 0 150.5 -25t112.5 -68t70.5 -100.5t24.5 -123.5q0 -64 -16.5 -111t-41 -78t-54 -46.5
t-54.5 -15.5q-48 0 -65.5 34.5t-0.5 87.5l76 244l-65 17l-27 -88q-16 39 -51.5 68.5t-95.5 29.5q-46 0 -90 -21t-78.5 -57t-56 -85t-21.5 -105q0 -39 12.5 -70t34 -52.5t50.5 -33t62 -11.5q53 0 97 25t82 71q9 -44 40.5 -69t84.5 -25q36 0 74.5 18t69.5 54.5t51 91t20 127.5
q0 72 -26.5 136t-77.5 112t-124.5 75.5t-166.5 27.5q-102 0 -191 -39t-155.5 -105t-105 -153.5t-38.5 -183.5q0 -88 30 -160t85 -123.5t132 -79.5t172 -28zM449 131q-45 0 -74 29t-29 82q0 41 14 77.5t38 63.5t55.5 43t66.5 16q54 0 85.5 -33t31.5 -84q0 -38 -16.5 -73
t-43 -62t-60.5 -43t-68 -16z" />
    <glyph glyph-name="A" unicode="A" horiz-adv-x="761" 
d="M-40 0h87l132 185h382l32 -185h81l-130 705h-76zM229 256l256 359l63 -359h-319z" />
    <glyph glyph-name="B" unicode="B" horiz-adv-x="717" 
d="M30 0h322q69 0 123.5 15.5t92.5 43t58 66t20 83.5q0 59 -36 94t-88 51q37 7 69 23t55.5 39t37 53.5t13.5 68.5q0 75 -57 119t-160 44h-262zM212 388l64 241h197q69 0 106 -26t37 -76q0 -63 -55.5 -101t-149.5 -38h-199zM127 71l66 247h212q35 0 64.5 -6.5t51 -20
t33.5 -33.5t12 -47q0 -66 -55 -103t-150 -37h-234z" />
    <glyph glyph-name="C" unicode="C" horiz-adv-x="735" 
d="M383 -13q47 0 86.5 9t73 25t62 37.5t52.5 45.5l-53 52q-45 -44 -95.5 -69.5t-121.5 -25.5q-48 0 -88 15t-69 43.5t-45.5 69t-16.5 91.5q0 69 26 134t71 115t105 80t128 30q77 0 124 -32t79 -87l68 42q-35 65 -101 107.5t-163 42.5q-87 0 -163.5 -36t-133.5 -96.5
t-90 -139t-33 -163.5q0 -68 23.5 -121.5t64 -91t94.5 -57.5t116 -20z" />
    <glyph glyph-name="D" unicode="D" horiz-adv-x="773" 
d="M30 0h237q112 0 204 35t155 98q54 54 82 123t28 150q0 125 -76 201q-46 45 -115.5 69t-157.5 24h-169zM129 73l149 554h104q142 0 213 -71q59 -57 59 -155q0 -65 -23 -120.5t-65 -97.5q-54 -54 -127.5 -82t-161.5 -28h-148z" />
    <glyph glyph-name="E" unicode="E" horiz-adv-x="653" 
d="M30 0h506l19 72h-427l66 245h376l20 72h-377l64 239h422l20 72h-501z" />
    <glyph glyph-name="F" unicode="F" horiz-adv-x="658" 
d="M30 0h79l82 305h379l20 72h-380l67 250h425l19 73h-503z" />
    <glyph glyph-name="G" unicode="G" horiz-adv-x="784" 
d="M396 -13q73 0 133 19t116 54l89 314h-289l-19 -71h211l-55 -194q-34 -21 -79 -35t-102 -14q-51 0 -93.5 15.5t-73.5 44.5t-48 71.5t-17 96.5q0 66 26 129.5t71.5 113t107.5 79.5t135 30q43 0 75.5 -8t57.5 -22t44 -33t34 -40l60 47q-17 25 -40 48t-54.5 41t-73.5 28.5
t-96 10.5q-92 0 -171 -36.5t-136.5 -96t-90 -136.5t-32.5 -158q0 -71 24.5 -126t66.5 -93.5t98.5 -58.5t120.5 -20z" />
    <glyph glyph-name="H" unicode="H" horiz-adv-x="756" 
d="M30 0h79l85 315h399l-85 -315h80l188 700h-80l-83 -311h-399l83 311h-79z" />
    <glyph glyph-name="I" unicode="I" horiz-adv-x="291" 
d="M37 0h79l188 700h-79z" />
    <glyph glyph-name="J" unicode="J" horiz-adv-x="548" 
d="M194 -10q49 0 94 17t79 51t55.5 78.5t39.5 110.5l122 453h-80l-118 -438q-15 -56 -31.5 -91t-41.5 -60q-48 -48 -118 -48q-55 0 -89.5 28t-56.5 85l-63 -37q11 -32 29.5 -59.5t44.5 -47.5t59.5 -31t74.5 -11z" />
    <glyph glyph-name="K" unicode="K" horiz-adv-x="718" 
d="M30 0h79l48 179l203 167l174 -346h89l-199 392l376 308h-112l-502 -416l111 416h-79z" />
    <glyph glyph-name="L" unicode="L" horiz-adv-x="607" 
d="M30 0h473l20 73h-394l168 627h-79z" />
    <glyph glyph-name="M" unicode="M" horiz-adv-x="869" 
d="M30 0h78l152 566l153 -374h4l355 375l-152 -567h80l188 700h-88l-357 -382l-151 382h-74z" />
    <glyph glyph-name="N" unicode="N" horiz-adv-x="786" 
d="M30 0h77l156 581l292 -581h63l188 700h-77l-153 -568l-285 568h-73z" />
    <glyph glyph-name="O" unicode="O" horiz-adv-x="842" 
d="M395 -13q87 0 161.5 35.5t129 94t86 135t31.5 157.5q0 64 -22.5 119t-63 96t-97 64.5t-124.5 23.5q-87 0 -161.5 -35.5t-129 -94t-86 -134.5t-31.5 -157q0 -64 22.5 -119.5t63 -96.5t97 -64.5t124.5 -23.5zM400 60q-53 0 -95 18t-72 49t-46 73.5t-16 92.5
q0 65 24.5 127.5t67 111t101 78t127.5 29.5q52 0 94.5 -18t72.5 -49t46 -74t16 -92q0 -65 -24.5 -127.5t-67 -111t-101 -78t-127.5 -29.5z" />
    <glyph glyph-name="P" unicode="P" horiz-adv-x="667" 
d="M30 0h79l67 249h166q77 0 140.5 17t109 50t70.5 80.5t25 108.5q0 80 -50 130q-34 34 -84 49.5t-116 15.5h-219zM195 319l82 308h157q95 0 139 -44q32 -32 32 -83q0 -87 -67 -134t-192 -47h-151z" />
    <glyph glyph-name="Q" unicode="Q" horiz-adv-x="842" 
d="M672 -29l62 46l-70 79q65 60 102 142t37 171q0 64 -22.5 119t-63 96t-97 64.5t-124.5 23.5q-87 0 -161.5 -35.5t-129 -94t-86 -134.5t-31.5 -157q0 -64 22.5 -119.5t63 -96.5t97 -64.5t124.5 -23.5q59 0 112.5 17.5t99.5 48.5zM400 60q-53 0 -95 18t-72 49t-46 73.5
t-16 92.5q0 65 24.5 127.5t67 111t101 78t127.5 29.5q52 0 94.5 -18t72.5 -49t46 -74t16 -92q0 -70 -27.5 -135t-75.5 -114l-102 129l-62 -47l109 -128q-35 -24 -76 -37.5t-86 -13.5z" />
    <glyph glyph-name="R" unicode="R" horiz-adv-x="717" 
d="M30 0h79l73 272h190l138 -272h91l-144 280q77 12 131.5 44.5t79.5 83.5q43 66 31 145q-11 70 -69.5 108.5t-159.5 38.5h-252zM201 343l77 284h188q77 0 116 -27.5t44 -75.5q4 -55 -28 -98q-23 -38 -76.5 -60.5t-130.5 -22.5h-190z" />
    <glyph glyph-name="S" unicode="S" horiz-adv-x="637" 
d="M298 -10q56 0 104.5 16t84 44t56 67t20.5 85q0 34 -11.5 60.5t-34 48.5t-56.5 40.5t-79 35.5q-41 16 -70.5 30t-48.5 29t-27.5 32t-8.5 38q0 24 11.5 46t33 39.5t53 27.5t70.5 10q62 0 110.5 -22.5t86.5 -64.5l58 52q-40 47 -103 76.5t-145 29.5q-57 0 -104 -15.5
t-81.5 -42.5t-53.5 -64.5t-19 -80.5q0 -34 12 -60.5t36 -48t60 -40.5t84 -38q40 -16 68 -30.5t44.5 -29.5t24 -31.5t7.5 -36.5q0 -29 -13.5 -53t-37 -41t-56 -27t-70.5 -10q-78 0 -132 27.5t-99 81.5l-60 -47q45 -63 117 -98t169 -35z" />
    <glyph glyph-name="T" unicode="T" horiz-adv-x="616" 
d="M196 0h79l168 627h236l20 73h-551l-20 -73h236z" />
    <glyph glyph-name="U" unicode="U" horiz-adv-x="758" 
d="M347 -11q131 0 218 87q74 74 110 207l112 417h-79l-109 -403q-16 -58 -38.5 -100.5t-50.5 -70.5q-33 -33 -72.5 -48.5t-83.5 -15.5q-47 0 -81 12t-57 33.5t-34 51t-11 63.5q0 23 2.5 43t7.5 36l106 399h-80l-100 -378q-15 -54 -15 -109q0 -49 16.5 -90t48.5 -71
t79.5 -46.5t110.5 -16.5z" />
    <glyph glyph-name="V" unicode="V" horiz-adv-x="717" 
d="M247 -5h71l488 705h-90l-409 -602l-86 602h-84z" />
    <glyph glyph-name="W" unicode="W" horiz-adv-x="1083" 
d="M206 -5h68l343 565l40 -565h69l439 705h-89l-356 -583l-37 585h-65l-347 -585l-44 583h-82z" />
    <glyph glyph-name="X" unicode="X" horiz-adv-x="694" 
d="M-31 0h103l291 299l152 -299h87l-182 351l346 349h-102l-279 -286l-146 286h-87l176 -338z" />
    <glyph glyph-name="Y" unicode="Y" horiz-adv-x="663" 
d="M216 0h80l72 269l410 431h-101l-330 -353l-140 353h-88l173 -418z" />
    <glyph glyph-name="Z" unicode="Z" horiz-adv-x="669" 
d="M-19 0h561l19 71h-446l598 576l14 53h-542l-20 -71h427l-597 -576z" />
    <glyph glyph-name="bracketleft" unicode="[" horiz-adv-x="439" 
d="M9 -130h286l16 60h-213l190 710h214l16 60h-286z" />
    <glyph glyph-name="backslash" unicode="\" horiz-adv-x="508" 
d="M357 -128h66l-218 926h-66z" />
    <glyph glyph-name="bracketright" unicode="]" horiz-adv-x="439" 
d="M-66 -130h287l223 830h-287l-16 -60h214l-190 -710h-214z" />
    <glyph glyph-name="asciicircum" unicode="^" 
d="M117 493h74l159 154l77 -154h61l-100 209h-60z" />
    <glyph glyph-name="underscore" unicode="_" horiz-adv-x="600" 
d="M-114 -160h604l18 63h-605z" />
    <glyph glyph-name="grave" unicode="`" 
d="M362 595h54l-56 145l-81 -37z" />
    <glyph glyph-name="a" unicode="a" horiz-adv-x="576" 
d="M183 -11q62 0 109.5 25t83.5 67l-22 -81h75l78 293q5 18 8 36t3 35q0 75 -52.5 117.5t-150.5 42.5q-51 0 -92 -8.5t-79 -22.5l13 -64q35 12 69.5 19.5t76.5 7.5q71 0 105.5 -27t34.5 -78q0 -11 -2 -24t-5 -24l-3 -12q-38 11 -85 19.5t-99 8.5q-50 0 -92 -13t-73 -37
t-48 -59t-17 -78q0 -35 13.5 -61.5t36 -44.5t52 -27.5t62.5 -9.5zM207 49q-51 0 -80.5 25t-29.5 67q0 27 11.5 49t31.5 38t48.5 25t63.5 9q48 0 91 -6.5t77 -16.5l-10 -36q-9 -34 -30 -62.5t-48.5 -48.5t-59.5 -31.5t-65 -11.5z" />
    <glyph glyph-name="b" unicode="b" horiz-adv-x="659" 
d="M319 -12q57 0 109 24.5t92.5 67.5t64.5 101.5t24 127.5q0 49 -15.5 89.5t-43 69.5t-65 44.5t-81.5 15.5q-63 0 -110.5 -29t-85.5 -71l82 302h-77l-196 -730h77l31 116q11 -26 27.5 -49t40.5 -40.5t55 -28t71 -10.5zM312 56q-36 0 -65.5 12.5t-50.5 34t-32.5 51
t-11.5 63.5q0 47 20 91t52 77.5t73.5 54t84.5 20.5q33 0 59.5 -11t46 -32t30 -50t10.5 -65q0 -50 -16.5 -94.5t-45.5 -78t-68.5 -53.5t-85.5 -20z" />
    <glyph glyph-name="c" unicode="c" horiz-adv-x="562" 
d="M277 -12q65 0 113.5 24t88.5 62l-45 50q-34 -31 -70.5 -49.5t-82.5 -18.5q-30 0 -58 10.5t-49.5 31t-34 50.5t-12.5 68q0 48 18 92.5t48 78t70 53.5t84 20q29 0 52 -7.5t40.5 -20t31.5 -29t25 -35.5l62 39q-12 24 -30.5 46t-44 38.5t-58.5 26.5t-73 10q-62 0 -117 -25.5
t-96.5 -68.5t-66 -100t-24.5 -120q0 -53 19 -95t50.5 -71t73 -44.5t86.5 -15.5z" />
    <glyph glyph-name="d" unicode="d" horiz-adv-x="659" 
d="M255 -12q63 0 110.5 29t84.5 71l-23 -88h77l195 730h-77l-88 -330q-11 25 -27.5 48.5t-40.5 41t-55 28t-71 10.5q-57 0 -109 -24.5t-92.5 -67.5t-64.5 -101.5t-24 -127.5q0 -49 15.5 -89.5t43 -69t65 -44.5t81.5 -16zM277 56q-32 0 -59 11t-46.5 32t-30 50t-10.5 65
q0 49 16.5 94t45.5 78.5t68.5 53.5t85.5 20q36 0 65.5 -12.5t50.5 -34t32.5 -50.5t11.5 -63q0 -48 -20 -92t-52 -77.5t-73.5 -54t-84.5 -20.5z" />
    <glyph glyph-name="e" unicode="e" horiz-adv-x="589" 
d="M126 232h405q8 23 13 47.5t5 50.5q0 40 -13 76t-38 63t-62.5 43t-86.5 16q-65 0 -120 -28t-95.5 -73t-63 -102.5t-22.5 -116.5q0 -49 16.5 -89.5t46.5 -69.5t72.5 -45t93.5 -16q68 0 116.5 22.5t86.5 54.5l-40 51q-35 -29 -72 -45t-87 -16q-72 0 -114 42.5t-42 113.5v10
q0 6 1 11zM137 290q10 36 29.5 67.5t46.5 55t60.5 37t71.5 13.5q33 0 57.5 -11t40.5 -29t23.5 -42t7.5 -51q0 -25 -5 -40h-332z" />
    <glyph glyph-name="f" unicode="f" horiz-adv-x="375" 
d="M46 0h77l121 449h168l19 68h-169l13 50q14 51 40.5 74.5t63.5 23.5q23 0 42.5 -5t42.5 -16l18 66q-42 22 -103 22q-67 0 -111.5 -37.5t-65.5 -115.5l-17 -62h-71l-18 -68h71z" />
    <glyph glyph-name="g" unicode="g" horiz-adv-x="659" 
d="M240 -162q66 0 115 18.5t85 54.5q28 28 48 65.5t36 97.5l118 443h-77l-30 -113q-11 23 -26.5 45.5t-38 40t-53 28t-72.5 10.5q-54 0 -106.5 -21.5t-93 -60.5t-65.5 -93t-25 -118q0 -47 17.5 -83t47 -61t67 -38t78.5 -13q64 0 111.5 26.5t86.5 66.5l-14 -52
q-11 -40 -26 -70t-39 -54t-60 -38.5t-85 -14.5q-60 0 -111 21.5t-93 56.5l-48 -54q48 -42 114.5 -66t138.5 -24zM287 106q-30 0 -57 9t-48 26t-33.5 43t-12.5 61q0 46 18 85.5t47.5 68.5t68 45t79.5 16q37 0 66.5 -12t50 -32.5t31.5 -47t11 -54.5q0 -40 -18 -77.5
t-48.5 -66.5t-70.5 -46.5t-84 -17.5z" />
    <glyph glyph-name="h" unicode="h" horiz-adv-x="613" 
d="M17 0h77l78 292q10 37 29 67.5t44 52.5t54.5 34.5t59.5 12.5q54 0 85 -28.5t31 -79.5q0 -13 -2 -29t-6 -29l-78 -293h77l76 288q5 20 9 41t4 39q0 74 -45 117t-120 43q-59 0 -102 -27.5t-78 -67.5l80 297h-77z" />
    <glyph glyph-name="i" unicode="i" horiz-adv-x="264" 
d="M188 630h88l23 85h-88zM24 0h77l139 517h-77z" />
    <glyph glyph-name="j" unicode="j" horiz-adv-x="263" 
d="M188 630h88l23 85h-88zM-50 -163q50 0 87.5 31.5t54.5 97.5l148 551h-77l-146 -543q-10 -36 -29 -53t-45 -17q-11 0 -22.5 2t-21.5 5l-18 -65q18 -5 33.5 -7t35.5 -2z" />
    <glyph glyph-name="k" unicode="k" horiz-adv-x="568" 
d="M17 0h77l36 135l138 110l120 -245h87l-142 294l277 223h-105l-348 -284l133 497h-77z" />
    <glyph glyph-name="l" unicode="l" horiz-adv-x="264" 
d="M24 0h77l196 730h-77z" />
    <glyph glyph-name="m" unicode="m" horiz-adv-x="950" 
d="M17 0h77l78 292q10 36 28.5 66.5t42.5 53t51.5 35t56.5 12.5q51 0 79.5 -28.5t28.5 -79.5q0 -13 -2 -29t-6 -29l-78 -293h77l77 292q9 36 27.5 66.5t42.5 53t52 35t57 12.5q51 0 79 -28.5t28 -79.5q0 -13 -1.5 -29t-5.5 -29l-79 -293h77l77 288q5 20 9.5 41t4.5 39
q0 36 -11.5 65.5t-32.5 50.5t-50 32.5t-64 11.5q-69 0 -121 -31.5t-87 -85.5q-5 22 -16.5 43.5t-29.5 37.5t-43 26t-58 10q-57 0 -97 -27.5t-75 -67.5l22 84h-77z" />
    <glyph glyph-name="n" unicode="n" horiz-adv-x="613" 
d="M17 0h77l78 292q10 37 29 67.5t44 52.5t54.5 34.5t59.5 12.5q54 0 85 -28.5t31 -79.5q0 -13 -2 -29t-6 -29l-78 -293h77l76 288q5 20 9 41t4 39q0 74 -45 117t-120 43q-59 0 -102 -27.5t-78 -67.5l22 84h-77z" />
    <glyph glyph-name="o" unicode="o" horiz-adv-x="638" 
d="M284 -12q61 0 116 25t97 67.5t67 98.5t25 118q0 50 -17 92.5t-48 73t-74.5 48t-96.5 17.5q-62 0 -117 -25.5t-96.5 -68t-66 -98.5t-24.5 -116q0 -50 16.5 -92.5t47.5 -73.5t74.5 -48.5t96.5 -17.5zM289 57q-72 0 -117 43t-45 122q0 45 18 88t48 76t70 53.5t85 20.5
q72 0 117 -43.5t45 -122.5q0 -46 -18 -89t-49 -76t-71 -52.5t-83 -19.5z" />
    <glyph glyph-name="p" unicode="p" horiz-adv-x="659" 
d="M-26 -160h77l74 276q11 -26 27.5 -49t40.5 -40.5t55 -28t71 -10.5q57 0 109 24.5t92.5 67.5t64.5 101.5t24 127.5q0 49 -15.5 89.5t-43 69.5t-65 44.5t-81.5 15.5q-63 0 -110.5 -29t-85.5 -71l24 89h-77zM312 56q-36 0 -65.5 12.5t-50.5 34t-32.5 51t-11.5 63.5
q0 47 20 91t52 77.5t73.5 54t84.5 20.5q33 0 59.5 -11t46 -32t30 -50t10.5 -65q0 -50 -16.5 -94.5t-45.5 -78t-68.5 -53.5t-85.5 -20z" />
    <glyph glyph-name="q" unicode="q" horiz-adv-x="659" 
d="M374 -200h77l191 717h-77l-31 -116q-11 25 -27.5 48.5t-40.5 40.5t-55 27.5t-71 10.5q-57 0 -109 -24.5t-92.5 -67.5t-64.5 -101.5t-24 -127.5q0 -49 15.5 -89.5t43 -69t65 -44.5t81.5 -16q63 0 110.5 29.5t85.5 71.5zM277 56q-32 0 -59 11t-46.5 32t-30 50t-10.5 65
q0 49 16.5 94t45.5 78.5t68.5 53.5t85.5 20q36 0 65.5 -12.5t50.5 -34t32.5 -50.5t11.5 -63q0 -47 -20 -91t-52 -78t-73.5 -54.5t-84.5 -20.5z" />
    <glyph glyph-name="r" unicode="r" horiz-adv-x="402" 
d="M17 0h77l55 204q16 58 43.5 103t63 75t77 45.5t83.5 15.5h5l22 83q-39 2 -73 -7.5t-65 -28.5t-57.5 -46.5t-50.5 -61.5l35 135h-77z" />
    <glyph glyph-name="s" unicode="s" horiz-adv-x="496" 
d="M217 -11q41 0 77 12t63 33.5t42.5 51.5t15.5 66q0 51 -35.5 82.5t-105.5 59.5q-31 12 -51 22.5t-31.5 21t-16 21t-4.5 23.5q0 32 28.5 57t83.5 25q42 0 81.5 -17t71.5 -43l45 53q-32 28 -83 49.5t-108 21.5q-45 0 -81.5 -12.5t-62 -34t-39 -50.5t-13.5 -62
q0 -54 38 -84.5t108 -57.5q56 -22 77 -42.5t21 -45.5q0 -20 -9.5 -35.5t-25.5 -27t-36.5 -17.5t-42.5 -6q-47 0 -92.5 17.5t-87.5 58.5l-50 -50q45 -45 104 -67.5t119 -22.5z" />
    <glyph glyph-name="t" unicode="t" horiz-adv-x="401" 
d="M202 -9q23 0 42.5 3.5t39.5 11.5l19 70q-41 -16 -75 -16q-33 0 -52 13t-19 40q0 8 1 18.5t3 19.5l80 298h163l18 68h-163l42 156h-76l-42 -156h-72l-18 -68h71l-81 -302q-3 -12 -5 -26t-2 -28q0 -51 35 -76.5t91 -25.5z" />
    <glyph glyph-name="u" unicode="u" horiz-adv-x="613" 
d="M222 -11q59 0 102.5 27.5t78.5 67.5l-23 -84h77l138 517h-77l-78 -291q-10 -37 -29 -68t-44 -53t-54.5 -34.5t-59.5 -12.5q-54 0 -84.5 28.5t-30.5 79.5q0 13 1.5 29t5.5 29l79 293h-77l-76 -288q-5 -20 -9 -41t-4 -39q0 -74 44.5 -117t119.5 -43z" />
    <glyph glyph-name="v" unicode="v" horiz-adv-x="566" 
d="M171 -4h68l361 521h-87l-286 -429l-58 429h-81z" />
    <glyph glyph-name="w" unicode="w" horiz-adv-x="848" 
d="M137 -4h67l249 408l30 -408h68l322 521h-80l-249 -412l-29 414h-64l-250 -414l-27 412h-78z" />
    <glyph glyph-name="x" unicode="x" horiz-adv-x="564" 
d="M-35 0h97l212 210l103 -210h85l-135 261l263 256h-97l-197 -197l-98 197h-85l130 -249z" />
    <glyph glyph-name="y" unicode="y" horiz-adv-x="574" 
d="M38 -163q58 0 108 32.5t104 113.5l354 534h-87l-278 -431l-72 431h-80l94 -516q-39 -55 -70.5 -75.5t-64.5 -20.5q-19 0 -42 7.5t-37 18.5l-42 -58q25 -17 52.5 -26.5t60.5 -9.5z" />
    <glyph glyph-name="z" unicode="z" horiz-adv-x="549" 
d="M-20 0h448l18 65h-338l442 403l14 49h-432l-18 -65h321l-441 -403z" />
    <glyph glyph-name="braceleft" unicode="{" horiz-adv-x="483" 
d="M311 -141l24 48q-65 19 -90 50t-25 75q0 23 6.5 51.5t14.5 51.5q11 33 11 63q0 66 -73 84q34 5 59 17t44 34.5t31.5 57.5t21.5 88q7 42 20 74t36 54.5t59 36t89 16.5l-1 55q-70 -3 -118 -19t-79.5 -44.5t-49.5 -68.5t-27 -91q-9 -49 -20.5 -82.5t-30 -54t-45.5 -29.5
t-65 -9h-28l-16 -60h28q53 0 72 -17t19 -48q0 -12 -2.5 -27t-7.5 -32q-13 -41 -18 -64.5t-5 -46.5q0 -28 9 -53.5t28.5 -46.5t51.5 -37.5t77 -25.5z" />
    <glyph glyph-name="bar" unicode="|" horiz-adv-x="303" 
d="M139 -128h64v926h-64v-926z" />
    <glyph glyph-name="braceright" unicode="}" horiz-adv-x="483" 
d="M-40 -141q70 3 117.5 19t79 44.5t49.5 68.5t27 91q9 49 21 82.5t30.5 54t45.5 29.5t65 9h28l15 60h-27q-53 0 -72.5 17t-19.5 48q0 24 11 59q12 41 17 64.5t5 46.5q0 28 -9 53.5t-28.5 46.5t-51 37.5t-76.5 25.5l-24 -48q65 -19 90 -50t25 -75q0 -23 -7 -51.5t-14 -51.5
q-5 -16 -8.5 -32.5t-3.5 -30.5q0 -66 74 -84q-34 -5 -59 -17t-43.5 -34.5t-31.5 -58t-22 -87.5q-7 -42 -20 -74t-36 -54.5t-59 -36t-89 -16.5z" />
    <glyph glyph-name="asciitilde" unicode="~" horiz-adv-x="473" 
d="M128 238q17 29 30.5 44.5t31.5 15.5q12 0 22 -6.5t27 -22.5q17 -15 32 -24t38 -9q37 0 65 27t52 79l-49 21q-17 -29 -30.5 -44t-31.5 -15q-13 0 -22.5 6.5t-26.5 22.5q-17 15 -32 24t-38 9q-37 0 -65 -27t-53 -79z" />
    <glyph glyph-name="Adieresis" unicode="&#xc4;" horiz-adv-x="761" 
d="M-40 0h87l132 185h382l32 -185h81l-130 705h-76zM229 256l256 359l63 -359h-319zM567 762h89l26 95h-89zM390 762h90l26 95h-90z" />
    <glyph glyph-name="Aring" unicode="&#xc5;" horiz-adv-x="775" 
d="M-33 0h87l133 185h381l32 -185h82l-125 675q32 11 54 39t22 64q0 38 -27.5 63t-72.5 25q-23 0 -43.5 -9t-36 -24t-24.5 -35t-9 -43t10 -41.5t30 -29.5zM520 705q-28 0 -42.5 14.5t-14.5 35.5q0 29 20 50.5t50 21.5q27 0 41.5 -14t14.5 -36q0 -29 -20 -50.5t-49 -21.5z
M236 256l256 359l64 -359h-320z" />
    <glyph glyph-name="Ccedilla" unicode="&#xc7;" horiz-adv-x="735" 
d="M378 -13h5q47 0 86.5 9t73 25t62 37.5t52.5 45.5l-53 52q-45 -44 -95.5 -69.5t-121.5 -25.5q-48 0 -88 15t-69 43.5t-45.5 69t-16.5 91.5q0 69 26 134t71 115t105 80t128 30q77 0 124 -32t79 -87l68 42q-35 65 -101 107.5t-163 42.5q-87 0 -163.5 -36t-133.5 -96.5
t-90 -139t-33 -163.5q0 -58 17.5 -106t49 -84t74 -60t92.5 -33l-110 -115l65 -34z" />
    <glyph glyph-name="Eacute" unicode="&#xc9;" horiz-adv-x="653" 
d="M30 0h506l19 72h-427l66 245h376l20 72h-377l64 239h422l20 72h-501zM405 762h72l142 108l-80 37z" />
    <glyph glyph-name="Ntilde" unicode="&#xd1;" horiz-adv-x="786" 
d="M30 0h77l156 581l292 -581h63l188 700h-77l-153 -568l-285 568h-73zM401 759q17 29 31 44t31 15q13 0 23 -6.5t27 -22.5q17 -14 32 -23.5t38 -9.5q37 0 64.5 27.5t52.5 78.5l-49 22q-17 -29 -30.5 -44.5t-31.5 -15.5q-13 0 -22.5 7t-26.5 22t-32 24t-39 9q-36 0 -64 -27
t-53 -79z" />
    <glyph glyph-name="Odieresis" unicode="&#xd6;" horiz-adv-x="842" 
d="M395 -13q87 0 161.5 35.5t129 94t86 135t31.5 157.5q0 64 -22.5 119t-63 96t-97 64.5t-124.5 23.5q-87 0 -161.5 -35.5t-129 -94t-86 -134.5t-31.5 -157q0 -64 22.5 -119.5t63 -96.5t97 -64.5t124.5 -23.5zM400 60q-53 0 -95 18t-72 49t-46 73.5t-16 92.5
q0 65 24.5 127.5t67 111t101 78t127.5 29.5q52 0 94.5 -18t72.5 -49t46 -74t16 -92q0 -65 -24.5 -127.5t-67 -111t-101 -78t-127.5 -29.5zM577 762h89l26 95h-89zM400 762h90l26 95h-90z" />
    <glyph glyph-name="Udieresis" unicode="&#xdc;" horiz-adv-x="758" 
d="M347 -11q131 0 218 87q74 74 110 207l112 417h-79l-109 -403q-16 -58 -38.5 -100.5t-50.5 -70.5q-33 -33 -72.5 -48.5t-83.5 -15.5q-47 0 -81 12t-57 33.5t-34 51t-11 63.5q0 23 2.5 43t7.5 36l106 399h-80l-100 -378q-15 -54 -15 -109q0 -49 16.5 -90t48.5 -71
t79.5 -46.5t110.5 -16.5zM553 762h89l26 95h-89zM376 762h90l26 95h-90z" />
    <glyph glyph-name="aacute" unicode="&#xe1;" horiz-adv-x="576" 
d="M183 -11q62 0 109.5 25t83.5 67l-22 -81h75l78 293q5 18 8 36t3 35q0 75 -52.5 117.5t-150.5 42.5q-51 0 -92 -8.5t-79 -22.5l13 -64q35 12 69.5 19.5t76.5 7.5q71 0 105.5 -27t34.5 -78q0 -11 -2 -24t-5 -24l-3 -12q-38 11 -85 19.5t-99 8.5q-50 0 -92 -13t-73 -37
t-48 -59t-17 -78q0 -35 13.5 -61.5t36 -44.5t52 -27.5t62.5 -9.5zM207 49q-51 0 -80.5 25t-29.5 67q0 27 11.5 49t31.5 38t48.5 25t63.5 9q48 0 91 -6.5t77 -16.5l-10 -36q-9 -34 -30 -62.5t-48.5 -48.5t-59.5 -31.5t-65 -11.5zM296 595h72l142 108l-80 37z" />
    <glyph glyph-name="agrave" unicode="&#xe0;" horiz-adv-x="576" 
d="M183 -11q62 0 109.5 25t83.5 67l-22 -81h75l78 293q5 18 8 36t3 35q0 75 -52.5 117.5t-150.5 42.5q-51 0 -92 -8.5t-79 -22.5l13 -64q35 12 69.5 19.5t76.5 7.5q71 0 105.5 -27t34.5 -78q0 -11 -2 -24t-5 -24l-3 -12q-38 11 -85 19.5t-99 8.5q-50 0 -92 -13t-73 -37
t-48 -59t-17 -78q0 -35 13.5 -61.5t36 -44.5t52 -27.5t62.5 -9.5zM207 49q-51 0 -80.5 25t-29.5 67q0 27 11.5 49t31.5 38t48.5 25t63.5 9q48 0 91 -6.5t77 -16.5l-10 -36q-9 -34 -30 -62.5t-48.5 -48.5t-59.5 -31.5t-65 -11.5zM356 595h54l-56 145l-81 -37z" />
    <glyph glyph-name="acircumflex" unicode="&#xe2;" horiz-adv-x="576" 
d="M183 -11q62 0 109.5 25t83.5 67l-22 -81h75l78 293q5 18 8 36t3 35q0 75 -52.5 117.5t-150.5 42.5q-51 0 -92 -8.5t-79 -22.5l13 -64q35 12 69.5 19.5t76.5 7.5q71 0 105.5 -27t34.5 -78q0 -11 -2 -24t-5 -24l-3 -12q-38 11 -85 19.5t-99 8.5q-50 0 -92 -13t-73 -37
t-48 -59t-17 -78q0 -35 13.5 -61.5t36 -44.5t52 -27.5t62.5 -9.5zM207 49q-51 0 -80.5 25t-29.5 67q0 27 11.5 49t31.5 38t48.5 25t63.5 9q48 0 91 -6.5t77 -16.5l-10 -36q-9 -34 -30 -62.5t-48.5 -48.5t-59.5 -31.5t-65 -11.5zM228 595h68l96 67l54 -67h62l-71 131h-68z
" />
    <glyph glyph-name="adieresis" unicode="&#xe4;" horiz-adv-x="576" 
d="M183 -11q62 0 109.5 25t83.5 67l-22 -81h75l78 293q5 18 8 36t3 35q0 75 -52.5 117.5t-150.5 42.5q-51 0 -92 -8.5t-79 -22.5l13 -64q35 12 69.5 19.5t76.5 7.5q71 0 105.5 -27t34.5 -78q0 -11 -2 -24t-5 -24l-3 -12q-38 11 -85 19.5t-99 8.5q-50 0 -92 -13t-73 -37
t-48 -59t-17 -78q0 -35 13.5 -61.5t36 -44.5t52 -27.5t62.5 -9.5zM207 49q-51 0 -80.5 25t-29.5 67q0 27 11.5 49t31.5 38t48.5 25t63.5 9q48 0 91 -6.5t77 -16.5l-10 -36q-9 -34 -30 -62.5t-48.5 -48.5t-59.5 -31.5t-65 -11.5zM411 595h89l26 95h-89zM234 595h90l26 95h-90
z" />
    <glyph glyph-name="atilde" unicode="&#xe3;" horiz-adv-x="576" 
d="M183 -11q62 0 109.5 25t83.5 67l-22 -81h75l78 293q5 18 8 36t3 35q0 75 -52.5 117.5t-150.5 42.5q-51 0 -92 -8.5t-79 -22.5l13 -64q35 12 69.5 19.5t76.5 7.5q71 0 105.5 -27t34.5 -78q0 -11 -2 -24t-5 -24l-3 -12q-38 11 -85 19.5t-99 8.5q-50 0 -92 -13t-73 -37
t-48 -59t-17 -78q0 -35 13.5 -61.5t36 -44.5t52 -27.5t62.5 -9.5zM207 49q-51 0 -80.5 25t-29.5 67q0 27 11.5 49t31.5 38t48.5 25t63.5 9q48 0 91 -6.5t77 -16.5l-10 -36q-9 -34 -30 -62.5t-48.5 -48.5t-59.5 -31.5t-65 -11.5zM254 592q17 29 31 44t31 15q13 0 23 -6.5
t27 -22.5q17 -14 32 -23.5t38 -9.5q37 0 64.5 27.5t52.5 78.5l-49 22q-17 -29 -30.5 -44.5t-31.5 -15.5q-13 0 -22.5 7t-26.5 22t-32 24t-39 9q-36 0 -64 -27t-53 -79z" />
    <glyph glyph-name="aring" unicode="&#xe5;" horiz-adv-x="576" 
d="M183 -11q62 0 109.5 25t83.5 67l-22 -81h75l78 293q5 18 8 36t3 35q0 75 -52.5 117.5t-150.5 42.5q-51 0 -92 -8.5t-79 -22.5l13 -64q35 12 69.5 19.5t76.5 7.5q71 0 105.5 -27t34.5 -78q0 -11 -2 -24t-5 -24l-3 -12q-38 11 -85 19.5t-99 8.5q-50 0 -92 -13t-73 -37
t-48 -59t-17 -78q0 -35 13.5 -61.5t36 -44.5t52 -27.5t62.5 -9.5zM207 49q-51 0 -80.5 25t-29.5 67q0 27 11.5 49t31.5 38t48.5 25t63.5 9q48 0 91 -6.5t77 -16.5l-10 -36q-9 -34 -30 -62.5t-48.5 -48.5t-59.5 -31.5t-65 -11.5zM385 594q23 0 44 9t36.5 24t24.5 35t9 43
q0 38 -27.5 63t-72.5 25q-23 0 -43.5 -9t-36 -24t-24.5 -35t-9 -43q0 -38 27 -63t72 -25zM386 633q-28 0 -42.5 14t-14.5 36q0 29 20 50.5t50 21.5q27 0 41.5 -14t14.5 -36q0 -29 -19.5 -50.5t-49.5 -21.5z" />
    <glyph glyph-name="ccedilla" unicode="&#xe7;" horiz-adv-x="559" 
d="M217 -5l-111 -116l66 -34l104 143h2q65 0 113 24t88 62l-45 50q-34 -31 -70.5 -49.5t-82.5 -18.5q-30 0 -58 10.5t-49.5 31t-34 50.5t-12.5 68q0 48 18 92.5t48 78t70 53.5t84 20q29 0 52 -7.5t40.5 -20t31.5 -29t25 -35.5l62 39q-12 24 -30.5 46t-44 38.5t-58.5 26.5
t-73 10q-62 0 -117 -25.5t-96.5 -68.5t-66 -100t-24.5 -120q0 -44 13.5 -80.5t36.5 -64.5t53.5 -46.5t65.5 -27.5z" />
    <glyph glyph-name="eacute" unicode="&#xe9;" horiz-adv-x="589" 
d="M126 232h405q8 23 13 47.5t5 50.5q0 40 -13 76t-38 63t-62.5 43t-86.5 16q-65 0 -120 -28t-95.5 -73t-63 -102.5t-22.5 -116.5q0 -49 16.5 -89.5t46.5 -69.5t72.5 -45t93.5 -16q68 0 116.5 22.5t86.5 54.5l-40 51q-35 -29 -72 -45t-87 -16q-72 0 -114 42.5t-42 113.5v10
q0 6 1 11zM137 290q10 36 29.5 67.5t46.5 55t60.5 37t71.5 13.5q33 0 57.5 -11t40.5 -29t23.5 -42t7.5 -51q0 -25 -5 -40h-332zM303 595h72l142 108l-80 37z" />
    <glyph glyph-name="egrave" unicode="&#xe8;" horiz-adv-x="589" 
d="M126 232h405q8 23 13 47.5t5 50.5q0 40 -13 76t-38 63t-62.5 43t-86.5 16q-65 0 -120 -28t-95.5 -73t-63 -102.5t-22.5 -116.5q0 -49 16.5 -89.5t46.5 -69.5t72.5 -45t93.5 -16q68 0 116.5 22.5t86.5 54.5l-40 51q-35 -29 -72 -45t-87 -16q-72 0 -114 42.5t-42 113.5v10
q0 6 1 11zM137 290q10 36 29.5 67.5t46.5 55t60.5 37t71.5 13.5q33 0 57.5 -11t40.5 -29t23.5 -42t7.5 -51q0 -25 -5 -40h-332zM360 595h54l-56 145l-81 -37z" />
    <glyph glyph-name="ecircumflex" unicode="&#xea;" horiz-adv-x="589" 
d="M126 232h405q8 23 13 47.5t5 50.5q0 40 -13 76t-38 63t-62.5 43t-86.5 16q-65 0 -120 -28t-95.5 -73t-63 -102.5t-22.5 -116.5q0 -49 16.5 -89.5t46.5 -69.5t72.5 -45t93.5 -16q68 0 116.5 22.5t86.5 54.5l-40 51q-35 -29 -72 -45t-87 -16q-72 0 -114 42.5t-42 113.5v10
q0 6 1 11zM137 290q10 36 29.5 67.5t46.5 55t60.5 37t71.5 13.5q33 0 57.5 -11t40.5 -29t23.5 -42t7.5 -51q0 -25 -5 -40h-332zM228 595h68l96 67l54 -67h62l-71 131h-68z" />
    <glyph glyph-name="edieresis" unicode="&#xeb;" horiz-adv-x="589" 
d="M126 232h405q8 23 13 47.5t5 50.5q0 40 -13 76t-38 63t-62.5 43t-86.5 16q-65 0 -120 -28t-95.5 -73t-63 -102.5t-22.5 -116.5q0 -49 16.5 -89.5t46.5 -69.5t72.5 -45t93.5 -16q68 0 116.5 22.5t86.5 54.5l-40 51q-35 -29 -72 -45t-87 -16q-72 0 -114 42.5t-42 113.5v10
q0 6 1 11zM137 290q10 36 29.5 67.5t46.5 55t60.5 37t71.5 13.5q33 0 57.5 -11t40.5 -29t23.5 -42t7.5 -51q0 -25 -5 -40h-332zM416 595h89l26 95h-89zM239 595h90l26 95h-90z" />
    <glyph glyph-name="iacute" unicode="&#xed;" horiz-adv-x="263" 
d="M24 0h77l139 517h-77zM173 595h72l142 108l-80 37z" />
    <glyph glyph-name="igrave" unicode="&#xec;" horiz-adv-x="263" 
d="M24 0h77l139 517h-77zM188 595h54l-56 145l-81 -37z" />
    <glyph glyph-name="icircumflex" unicode="&#xee;" horiz-adv-x="263" 
d="M24 0h77l139 517h-77zM75 595h68l96 67l54 -67h62l-71 131h-68z" />
    <glyph glyph-name="idieresis" unicode="&#xef;" horiz-adv-x="263" 
d="M24 0h77l139 517h-77zM263 595h89l26 95h-89zM86 595h90l26 95h-90z" />
    <glyph glyph-name="ntilde" unicode="&#xf1;" horiz-adv-x="613" 
d="M17 0h77l78 292q10 37 29 67.5t44 52.5t54.5 34.5t59.5 12.5q54 0 85 -28.5t31 -79.5q0 -13 -2 -29t-6 -29l-78 -293h77l76 288q5 20 9 41t4 39q0 74 -45 117t-120 43q-59 0 -102 -27.5t-78 -67.5l22 84h-77zM273 592q17 29 31 44t31 15q13 0 23 -6.5t27 -22.5
q17 -14 32 -23.5t38 -9.5q37 0 64.5 27.5t52.5 78.5l-49 22q-17 -29 -30.5 -44.5t-31.5 -15.5q-13 0 -22.5 7t-26.5 22t-32 24t-39 9q-36 0 -64 -27t-53 -79z" />
    <glyph glyph-name="oacute" unicode="&#xf3;" horiz-adv-x="638" 
d="M284 -12q61 0 116 25t97 67.5t67 98.5t25 118q0 50 -17 92.5t-48 73t-74.5 48t-96.5 17.5q-62 0 -117 -25.5t-96.5 -68t-66 -98.5t-24.5 -116q0 -50 16.5 -92.5t47.5 -73.5t74.5 -48.5t96.5 -17.5zM289 57q-72 0 -117 43t-45 122q0 45 18 88t48 76t70 53.5t85 20.5
q72 0 117 -43.5t45 -122.5q0 -46 -18 -89t-49 -76t-71 -52.5t-83 -19.5zM312 595h72l142 108l-80 37z" />
    <glyph glyph-name="ograve" unicode="&#xf2;" horiz-adv-x="638" 
d="M284 -12q61 0 116 25t97 67.5t67 98.5t25 118q0 50 -17 92.5t-48 73t-74.5 48t-96.5 17.5q-62 0 -117 -25.5t-96.5 -68t-66 -98.5t-24.5 -116q0 -50 16.5 -92.5t47.5 -73.5t74.5 -48.5t96.5 -17.5zM289 57q-72 0 -117 43t-45 122q0 45 18 88t48 76t70 53.5t85 20.5
q72 0 117 -43.5t45 -122.5q0 -46 -18 -89t-49 -76t-71 -52.5t-83 -19.5zM370 595h54l-56 145l-81 -37z" />
    <glyph glyph-name="ocircumflex" unicode="&#xf4;" horiz-adv-x="638" 
d="M284 -12q61 0 116 25t97 67.5t67 98.5t25 118q0 50 -17 92.5t-48 73t-74.5 48t-96.5 17.5q-62 0 -117 -25.5t-96.5 -68t-66 -98.5t-24.5 -116q0 -50 16.5 -92.5t47.5 -73.5t74.5 -48.5t96.5 -17.5zM289 57q-72 0 -117 43t-45 122q0 45 18 88t48 76t70 53.5t85 20.5
q72 0 117 -43.5t45 -122.5q0 -46 -18 -89t-49 -76t-71 -52.5t-83 -19.5zM254 595h68l96 67l54 -67h62l-71 131h-68z" />
    <glyph glyph-name="odieresis" unicode="&#xf6;" horiz-adv-x="638" 
d="M284 -12q61 0 116 25t97 67.5t67 98.5t25 118q0 50 -17 92.5t-48 73t-74.5 48t-96.5 17.5q-62 0 -117 -25.5t-96.5 -68t-66 -98.5t-24.5 -116q0 -50 16.5 -92.5t47.5 -73.5t74.5 -48.5t96.5 -17.5zM289 57q-72 0 -117 43t-45 122q0 45 18 88t48 76t70 53.5t85 20.5
q72 0 117 -43.5t45 -122.5q0 -46 -18 -89t-49 -76t-71 -52.5t-83 -19.5zM429 595h89l26 95h-89zM252 595h90l26 95h-90z" />
    <glyph glyph-name="otilde" unicode="&#xf5;" horiz-adv-x="638" 
d="M284 -12q61 0 116 25t97 67.5t67 98.5t25 118q0 50 -17 92.5t-48 73t-74.5 48t-96.5 17.5q-62 0 -117 -25.5t-96.5 -68t-66 -98.5t-24.5 -116q0 -50 16.5 -92.5t47.5 -73.5t74.5 -48.5t96.5 -17.5zM289 57q-72 0 -117 43t-45 122q0 45 18 88t48 76t70 53.5t85 20.5
q72 0 117 -43.5t45 -122.5q0 -46 -18 -89t-49 -76t-71 -52.5t-83 -19.5zM274 592q17 29 31 44t31 15q13 0 23 -6.5t27 -22.5q17 -14 32 -23.5t38 -9.5q37 0 64.5 27.5t52.5 78.5l-49 22q-17 -29 -30.5 -44.5t-31.5 -15.5q-13 0 -22.5 7t-26.5 22t-32 24t-39 9q-36 0 -64 -27
t-53 -79z" />
    <glyph glyph-name="uacute" unicode="&#xfa;" horiz-adv-x="613" 
d="M222 -11q59 0 102.5 27.5t78.5 67.5l-23 -84h77l138 517h-77l-78 -291q-10 -37 -29 -68t-44 -53t-54.5 -34.5t-59.5 -12.5q-54 0 -84.5 28.5t-30.5 79.5q0 13 1.5 29t5.5 29l79 293h-77l-76 -288q-5 -20 -9 -41t-4 -39q0 -74 44.5 -117t119.5 -43zM321 595h72l142 108
l-80 37z" />
    <glyph glyph-name="ugrave" unicode="&#xf9;" horiz-adv-x="613" 
d="M222 -11q59 0 102.5 27.5t78.5 67.5l-23 -84h77l138 517h-77l-78 -291q-10 -37 -29 -68t-44 -53t-54.5 -34.5t-59.5 -12.5q-54 0 -84.5 28.5t-30.5 79.5q0 13 1.5 29t5.5 29l79 293h-77l-76 -288q-5 -20 -9 -41t-4 -39q0 -74 44.5 -117t119.5 -43zM369 595h54l-56 145
l-81 -37z" />
    <glyph glyph-name="ucircumflex" unicode="&#xfb;" horiz-adv-x="613" 
d="M222 -11q59 0 102.5 27.5t78.5 67.5l-23 -84h77l138 517h-77l-78 -291q-10 -37 -29 -68t-44 -53t-54.5 -34.5t-59.5 -12.5q-54 0 -84.5 28.5t-30.5 79.5q0 13 1.5 29t5.5 29l79 293h-77l-76 -288q-5 -20 -9 -41t-4 -39q0 -74 44.5 -117t119.5 -43zM245 595h68l96 67
l54 -67h62l-71 131h-68z" />
    <glyph glyph-name="udieresis" unicode="&#xfc;" horiz-adv-x="613" 
d="M222 -11q59 0 102.5 27.5t78.5 67.5l-23 -84h77l138 517h-77l-78 -291q-10 -37 -29 -68t-44 -53t-54.5 -34.5t-59.5 -12.5q-54 0 -84.5 28.5t-30.5 79.5q0 13 1.5 29t5.5 29l79 293h-77l-76 -288q-5 -20 -9 -41t-4 -39q0 -74 44.5 -117t119.5 -43zM431 595h89l26 95h-89z
M254 595h90l26 95h-90z" />
    <glyph glyph-name="dagger" unicode="&#x2020;" horiz-adv-x="411" 
d="M159 238h55l68 282l122 -8l15 55l-125 -8l47 141h-61l-30 -141l-120 8l-15 -55l125 8z" />
    <glyph glyph-name="degree" unicode="&#xb0;" horiz-adv-x="387" 
d="M223 398q36 0 67.5 14.5t55 38.5t37 55.5t13.5 66.5q0 28 -10 52.5t-27.5 42.5t-42.5 28t-55 10q-36 0 -67.5 -14.5t-55 -38.5t-37 -55.5t-13.5 -65.5q0 -29 10 -53.5t27.5 -42.5t42.5 -28t55 -10zM228 450q-37 0 -60 23t-23 63q0 23 9 44t24 37.5t35 26.5t43 10
q37 0 60 -23t23 -63q0 -23 -9 -44t-24 -37.5t-35.5 -26.5t-42.5 -10z" />
    <glyph glyph-name="cent" unicode="&#xa2;" horiz-adv-x="566" 
d="M204 105l-44 -111h64l37 94q11 -2 23 -3t24 -1q70 0 121 23.5t91 60.5l-45 51q-35 -31 -75 -48.5t-91 -17.5q-7 0 -13 0.5t-12 1.5l154 393q35 -11 57.5 -33t39.5 -51l61 39q-17 35 -48.5 64.5t-80.5 45.5l37 93h-64l-33 -82q-6 1 -13 1h-13q-64 0 -120 -25t-98 -68
t-66 -100.5t-24 -122.5q0 -71 35 -124.5t96 -79.5zM383 556l-151 -386q-38 20 -59.5 56t-21.5 84q0 49 17.5 94t48.5 78.5t72 53.5t89 20h5z" />
    <glyph glyph-name="sterling" unicode="&#xa3;" horiz-adv-x="629" 
d="M-5 0h518l19 70h-356l60 225h280l19 69h-280l29 107q21 79 62 120q21 21 47.5 32.5t59.5 11.5q50 0 80.5 -22t53.5 -60l65 42q-27 49 -74 81t-120 32q-54 0 -94.5 -17.5t-74.5 -51.5q-27 -27 -47 -66.5t-33 -87.5l-33 -121h-83l-19 -69h84l-62 -228l-89 -21z" />
    <glyph glyph-name="section" unicode="&#xa7;" horiz-adv-x="632" 
d="M287 -10q40 0 75 9.5t61 26.5t41 42t15 55q0 32 -19.5 55.5t-46.5 37.5q40 2 73 12t57 26.5t37.5 39.5t13.5 51q0 26 -12.5 46.5t-36.5 37.5t-59 31.5t-80 29.5q-68 22 -98.5 42t-30.5 48q0 30 31 48.5t77 18.5q58 0 106 -21.5t77 -49.5l49 50q-17 18 -41 33.5t-53 27
t-62 18t-68 6.5q-40 0 -75 -9.5t-61.5 -26.5t-41.5 -42t-15 -55q0 -32 20 -55.5t46 -37.5q-40 -2 -73 -12t-57 -26.5t-37.5 -39.5t-13.5 -51q0 -26 12.5 -46.5t36.5 -37.5t59 -31.5t80 -29.5q69 -23 99 -42.5t30 -47.5q0 -30 -31 -48.5t-77 -18.5q-57 0 -105 21t-77 50
l-50 -50q17 -18 41 -33.5t53 -27t62 -18t69 -6.5zM394 257q-31 0 -56 5t-57 16q-64 21 -92 41t-28 47q0 16 9.5 30.5t26 25t39.5 16.5t49 6q31 0 56 -5t57 -16q64 -21 92 -41t28 -47q0 -16 -9.5 -30.5t-26 -25t-39.5 -16.5t-49 -6z" />
    <glyph glyph-name="bullet" unicode="&#x2022;" horiz-adv-x="478" 
d="M236 216q31 0 58.5 13.5t47.5 36t32 51.5t12 61q0 51 -30 80.5t-78 29.5q-32 0 -59 -13.5t-47.5 -35.5t-32 -51.5t-11.5 -60.5q0 -51 30 -81t78 -30z" />
    <glyph glyph-name="paragraph" unicode="&#xb6;" horiz-adv-x="517" 
d="M268 0h80l188 700h-105q-80 0 -141.5 -18.5t-104.5 -52.5t-65 -82t-22 -107q0 -49 18 -84t50 -58t75 -35t93 -14z" />
    <glyph glyph-name="germandbls" unicode="&#xdf;" horiz-adv-x="623" 
d="M222 -2q80 -1 141.5 14.5t103.5 43.5t63.5 66.5t21.5 83.5q0 32 -11.5 57.5t-31 44.5t-45.5 32.5t-56 22.5q41 12 76.5 29.5t62 42.5t42 58t15.5 75q0 36 -14 67t-40 53.5t-62 35.5t-79 13q-50 0 -93 -18t-77 -52q-30 -30 -51.5 -72t-35.5 -94l-135 -501h77l131 488
q23 85 68.5 133t110.5 48q57 0 90 -29.5t33 -76.5q0 -60 -47 -103t-153 -68l-16 -60q163 -26 163 -125q0 -29 -13 -55t-41.5 -46t-73 -32t-107.5 -12z" />
    <glyph glyph-name="registered" unicode="&#xae;" horiz-adv-x="830" 
d="M438 -12q76 0 142.5 29t115.5 78.5t77 115.5t28 140t-28 140t-76.5 115t-114.5 77.5t-142 28.5t-142.5 -29t-115.5 -78.5t-77 -115.5t-28 -140t28 -140t76.5 -115t114.5 -77.5t142 -28.5zM438 19q-70 0 -130 26t-104 71t-69 105t-25 128t25 128.5t69.5 105.5t104.5 71.5
t131 26.5q70 0 130 -26t104 -71t69 -105t25 -128t-25 -128.5t-69.5 -105.5t-105 -71.5t-130.5 -26.5zM297 175h55v140h95l107 -140h67l-114 149q42 10 68.5 37t26.5 73q0 52 -38.5 82t-100.5 30h-166v-371zM352 364v132h109q40 0 62.5 -17t22.5 -48q0 -32 -25 -49.5
t-63 -17.5h-106z" />
    <glyph glyph-name="copyright" unicode="&#xa9;" horiz-adv-x="830" 
d="M438 -12q76 0 142.5 29t115.5 78.5t77 115.5t28 140t-28 140t-76.5 115t-114.5 77.5t-142 28.5t-142.5 -29t-115.5 -78.5t-77 -115.5t-28 -140t28 -140t76.5 -115t114.5 -77.5t142 -28.5zM438 19q-70 0 -130 26t-104 71t-69 105t-25 128t25 128.5t69.5 105.5t104.5 71.5
t131 26.5q70 0 130 -26t104 -71t69 -105t25 -128t-25 -128.5t-69.5 -105.5t-105 -71.5t-130.5 -26.5zM443 163q51 0 84.5 18t63.5 48l-36 35q-26 -23 -50.5 -36.5t-60.5 -13.5q-27 0 -51 11t-42 30.5t-28 45.5t-10 55t9.5 54.5t27 45t41.5 30.5t53 11q33 0 59.5 -14.5
t48.5 -35.5l36 40q-27 26 -60 43t-84 17q-41 0 -75 -15t-59 -41.5t-39 -61.5t-14 -74q0 -40 14 -75t39 -61t59 -41t74 -15z" />
    <glyph glyph-name="trademark" unicode="&#x2122;" horiz-adv-x="693" 
d="M361 392h44l67 236l65 -167h5l155 167l-67 -236h43l87 308h-51l-154 -169l-65 169h-42zM150 392h44l75 266h98l12 42h-241l-12 -42h98z" />
    <glyph glyph-name="acute" unicode="&#xb4;" 
d="M239 595h72l142 108l-80 37z" />
    <glyph glyph-name="dieresis" unicode="&#xa8;" 
d="M375 595h89l26 95h-89zM198 595h90l26 95h-90z" />
    <glyph glyph-name="AE" unicode="&#xc6;" horiz-adv-x="1065" 
d="M-40 0h91l158 185h284l-50 -185h493l19 72h-414l66 245h364l19 72h-364l64 239h409l20 72h-560zM268 256l318 374h25l-100 -374h-243z" />
    <glyph glyph-name="Oslash" unicode="&#xd8;" horiz-adv-x="842" 
d="M395 -13q87 0 161.5 35.5t129 94t86 135t31.5 157.5q0 47 -12 89.5t-35 77.5l149 129h-90l-96 -83q-41 42 -97.5 66t-125.5 24q-87 0 -161.5 -35.5t-129 -94t-86 -134.5t-31.5 -157q0 -93 46 -165l-153 -131h90l100 85q40 -43 97 -68t127 -25zM195 177q-26 52 -26 116
q0 66 24.5 128.5t67.5 111t102 78.5t128 30q54 0 96.5 -18t72.5 -50zM400 58q-54 0 -97.5 19t-72.5 52l464 396q28 -54 28 -119t-24.5 -127.5t-67.5 -111.5t-102 -79t-128 -30z" />
    <glyph glyph-name="plusminus" unicode="&#xb1;" horiz-adv-x="606" 
d="M259 -12q58 0 107 16t85 44t56.5 66.5t20.5 82.5q0 31 -10.5 55.5t-28 43.5t-41 32.5t-48.5 21.5q91 17 143.5 63.5t52.5 121.5q0 40 -17 73t-47 55.5t-70.5 35t-87.5 12.5q-39 0 -72 -7t-61.5 -19t-53 -28.5t-45.5 -35.5l46 -52q39 32 81.5 51t99.5 19q31 0 57 -8
t45.5 -22.5t30.5 -35.5t11 -47q0 -65 -62 -102t-167 -37h-51l-18 -68h43q40 0 74.5 -7t60 -22t39.5 -38t14 -55q0 -28 -13 -53t-37 -43.5t-57.5 -29.5t-74.5 -11q-75 0 -122 27.5t-77 71.5l-63 -43q16 -27 40.5 -50t56.5 -40.5t72 -27.5t88 -10z" />
    <glyph glyph-name="yen" unicode="&#xa5;" horiz-adv-x="703" 
d="M240 0h78l30 116h206l17 62h-206l23 88h206l17 62h-174l360 372h-99l-326 -344l-141 344h-88l158 -372h-177l-17 -62h203l-23 -88h-203l-16 -62h203z" />
    <glyph glyph-name="mu" unicode="&#xb5;" horiz-adv-x="842" 
d="M672 -29l62 46l-70 79q65 60 102 142t37 171q0 64 -22.5 119t-63 96t-97 64.5t-124.5 23.5q-87 0 -161.5 -35.5t-129 -94t-86 -134.5t-31.5 -157q0 -64 22.5 -119.5t63 -96.5t97 -64.5t124.5 -23.5q59 0 112.5 17.5t99.5 48.5zM400 60q-53 0 -95 18t-72 49t-46 73.5
t-16 92.5q0 65 24.5 127.5t67 111t101 78t127.5 29.5q52 0 94.5 -18t72.5 -49t46 -74t16 -92q0 -70 -27.5 -135t-75.5 -114l-102 129l-62 -47l109 -128q-35 -24 -76 -37.5t-86 -13.5z" />
    <glyph glyph-name="mu" unicode="&#x3bc;" horiz-adv-x="842" 
d="M672 -29l62 46l-70 79q65 60 102 142t37 171q0 64 -22.5 119t-63 96t-97 64.5t-124.5 23.5q-87 0 -161.5 -35.5t-129 -94t-86 -134.5t-31.5 -157q0 -64 22.5 -119.5t63 -96.5t97 -64.5t124.5 -23.5q59 0 112.5 17.5t99.5 48.5zM400 60q-53 0 -95 18t-72 49t-46 73.5
t-16 92.5q0 65 24.5 127.5t67 111t101 78t127.5 29.5q52 0 94.5 -18t72.5 -49t46 -74t16 -92q0 -70 -27.5 -135t-75.5 -114l-102 129l-62 -47l109 -128q-35 -24 -76 -37.5t-86 -13.5z" />
    <glyph glyph-name="pi" unicode="&#x3c0;" horiz-adv-x="830" 
d="M438 -12q76 0 142.5 29t115.5 78.5t77 115.5t28 140t-28 140t-76.5 115t-114.5 77.5t-142 28.5t-142.5 -29t-115.5 -78.5t-77 -115.5t-28 -140t28 -140t76.5 -115t114.5 -77.5t142 -28.5zM438 19q-70 0 -130 26t-104 71t-69 105t-25 128t25 128.5t69.5 105.5t104.5 71.5
t131 26.5q70 0 130 -26t104 -71t69 -105t25 -128t-25 -128.5t-69.5 -105.5t-105 -71.5t-130.5 -26.5zM316 172h55v125h83q30 0 57.5 7.5t48.5 23.5t33.5 39t12.5 55q0 58 -39 89.5t-105 31.5h-146v-371zM371 347v146h86q43 0 68 -17.5t25 -54.5q0 -35 -25.5 -54.5
t-68.5 -19.5h-85z" />
    <glyph glyph-name="ordfeminine" unicode="&#xaa;" horiz-adv-x="390" 
d="M190 407q34 0 60.5 14.5t46.5 37.5l-12 -46h51l43 162l4 20t2 20q0 42 -29 65.5t-84 23.5q-29 0 -53 -5t-46 -13l9 -43q18 7 37.5 11t42.5 4q37 0 54.5 -14t17.5 -39q0 -5 -1 -12t-3 -12l-2 -6q-20 5 -43.5 10t-49.5 5q-57 0 -93.5 -28.5t-36.5 -78.5q0 -35 24.5 -55.5
t60.5 -20.5zM56 289h250l12 47h-250zM207 446q-23 0 -36 12t-13 31q0 29 22.5 46.5t58.5 17.5q23 0 43.5 -3t37.5 -8l-4 -13q-5 -17 -16 -32t-26 -26.5t-32 -18t-35 -6.5z" />
    <glyph glyph-name="ordmasculine" unicode="&#xba;" horiz-adv-x="393" 
d="M245 405q35 0 65.5 14t53.5 37t36 54t13 64q0 28 -9.5 52t-27 41.5t-42 27.5t-54.5 10q-35 0 -65.5 -14t-53.5 -37t-36 -54t-13 -64q0 -57 36.5 -94t96.5 -37zM58 289h270l12 47h-270zM248 451q-37 0 -60 24t-23 63q0 23 8.5 45t23.5 39t35.5 27t44.5 10q37 0 60 -24
t23 -63q0 -23 -9 -45t-24 -39t-35.5 -27t-43.5 -10z" />
    <glyph glyph-name="ae" unicode="&#xe6;" horiz-adv-x="958" 
d="M445 107q25 -56 77 -87.5t127 -31.5q64 0 114 22.5t88 54.5l-40 51q-36 -29 -72.5 -45t-87.5 -16q-72 0 -114 42.5t-42 113.5v10q0 6 1 11h406q17 46 17 98q0 40 -13 76t-38 63t-62 43t-86 16q-66 0 -121 -31t-94 -80q-17 51 -65 79t-125 28q-51 0 -92 -8.5t-79 -22.5
l13 -64q35 12 69.5 19.5t76.5 7.5q71 0 105.5 -27t34.5 -78q0 -11 -2 -24t-5 -24l-3 -12q-36 11 -83 19.5t-98 8.5q-50 0 -92.5 -12.5t-74 -36.5t-49 -58t-17.5 -77q0 -35 13 -62.5t36 -46t55.5 -28t70.5 -9.5q72 0 136 32.5t115 85.5zM507 290q10 36 29.5 67.5t46.5 55
t60.5 37t71.5 13.5q33 0 57.5 -11t40.5 -29t23.5 -42t7.5 -51q0 -14 -1 -23.5t-3 -16.5h-333zM427 238q-3 -15 -3 -25q0 -14 1.5 -27t3.5 -27q-48 -51 -103.5 -80.5t-112.5 -29.5q-56 0 -86 26t-30 69q0 26 11.5 47.5t32.5 37.5t50 24.5t64 8.5q45 0 90.5 -6.5t81.5 -17.5z
" />
    <glyph glyph-name="oslash" unicode="&#xf8;" horiz-adv-x="638" 
d="M284 -12q61 0 116 25t97 67.5t67 98.5t25 118q0 71 -33 125l121 101h-85l-71 -58q-30 30 -72.5 46.5t-95.5 16.5q-62 0 -117 -25.5t-96.5 -68t-66 -98.5t-24.5 -116q0 -70 31 -124l-120 -101h85l70 58q31 -30 73 -47.5t96 -17.5zM141 146q-7 17 -11 35.5t-4 40.5
q0 45 18 88t48.5 76.5t71 54t85.5 20.5q74 0 117 -43zM288 55q-74 0 -118 44l326 274q15 -35 15 -79q0 -47 -18.5 -90t-49 -76t-71 -53t-84.5 -20z" />
    <glyph glyph-name="questiondown" unicode="&#xbf;" horiz-adv-x="537" 
d="M349 595h92l28 105h-92zM251 -9q74 0 133 28.5t102 71.5l-45 52q-34 -32 -81 -56t-101 -24q-57 0 -95 28.5t-38 82.5q0 35 17 63.5t48 48.5t74.5 32.5t96.5 16.5l7 5l27 162h-50l-40 -110q-56 -8 -104 -26t-83 -46t-55 -66t-20 -86q0 -37 14 -69.5t41 -56.5t65.5 -37.5
t86.5 -13.5z" />
    <glyph glyph-name="exclamdown" unicode="&#xa1;" horiz-adv-x="271" 
d="M180 595h91l29 105h-92zM21 0h90l16 57l95 445h-43l-143 -445z" />
    <glyph glyph-name="radical" unicode="&#x221a;" horiz-adv-x="1014" 
d="M422 0h76l121 449h169l18 68h-169l13 50q14 51 40.5 74.5t63.5 23.5q23 0 42.5 -5t42.5 -16l18 66q-42 22 -102 22q-136 0 -178 -153l-17 -62h-71l-18 -68h72zM46 0h77l121 449h168l19 68h-169l13 50q14 51 40.5 74.5t63.5 23.5q23 0 42.5 -5t42.5 -16l18 66
q-42 22 -103 22q-67 0 -111.5 -37.5t-65.5 -115.5l-17 -62h-71l-18 -68h71zM775 0h76l196 730h-76z" />
    <glyph glyph-name="florin" unicode="&#x192;" horiz-adv-x="531" 
d="M41 -10q52 0 93.5 30.5t76.5 109.5l107 243h162l17 67h-150l44 100q23 53 52 78t67 25q22 0 39.5 -4t32.5 -10l20 64q-19 8 -41.5 12.5t-51.5 4.5q-63 0 -107.5 -37t-77.5 -112l-54 -121h-108l-18 -67h97l-98 -222q-22 -50 -46.5 -72.5t-55.5 -22.5q-17 0 -28 2.5
t-19 4.5l-19 -64q12 -4 27.5 -6.5t38.5 -2.5z" />
    <glyph glyph-name="approxequal" unicode="&#x2248;" horiz-adv-x="1014" 
d="M939 630h87l24 85h-88zM422 0h76l121 449h169l18 68h-169l13 50q14 51 40.5 74.5t63.5 23.5q23 0 42.5 -5t42.5 -16l18 66q-42 22 -102 22q-136 0 -178 -153l-17 -62h-71l-18 -68h72zM46 0h77l121 449h168l19 68h-169l13 50q14 51 40.5 74.5t63.5 23.5q23 0 42.5 -5
t42.5 -16l18 66q-42 22 -103 22q-67 0 -111.5 -37.5t-65.5 -115.5l-17 -62h-71l-18 -68h71zM775 0h76l139 517h-76z" />
    <glyph glyph-name="guillemotleft" unicode="&#xab;" horiz-adv-x="550" 
d="M372 39l63 31l-82 177l188 187l-50 42l-222 -216l-2 -8zM150 39l63 31l-82 177l188 187l-50 42l-222 -216l-2 -8z" />
    <glyph glyph-name="guillemotright" unicode="&#xbb;" horiz-adv-x="550" 
d="M279 38l222 216l2 8l-105 213l-63 -31l82 -177l-187 -187zM58 38l221 216l2 8l-105 213l-63 -31l82 -177l-187 -187z" />
    <glyph glyph-name="ellipsis" unicode="&#x2026;" horiz-adv-x="734" 
d="M493 0h91l28 104h-91zM252 0h91l28 104h-90zM12 0h91l28 104h-91z" />
    <glyph glyph-name="nonbreakingspace" unicode="&#xa0;" horiz-adv-x="300" 
 />
    <glyph glyph-name="Agrave" unicode="&#xc0;" horiz-adv-x="761" 
d="M-40 0h87l132 185h382l32 -185h81l-130 705h-76zM229 256l256 359l63 -359h-319zM502 762h54l-56 145l-81 -37z" />
    <glyph glyph-name="Atilde" unicode="&#xc3;" horiz-adv-x="761" 
d="M-40 0h87l132 185h382l32 -185h81l-130 705h-76zM229 256l256 359l63 -359h-319zM404 759q17 29 31 44t31 15q13 0 23 -6.5t27 -22.5q17 -14 32 -23.5t38 -9.5q37 0 64.5 27.5t52.5 78.5l-49 22q-17 -29 -30.5 -44.5t-31.5 -15.5q-13 0 -22.5 7t-26.5 22t-32 24t-39 9
q-36 0 -64 -27t-53 -79z" />
    <glyph glyph-name="Otilde" unicode="&#xd5;" horiz-adv-x="842" 
d="M395 -13q87 0 161.5 35.5t129 94t86 135t31.5 157.5q0 64 -22.5 119t-63 96t-97 64.5t-124.5 23.5q-87 0 -161.5 -35.5t-129 -94t-86 -134.5t-31.5 -157q0 -64 22.5 -119.5t63 -96.5t97 -64.5t124.5 -23.5zM400 60q-53 0 -95 18t-72 49t-46 73.5t-16 92.5
q0 65 24.5 127.5t67 111t101 78t127.5 29.5q52 0 94.5 -18t72.5 -49t46 -74t16 -92q0 -65 -24.5 -127.5t-67 -111t-101 -78t-127.5 -29.5zM414 759q17 29 31 44t31 15q13 0 23 -6.5t27 -22.5q17 -14 32 -23.5t38 -9.5q37 0 64.5 27.5t52.5 78.5l-49 22q-17 -29 -30.5 -44.5
t-31.5 -15.5q-13 0 -22.5 7t-26.5 22t-32 24t-39 9q-36 0 -64 -27t-53 -79z" />
    <glyph glyph-name="OE" unicode="&#x152;" horiz-adv-x="1132" 
d="M435 0h567l20 72h-414l66 245h363l19 72h-363l64 239h409l19 72h-630q-112 0 -204 -35t-155 -98q-54 -54 -82.5 -123t-28.5 -150q0 -64 20 -114t56 -86q47 -47 116.5 -70.5t157.5 -23.5zM440 73q-71 0 -125 18t-89 53q-28 28 -43 66.5t-15 88.5q0 65 22.5 120.5
t64.5 97.5q54 54 128 82t162 28h133l-149 -554h-89z" />
    <glyph glyph-name="oe" unicode="&#x153;" horiz-adv-x="1041" 
d="M579 232h405q18 45 18 98q0 40 -13 76t-38 63t-62.5 43t-86.5 16q-43 0 -79 -12t-66 -32t-53.5 -46.5t-41.5 -56.5q-9 31 -27 57.5t-44 46.5t-61 31.5t-77 11.5q-62 0 -117.5 -25.5t-97 -68t-65.5 -98.5t-24 -116q0 -50 17 -92.5t47.5 -73.5t73.5 -48.5t95 -17.5
q41 0 77 11t66.5 30t55 44.5t43.5 54.5q19 -64 74 -102t134 -38q64 0 114 22.5t88 54.5l-41 51q-35 -29 -72 -45t-87 -16q-72 0 -114 42.5t-42 113.5v10q0 6 1 11zM590 290q10 36 29.5 67.5t46.5 55t60.5 37t71.5 13.5q33 0 57.5 -11t40.5 -29t23.5 -42t7.5 -51
q0 -14 -1 -23.5t-3 -16.5h-333zM289 57q-72 0 -117 44t-45 122q0 45 17.5 88t48 76t70.5 53t85 20q72 0 117 -44.5t45 -125.5q0 -46 -18 -88t-49 -74.5t-71 -51.5t-83 -19z" />
    <glyph glyph-name="endash" unicode="&#x2013;" horiz-adv-x="529" 
d="M66 262h399l20 77h-399z" />
    <glyph glyph-name="emdash" unicode="&#x2014;" horiz-adv-x="899" 
d="M66 262h769l20 77h-769z" />
    <glyph glyph-name="quotedblleft" unicode="&#x201c;" horiz-adv-x="455" 
d="M332 478h92l28 105h-36q6 32 27.5 54t65.5 33l-8 34q-30 -5 -53 -15t-40.5 -26t-30 -39t-21.5 -56zM132 478h92l28 105h-36q6 32 27.5 54t65.5 33l-7 34q-30 -5 -53.5 -15t-41 -26t-30 -39t-21.5 -56z" />
    <glyph glyph-name="quotedblright" unicode="&#x201d;" horiz-adv-x="455" 
d="M316 474q61 10 95 40.5t51 95.5l24 90h-92l-28 -105h36q-6 -32 -27.5 -54t-65.5 -33zM116 474q61 10 95 40.5t51 95.5l24 90h-92l-28 -105h36q-6 -32 -27.5 -54t-65.5 -33z" />
    <glyph glyph-name="quoteleft" unicode="&#x2018;" horiz-adv-x="255" 
d="M132 478h92l29 105h-37q6 33 28 54.5t66 32.5l-8 35q-60 -11 -93.5 -41.5t-51.5 -94.5z" />
    <glyph glyph-name="quoteright" unicode="&#x2019;" horiz-adv-x="255" 
d="M124 474q61 10 94 40.5t51 95.5l25 90h-92l-29 -105h37q-6 -32 -28 -54t-66 -33z" />
    <glyph glyph-name="ydieresis" unicode="&#xff;" horiz-adv-x="574" 
d="M38 -163q58 0 108 32.5t104 113.5l354 534h-87l-278 -431l-72 431h-80l94 -516q-39 -55 -70.5 -75.5t-64.5 -20.5q-19 0 -42 7.5t-37 18.5l-42 -58q25 -17 52.5 -26.5t60.5 -9.5zM405 595h89l26 95h-89zM228 595h90l26 95h-90z" />
    <glyph glyph-name="Ydieresis" unicode="&#x178;" horiz-adv-x="663" 
d="M216 0h80l72 269l410 431h-101l-330 -353l-140 353h-88l173 -418zM497 762h89l26 95h-89zM320 762h90l26 95h-90z" />
    <glyph glyph-name="currency" unicode="&#xa4;" horiz-adv-x="694" 
d="M378 -12q81 0 138 32.5t102 83.5l-53 46q-39 -43 -82.5 -66.5t-102.5 -23.5q-75 0 -119.5 48.5t-49.5 128.5h254l17 63h-271q2 28 7 55t13 53h279l17 62h-272q18 37 42 68.5t53 54t63 35t72 12.5q69 0 107 -31.5t62 -87.5l68 31q-12 34 -31.5 63.5t-47.5 51t-65.5 33.5
t-83.5 12q-57 0 -107 -18.5t-91.5 -50.5t-73.5 -76.5t-54 -96.5h-73l-17 -62h70q-16 -51 -19 -108h-79l-17 -63h95q4 -58 24 -104t53 -78.5t77 -49.5t96 -17z" />
    <glyph glyph-name="guilsinglleft" unicode="&#x2039;" horiz-adv-x="328" 
d="M150 39l63 31l-82 177l188 187l-50 42l-222 -216l-2 -8z" />
    <glyph glyph-name="guilsinglright" unicode="&#x203a;" horiz-adv-x="328" 
d="M58 38l221 216l2 8l-105 213l-63 -31l82 -177l-187 -187z" />
    <glyph glyph-name="fi" unicode="&#xfb01;" horiz-adv-x="639" 
d="M563 630h88l23 85h-87zM46 0h77l121 449h168l19 68h-169l13 50q14 51 40.5 74.5t63.5 23.5q23 0 42.5 -5t42.5 -16l18 66q-42 22 -103 22q-67 0 -111.5 -37.5t-65.5 -115.5l-17 -62h-71l-18 -68h71zM399 0h77l139 517h-77z" />
    <glyph glyph-name="fl" unicode="&#xfb02;" horiz-adv-x="639" 
d="M46 0h77l121 449h168l19 68h-169l13 50q14 51 40.5 74.5t63.5 23.5q23 0 42.5 -5t42.5 -16l18 66q-42 22 -103 22q-67 0 -111.5 -37.5t-65.5 -115.5l-17 -62h-71l-18 -68h71zM399 0h77l196 730h-77z" />
    <glyph glyph-name="daggerdbl" unicode="&#x2021;" horiz-adv-x="425" 
d="M99 0h61l30 141l120 -8l15 55l-126 -8l52 170l39 170l122 -8l15 55l-125 -8l46 141h-61l-29 -141l-121 8l-15 -55l125 8l-51 -170l-40 -170l-121 8l-14 -55l124 8z" />
    <glyph glyph-name="periodcentered" unicode="&#xb7;" horiz-adv-x="255" 
d="M77 248h92l28 105h-91z" />
    <glyph glyph-name="quotesinglbase" unicode="&#x201a;" horiz-adv-x="255" 
d="M-37 -121q60 11 94 41t51 95l24 90h-91l-29 -105h37q-6 -32 -28 -54t-66 -33z" />
    <glyph glyph-name="quotedblbase" unicode="&#x201e;" horiz-adv-x="455" 
d="M164 -121q60 11 94 41t51 95l24 90h-92l-28 -105h36q-6 -32 -27.5 -54t-65.5 -33zM-37 -121q60 11 94 41t51 95l24 90h-91l-29 -105h37q-6 -32 -28 -54t-66 -33z" />
    <glyph glyph-name="perthousand" unicode="&#x2030;" horiz-adv-x="1226" 
d="M232 346q41 0 76.5 18.5t61 48.5t40 69t14.5 80q0 31 -10 57.5t-29 46t-45 31t-58 11.5q-41 0 -76 -18.5t-60.5 -48.5t-40 -69t-14.5 -80q0 -31 10 -57.5t29 -46t44.5 -31t57.5 -11.5zM64 0h79l679 700h-79zM992 -7q41 0 76.5 18.5t61 48.5t40 69t14.5 80q0 31 -10 57.5
t-29 46t-45 31t-57 11.5q-41 0 -76.5 -18.5t-61 -48.5t-40 -69t-14.5 -80q0 -31 10 -58t29 -46.5t44.5 -30.5t57.5 -11zM603 -7q41 0 76.5 18.5t61 48.5t40 69t14.5 80q0 31 -10 57.5t-29 46t-45 31t-57 11.5q-41 0 -76.5 -18.5t-61 -48.5t-40 -69t-14.5 -80q0 -31 10 -58
t29 -46.5t44.5 -30.5t57.5 -11zM237 401q-41 0 -62.5 26t-21.5 70q0 28 9.5 55.5t26.5 50t39.5 36.5t49.5 14q40 0 62 -26t22 -70q0 -28 -9.5 -55.5t-26.5 -50t-39.5 -36.5t-49.5 -14zM997 48q-40 0 -62 26t-22 69q0 28 9.5 56t26.5 50.5t39.5 36.5t49.5 14q40 0 62 -26
t22 -70q0 -28 -9.5 -55.5t-26.5 -50t-39.5 -36.5t-49.5 -14zM608 48q-40 0 -62 26t-22 69q0 28 9.5 56t26.5 50.5t39.5 36.5t49.5 14q40 0 62 -26t22 -70q0 -28 -9.5 -55.5t-26.5 -50t-39.5 -36.5t-49.5 -14z" />
    <glyph glyph-name="Acircumflex" unicode="&#xc2;" horiz-adv-x="761" 
d="M-40 0h87l132 185h382l32 -185h81l-130 705h-76zM229 256l256 359l63 -359h-319zM374 762h68l96 67l54 -67h62l-71 131h-68z" />
    <glyph glyph-name="Ecircumflex" unicode="&#xca;" horiz-adv-x="653" 
d="M30 0h506l19 72h-427l66 245h376l20 72h-377l64 239h422l20 72h-501zM335 762h68l96 67l54 -67h62l-71 131h-68z" />
    <glyph glyph-name="Aacute" unicode="&#xc1;" horiz-adv-x="761" 
d="M-40 0h87l132 185h382l32 -185h81l-130 705h-76zM229 256l256 359l63 -359h-319zM472 762h72l142 108l-80 37z" />
    <glyph glyph-name="Edieresis" unicode="&#xcb;" horiz-adv-x="653" 
d="M30 0h506l19 72h-427l66 245h376l20 72h-377l64 239h422l20 72h-501zM523 762h89l26 95h-89zM346 762h90l26 95h-90z" />
    <glyph glyph-name="Egrave" unicode="&#xc8;" horiz-adv-x="653" 
d="M30 0h506l19 72h-427l66 245h376l20 72h-377l64 239h422l20 72h-501zM466 762h54l-56 145l-81 -37z" />
    <glyph glyph-name="Iacute" unicode="&#xcd;" horiz-adv-x="291" 
d="M37 0h79l188 700h-79zM227 762h72l142 108l-80 37z" />
    <glyph glyph-name="Icircumflex" unicode="&#xce;" horiz-adv-x="291" 
d="M37 0h79l188 700h-79zM134 762h68l96 67l54 -67h62l-71 131h-68z" />
    <glyph glyph-name="Idieresis" unicode="&#xcf;" horiz-adv-x="291" 
d="M37 0h79l188 700h-79zM326 762h89l26 95h-89zM149 762h90l26 95h-90z" />
    <glyph glyph-name="Igrave" unicode="&#xcc;" horiz-adv-x="291" 
d="M37 0h79l188 700h-79zM263 762h54l-56 145l-81 -37z" />
    <glyph glyph-name="Oacute" unicode="&#xd3;" horiz-adv-x="842" 
d="M395 -13q87 0 161.5 35.5t129 94t86 135t31.5 157.5q0 64 -22.5 119t-63 96t-97 64.5t-124.5 23.5q-87 0 -161.5 -35.5t-129 -94t-86 -134.5t-31.5 -157q0 -64 22.5 -119.5t63 -96.5t97 -64.5t124.5 -23.5zM400 60q-53 0 -95 18t-72 49t-46 73.5t-16 92.5
q0 65 24.5 127.5t67 111t101 78t127.5 29.5q52 0 94.5 -18t72.5 -49t46 -74t16 -92q0 -65 -24.5 -127.5t-67 -111t-101 -78t-127.5 -29.5zM454 762h72l142 108l-80 37z" />
    <glyph glyph-name="Ocircumflex" unicode="&#xd4;" horiz-adv-x="842" 
d="M395 -13q87 0 161.5 35.5t129 94t86 135t31.5 157.5q0 64 -22.5 119t-63 96t-97 64.5t-124.5 23.5q-87 0 -161.5 -35.5t-129 -94t-86 -134.5t-31.5 -157q0 -64 22.5 -119.5t63 -96.5t97 -64.5t124.5 -23.5zM400 60q-53 0 -95 18t-72 49t-46 73.5t-16 92.5
q0 65 24.5 127.5t67 111t101 78t127.5 29.5q52 0 94.5 -18t72.5 -49t46 -74t16 -92q0 -65 -24.5 -127.5t-67 -111t-101 -78t-127.5 -29.5zM393 762h68l96 67l54 -67h62l-71 131h-68z" />
    <glyph glyph-name="apple" unicode="&#xf8ff;" horiz-adv-x="967" 
d="M868 0v750h-767v-750h767zM859 -104l-6 34h-1l-13 -26l-13 26h-1l-6 -34h6l3 20l10 -21h2l10 21l3 -20h6zM806 -87q0 7 -4.5 12t-11.5 5q-8 0 -13 -5t-5 -13q0 -7 4.5 -12t12.5 -5t12.5 5t4.5 13zM758 -96q-6 -4 -10 -4q-13 0 -13 13q0 5 3.5 8.5t8.5 3.5q6 0 9 -3l2 5
q-5 3 -11 3q-8 0 -13 -5t-5 -13q0 -17 18 -17q7 0 10 3zM702 -71h-7l-9 -14l-11 15l-6 -1l14 -19v-14h6v14zM656 -104v33h-6v-13h-16v13h-6v-33h6v15h16v-15h6zM612 -82q0 5 -4.5 9t-18.5 2v-33h6v10q17 0 17 12zM576 -104l-16 34h-2l-15 -34h6l3 8h14l4 -8h6zM534 -104
l-10 13q7 3 7 10q0 5 -4.5 8.5t-18.5 1.5v-33h6v11h5l8 -11h7zM491 -101v15h-15v-5h9v-7q-4 -2 -6 -2q-13 0 -13 12q0 13 12 13q7 0 11 -4l2 5q-6 4 -12 4q-8 0 -13.5 -5t-5.5 -13t5 -12.5t13 -4.5q7 0 13 4zM447 -87q0 7 -4.5 12t-11.5 5q-8 0 -13 -5t-5 -13q0 -7 4.5 -12
t12.5 -5t12.5 5t4.5 13zM400 -82q0 5 -4.5 9t-18.5 2v-33h6v10q17 0 17 12zM364 -71h-7l-9 -14l-11 15l-6 -1l14 -19v-14h6v14zM323 -71h-30v-5h12v-28h6v28h12v5zM267 -71h-6l-7 -22l-10 23h-1l-10 -23l-7 23l-6 -1l12 -34h1l10 23l11 -23h1zM211 -71h-6l-7 -22l-10 23h-1
l-10 -23l-7 23l-6 -1l12 -34h1l10 23l11 -23h1zM155 -71h-6l-7 -22l-10 23h-1l-10 -23l-7 23l-6 -1l12 -34h1l10 23l11 -23h1zM716 -101q0 4 -4 4t-4 -4t4 -4t4 4zM284 -101q0 4 -4 4t-4 -4t4 -4t4 4zM559 686h-2l-2.5 4.5t-7.5 4.5q-3 0 -3 -3v-23q0 -5 2 -5h3v-2h-17v2h2
q3 0 3 5v23q0 3 -3 3q-5 0 -7.5 -4.5l-2.5 -4.5h-2l0.5 4.5t0.5 7.5q3 -1 18 -1t17 1q1 -3 1 -8v-4zM504 662h-18v2h2q3 0 3 5v10h-17v-10q0 -4 2.5 -4.5l2.5 -0.5v-2h-17v2l2.5 0.5t2.5 4.5v21q0 5 -3 5h-2v2h17v-1v-1h-3q-2 0 -2 -5v-9h17v9q0 5 -3 5h-2v1v1h18v-2h-3
t-3 -5v-21q0 -5 3 -5h3v-2zM439 664v-2h-30l-2 11l2 1l2.5 -4.5t7.5 -4.5h4q4 0 4 3v11h-4q-5 0 -5.5 -3l-0.5 -3h-2v13h2l0.5 -2.5t5.5 -2.5h4v10q0 3 -4 3h-4q-5 0 -7 -4l-2 -4l-2 1l2 10h29v-2h-3q-2 0 -2 -5v-21q0 -5 2 -5h3zM827 618h-685v6h685v-6zM696 540
q0 -12 -8 -17t-15 -5q-14 0 -25.5 11t-11.5 27q0 12 8 17t15 5q14 0 25.5 -11.5t11.5 -26.5zM589 537q0 -8 -6 -13.5t-19 -5.5q-16 0 -16 13q0 10 9 10q7 0 7 -5t-4 -5q-2 0 -3 1t-2 1q-3 0 -3 -3q0 -9 12 -9t12 14q0 10 -6 15q-5 -5 -11 -5q-8 0 -8 6q0 8 16 6q2 2 2 6
q0 12 -10 12q-7 0 -7 -5q0 -2 1.5 -2.5t1.5 -3.5t-4 -3q-5 0 -5 6q0 11 13 11q11 0 16 -5t5 -10q0 -6 -5 -9q14 -5 14 -17zM295 537q0 -8 -6 -13.5t-19 -5.5q-16 0 -16 13q0 10 9 10q7 0 7 -5t-4 -5q-2 0 -3 1t-2 1q-3 0 -3 -3q0 -9 12 -9t12 14q0 10 -6 15q-5 -5 -11 -5
q-8 0 -8 6q0 8 16 6q2 2 2 6q0 12 -10 12q-7 0 -7 -5q0 -2 1.5 -2.5t1.5 -3.5t-4 -3q-5 0 -5 6q0 11 13 11q11 0 16 -5t5 -10q0 -6 -5 -9q14 -5 14 -17zM820 522l1 -3h-29l-1 3l4.5 0.5t2.5 7.5l-3 16h-24l3 -16q2 -7 6 -7.5l4 -0.5l1 -3h-29l-1 3l4.5 0.5t2.5 7.5l-7 35
q-2 7 -6 7.5l-4 0.5l-1 3h29l1 -3l-4.5 -0.5t-2.5 -7.5l3 -15h24l-3 15q-2 7 -5.5 7.5l-3.5 0.5l-1 3h28l1 -3l-4.5 -0.5t-2.5 -7.5l7 -35q2 -7 6 -7.5zM498 519h-29l-1 3l4.5 0.5t2.5 7.5l-3 17h-4q-7 0 -7.5 -5.5l-0.5 -5.5h-3l-5 23h3l2.5 -4.5t9.5 -4.5h4l-3 16
q-1 6 -6 6h-4q-11 0 -12 -6.5l-1 -6.5h-4l0.5 7t-0.5 10h45l1 -3l-4.5 -0.5t-2.5 -7.5l7 -35q2 -7 6 -7.5l4 -0.5zM202 522l1 -3h-29l-1 3l4.5 0.5t2.5 7.5l-3 15q-4 0 -5 -3l-12 -23h-19l-1 3l5 0.5t9 7.5l9 16q-8 1 -13.5 5t-5.5 10q0 15 20 15h27l1 -3l-4.5 -0.5
t-2.5 -7.5l7 -35q2 -7 6 -7.5zM400 521q0 -3 -4 -3q-9 0 -12 7q-8 0 -10 -6.5t-15 -6.5q-5 0 -10 3.5t-5 8.5q0 7 5 7t5 -5q0 -2 -1 -2.5t-1 -2.5q0 -4 5 -4t8.5 6.5t14.5 6.5q-6 6 -8.5 13.5t-3.5 14.5t-2.5 12t-6.5 5t-5 -6t-4 -6q-5 0 -5 5q0 3 4 6.5t9 3.5
q12 0 16.5 -6.5t6 -15t2 -16t4.5 -10.5q7 -1 10 -4t3 -5zM827 475h-685v6h685v-6zM827 378h-36v28h-11v-65h14v-33h-81v33h14v65h-11v-28h-36v62h147v-62zM648 406h-14l-37 -45v-20h15v-33h-81v33h14v19l-37 46h-12v34h62v-34h-10l15 -23l15 23h-11v34h81v-34zM458 308h-81
v33h15v19h-30q-22 0 -34.5 11.5t-12.5 28.5t12.5 28.5t34.5 11.5h96v-34h-14v-65h14v-33zM283 308h-141v61h41v-28h33v21h-24v24h24v20h-33v-28h-41v62h141v-34h-14v-65h14v-33zM827 271h-685v6h685v-6zM728 192q0 -12 -8 -17t-15 -5q-14 0 -25.5 11t-11.5 27q0 12 8 17
t15 5q14 0 25.5 -11.5t11.5 -26.5zM203 217l-2 -2l-4.5 4.5t-7.5 2.5q-9 0 -9 -13q0 -8 5 -25q2 -8 6 -8.5l4 -0.5l1 -4h-28l-1 4l4.5 1t1.5 14q-3 12 -8.5 22.5t-15.5 10.5q-8 0 -8 -6l-3 1q0 6 3.5 9t8.5 3q8 0 13 -6.5t8 -16.5q-1 23 14 23q8 0 11.5 -4t6.5 -9zM823 171
h-29l-1 3l4.5 0.5t2.5 7.5l-3 17h-4q-7 0 -7.5 -5.5l-0.5 -5.5h-3l-5 23h3l2.5 -4.5t9.5 -4.5h4l-3 16q-1 6 -6 6h-4q-11 0 -12 -6.5l-1 -6.5h-4l0.5 7t-0.5 10h45l1 -3l-4.5 -0.5t-2.5 -7.5l7 -35q2 -7 6 -7.5l4 -0.5zM621 225l-5 -0.5t-3 -8.5l5 -22q2 -8 0 -16t-19 -8
q-14 0 -20 9.5t-8 17.5l-4 19q-2 8 -6.5 8.5l-4.5 0.5l-1 3h24v-3l-4.5 -0.5t-2.5 -8.5l4 -19q2 -9 7 -15.5t13 -6.5q11 0 12 5t-1 15l-5 21q-2 8 -6 8.5l-4 0.5l-1 3h29zM522 174l1 -3h-21l-1 3l4 1t2 9l-6 30l-30 -44l-3 1l-8 45q-2 7 -5.5 8l-3.5 1l-1 3h21l1 -3l-4.5 -1
t-2.5 -8l5 -30l29 42h14l1 -3l-5 -0.5t-3 -8.5l7 -32q2 -8 5.5 -9zM414 171h-32q-13 0 -24 9.5t-11 25.5q0 11 8 16.5t17 5.5h30l1 -3q-11 -1 -8 -10l8 -31q2 -8 6 -8.5l4 -0.5zM306 174l1 -3h-29l-1 3l4.5 0.5t2.5 7.5l-3 15q-4 0 -5 -3l-12 -23h-19l-1 3l5 0.5t9 7.5l9 16
q-8 1 -13.5 5t-5.5 10q0 15 20 15h27l1 -3l-4.5 -0.5t-2.5 -7.5l7 -35q2 -7 6 -7.5zM827 127h-685v6h685v-6zM694 46h-14v2l2.5 1t2.5 4v20l-25 -28h-3v28q0 4 -3 5l-3 1v2h15v-2l-3 -1t-3 -5v-18l24 26h10v-2l-3 -2t-3 -4v-20q0 -3 3 -4l3 -1v-2zM633 48v-2h-30l-2 11l2 1
l2.5 -4.5t7.5 -4.5h4q4 0 4 3v11h-4q-5 0 -5.5 -3l-0.5 -3h-2v13h2l0.5 -2.5t5.5 -2.5h4v10q0 3 -4 3h-4q-5 0 -7 -4l-2 -4l-2 1l2 10h29v-2h-3q-2 0 -2 -5v-21q0 -5 2 -5h3zM583 81v-2l-2.5 -0.5t-4.5 -5.5l-12 -27h-1l-9 16l-8 -16q0 -1 -0.5 -0.5l-0.5 0.5h-1l-13 27
q-2 4 -4 5l-2 1v2h13v-2l-2 -1t0 -5l8 -18l7 13l-3 5q-3 5 -5 5.5l-2 0.5l-1 2h26v-2l-2 -1.5t-4 -4.5l-4 -8l5 -10l9 19q2 3 0 4l-2 1v2h15zM480 79l-2.5 -0.5t-4.5 -4.5l-8 -12v-8q0 -5 2.5 -5.5l2.5 -0.5v-2h-17v2l2.5 0.5t2.5 5.5v8l-8 12q-2 4 -5 4.5l-3 0.5v2h15v-2
l-2.5 -0.5t-0.5 -4.5l6 -9l6 9q2 4 0.5 4.5l-1.5 0.5v2h15v-2zM425 64q0 -8 -5 -13.5t-15 -5.5t-15 5.5t-5 13.5t5 13t15 5t15 -5t5 -13zM364 46h-17v2l2.5 0.5t2.5 4.5v9q-4 0 -7 -4l-7 -12h-11v2l2.5 0.5t5.5 4.5l7 10q-9 4 -9 9q0 9 13 9h18v-2l-2.5 -0.5t-2.5 -5.5v-20
q0 -4 2.5 -4.5l2.5 -0.5v-2zM309 46h-18v2l3 0.5t3 5.5v9q-2 0 -4 -2l-8 -8q-3 -4 -0.5 -4.5l2.5 -0.5v-2h-17v2l2.5 1.5t4.5 3.5l13 13l-10 9q-2 2 -5 3l-3 1v2h14v-2l-1.5 -1t0.5 -3l8 -8q2 -2 4 -2v9q0 4 -3 4.5l-3 0.5v2h18v-2l-3 -0.5t-3 -4.5v-20q0 -4 3 -5l3 -1v-2z
M606 -83q0 -6 -11 -6v13q11 1 11 -7zM525 -82q0 -7 -11 -6v12q11 2 11 -6zM394 -83q0 -6 -11 -6v13q11 1 11 -7zM564 -92h-10l5 12zM800 -88q0 -12 -11 -12t-11 13q0 12 11 12t11 -13zM441 -88q0 -12 -11 -12t-11 13q0 12 11 12t11 -13zM176 548l-3 19q-1 5 -9 5t-8 -9
q0 -5 3.5 -10t11.5 -5h5zM566 553q-2 1 -7 1q-4 0 -4 -3q0 -2 4 -2t7 4zM272 553q-2 1 -7 1q-4 0 -4 -3q0 -2 4 -2t7 4zM684 535q0 16 -8 27.5t-17 11.5q-11 0 -11 -14q0 -15 8 -26.5t17 -11.5q11 0 11 13zM392 384v22h-11q-13 0 -13 -11t13 -11h11zM280 200l-3 19
q-1 5 -9 5t-8 -9q0 -5 3.5 -10t11.5 -5h5zM716 187q0 16 -8 27.5t-17 11.5q-11 0 -11 -14q0 -15 8 -26.5t17 -11.5q11 0 11 13zM393 182l-9 35q-2 5 -2.5 5.5t-3.5 1.5h-6q-14 0 -14 -17q0 -12 7.5 -22t18.5 -10h5q4 0 4 7zM553 79q-5 0 0 -9q4 9 0 9zM352 64v10q0 4 -4 4
q-7 0 -7 -6q0 -8 8 -8h3zM417 64q0 16 -12 16t-12 -16q0 -7 3 -12t9 -5q7 0 9.5 5t2.5 12z" />
    <glyph glyph-name="Ograve" unicode="&#xd2;" horiz-adv-x="842" 
d="M395 -13q87 0 161.5 35.5t129 94t86 135t31.5 157.5q0 64 -22.5 119t-63 96t-97 64.5t-124.5 23.5q-87 0 -161.5 -35.5t-129 -94t-86 -134.5t-31.5 -157q0 -64 22.5 -119.5t63 -96.5t97 -64.5t124.5 -23.5zM400 60q-53 0 -95 18t-72 49t-46 73.5t-16 92.5
q0 65 24.5 127.5t67 111t101 78t127.5 29.5q52 0 94.5 -18t72.5 -49t46 -74t16 -92q0 -65 -24.5 -127.5t-67 -111t-101 -78t-127.5 -29.5zM526 762h54l-56 145l-81 -37z" />
    <glyph glyph-name="Uacute" unicode="&#xda;" horiz-adv-x="758" 
d="M347 -11q131 0 218 87q74 74 110 207l112 417h-79l-109 -403q-16 -58 -38.5 -100.5t-50.5 -70.5q-33 -33 -72.5 -48.5t-83.5 -15.5q-47 0 -81 12t-57 33.5t-34 51t-11 63.5q0 23 2.5 43t7.5 36l106 399h-80l-100 -378q-15 -54 -15 -109q0 -49 16.5 -90t48.5 -71
t79.5 -46.5t110.5 -16.5zM433 762h72l142 108l-80 37z" />
    <glyph glyph-name="Ucircumflex" unicode="&#xdb;" horiz-adv-x="758" 
d="M347 -11q131 0 218 87q74 74 110 207l112 417h-79l-109 -403q-16 -58 -38.5 -100.5t-50.5 -70.5q-33 -33 -72.5 -48.5t-83.5 -15.5q-47 0 -81 12t-57 33.5t-34 51t-11 63.5q0 23 2.5 43t7.5 36l106 399h-80l-100 -378q-15 -54 -15 -109q0 -49 16.5 -90t48.5 -71
t79.5 -46.5t110.5 -16.5zM365 762h68l96 67l54 -67h62l-71 131h-68z" />
    <glyph glyph-name="Ugrave" unicode="&#xd9;" horiz-adv-x="758" 
d="M347 -11q131 0 218 87q74 74 110 207l112 417h-79l-109 -403q-16 -58 -38.5 -100.5t-50.5 -70.5q-33 -33 -72.5 -48.5t-83.5 -15.5q-47 0 -81 12t-57 33.5t-34 51t-11 63.5q0 23 2.5 43t7.5 36l106 399h-80l-100 -378q-15 -54 -15 -109q0 -49 16.5 -90t48.5 -71
t79.5 -46.5t110.5 -16.5zM494 762h54l-56 145l-81 -37z" />
    <glyph glyph-name="dotlessi" unicode="&#x131;" horiz-adv-x="263" 
d="M24 0h77l139 517h-77z" />
    <glyph glyph-name="circumflex" unicode="&#x2c6;" 
d="M201 595h68l96 67l54 -67h62l-71 131h-68z" />
    <glyph glyph-name="tilde" unicode="&#x2dc;" 
d="M229 592q17 29 31 44t31 15q13 0 23 -6.5t27 -22.5q17 -14 32 -23.5t38 -9.5q37 0 64.5 27.5t52.5 78.5l-49 22q-17 -29 -30.5 -44.5t-31.5 -15.5q-13 0 -22.5 7t-26.5 22t-32 24t-39 9q-36 0 -64 -27t-53 -79z" />
    <glyph glyph-name="macron" unicode="&#xaf;" 
d="M182 600h316l18 67h-317z" />
    <glyph glyph-name="macron" unicode="&#x2c9;" 
d="M182 600h316l18 67h-317z" />
    <glyph glyph-name="breve" unicode="&#x2d8;" 
d="M344 593q30 0 57.5 9t51 26.5t41.5 42t28 55.5h-62q-17 -31 -43 -50t-62 -19q-41 0 -56.5 19t-15.5 50h-57q-2 -8 -2.5 -13.5t-0.5 -11.5q0 -48 31.5 -78t89.5 -30z" />
    <glyph glyph-name="dotaccent" unicode="&#x2d9;" 
d="M295 594h89l27 98h-89z" />
    <glyph glyph-name="ring" unicode="&#x2da;" 
d="M358 594q23 0 44 9t36.5 24t24.5 35t9 43q0 38 -27.5 63t-72.5 25q-23 0 -43.5 -9t-36 -24t-24.5 -35t-9 -43q0 -38 27 -63t72 -25zM359 633q-28 0 -42.5 14t-14.5 36q0 29 20 50.5t50 21.5q27 0 41.5 -14t14.5 -36q0 -29 -19.5 -50.5t-49.5 -21.5z" />
    <glyph glyph-name="cedilla" unicode="&#xb8;" 
d="M129 -155l120 165h-61l-125 -131z" />
    <glyph glyph-name="hungarumlaut" unicode="&#x2dd;" 
d="M337 595h61l139 108l-65 37zM173 595h62l137 108l-64 37z" />
    <glyph glyph-name="ogonek" unicode="&#x2db;" 
d="M228 -164l10 41q-90 4 -90 57q0 14 7 36.5t16 39.5h-59q-14 -20 -25.5 -46.5t-11.5 -46.5q0 -39 37.5 -62t115.5 -19z" />
    <glyph glyph-name="caron" unicode="&#x2c7;" 
d="M305 595h68l142 131h-68l-96 -67l-55 67h-62z" />
    <glyph glyph-name="lslash" unicode="&#x142;" horiz-adv-x="322" 
d="M54 0h77l92 343l83 24l20 75l-83 -24l84 312h-77l-90 -335l-81 -23l-20 -75l81 23z" />
    <glyph glyph-name="Scaron" unicode="&#x160;" horiz-adv-x="637" 
d="M298 -10q56 0 104.5 16t84 44t56 67t20.5 85q0 34 -11.5 60.5t-34 48.5t-56.5 40.5t-79 35.5q-41 16 -70.5 30t-48.5 29t-27.5 32t-8.5 38q0 24 11.5 46t33 39.5t53 27.5t70.5 10q62 0 110.5 -22.5t86.5 -64.5l58 52q-40 47 -103 76.5t-145 29.5q-57 0 -104 -15.5
t-81.5 -42.5t-53.5 -64.5t-19 -80.5q0 -34 12 -60.5t36 -48t60 -40.5t84 -38q40 -16 68 -30.5t44.5 -29.5t24 -31.5t7.5 -36.5q0 -29 -13.5 -53t-37 -41t-56 -27t-70.5 -10q-78 0 -132 27.5t-99 81.5l-60 -47q45 -63 117 -98t169 -35zM403 762h68l142 131h-68l-96 -67
l-55 67h-62z" />
    <glyph glyph-name="scaron" unicode="&#x161;" horiz-adv-x="496" 
d="M217 -11q41 0 77 12t63 33.5t42.5 51.5t15.5 66q0 51 -35.5 82.5t-105.5 59.5q-31 12 -51 22.5t-31.5 21t-16 21t-4.5 23.5q0 32 28.5 57t83.5 25q42 0 81.5 -17t71.5 -43l45 53q-32 28 -83 49.5t-108 21.5q-45 0 -81.5 -12.5t-62 -34t-39 -50.5t-13.5 -62
q0 -54 38 -84.5t108 -57.5q56 -22 77 -42.5t21 -45.5q0 -20 -9.5 -35.5t-25.5 -27t-36.5 -17.5t-42.5 -6q-47 0 -92.5 17.5t-87.5 58.5l-50 -50q45 -45 104 -67.5t119 -22.5zM297 595h68l142 131h-68l-96 -67l-55 67h-62z" />
    <glyph glyph-name="Yacute" unicode="&#xdd;" horiz-adv-x="663" 
d="M216 0h80l72 269l410 431h-101l-330 -353l-140 353h-88l173 -418zM385 762h72l142 108l-80 37z" />
    <glyph glyph-name="yacute" unicode="&#xfd;" horiz-adv-x="574" 
d="M38 -163q58 0 108 32.5t104 113.5l354 534h-87l-278 -431l-72 431h-80l94 -516q-39 -55 -70.5 -75.5t-64.5 -20.5q-19 0 -42 7.5t-37 18.5l-42 -58q25 -17 52.5 -26.5t60.5 -9.5zM295 595h72l142 108l-80 37z" />
    <glyph glyph-name="Thorn" unicode="&#xde;" horiz-adv-x="674" 
d="M30 0h79l35 128h166q77 0 140.5 17t108.5 50t70 80.5t25 108.5q0 82 -49 131q-34 34 -84 49.5t-117 15.5h-139l31 120h-78zM163 199l82 308h157q94 0 138 -44q33 -32 33 -84q0 -86 -67.5 -133t-191.5 -47h-151z" />
    <glyph glyph-name="thorn" unicode="&#xfe;" horiz-adv-x="659" 
d="M-26 -160h77l74 276q11 -26 27.5 -49t40.5 -40.5t55 -28t71 -10.5q57 0 109 24.5t92.5 67.5t64.5 101.5t24 127.5q0 49 -15.5 89.5t-43 69.5t-65 44.5t-81.5 15.5q-63 0 -110.5 -29t-85.5 -71l82 302h-77zM312 56q-36 0 -65.5 12.5t-50.5 34t-32.5 51t-11.5 63.5
q0 47 20 91t52 77.5t73.5 54t84.5 20.5q33 0 59.5 -11t46 -32t30 -50t10.5 -65q0 -50 -16.5 -94.5t-45.5 -78t-68.5 -53.5t-85.5 -20z" />
    <glyph glyph-name="Zcaron" unicode="&#x17d;" horiz-adv-x="669" 
d="M-19 0h561l19 71h-446l598 576l14 53h-542l-20 -71h427l-597 -576zM416 762h68l142 131h-68l-96 -67l-55 67h-62z" />
    <glyph glyph-name="zcaron" unicode="&#x17e;" horiz-adv-x="549" 
d="M-20 0h448l18 65h-338l442 403l14 49h-432l-18 -65h321l-441 -403zM316 595h68l142 131h-68l-96 -67l-55 67h-62z" />
    <glyph glyph-name="Lslash" unicode="&#x141;" horiz-adv-x="652" 
d="M74 0h474l20 73h-396l68 252l234 66l20 74l-234 -66l81 301h-79l-87 -325l-81 -23l-19 -73l80 22z" />
    <glyph glyph-name="Omega" unicode="&#x3a9;" horiz-adv-x="750" 
d="M422 0h76l121 449h169l18 68h-169l13 50q14 51 40.5 74.5t63.5 23.5q23 0 42.5 -5t42.5 -16l18 66q-42 22 -102 22q-136 0 -178 -153l-17 -62h-71l-18 -68h72zM46 0h77l121 449h168l19 68h-169l13 50q14 51 40.5 74.5t63.5 23.5q23 0 42.5 -5t42.5 -16l18 66
q-42 22 -103 22q-67 0 -111.5 -37.5t-65.5 -115.5l-17 -62h-71l-18 -68h71z" />
    <glyph glyph-name="fraction" unicode="&#x2215;" horiz-adv-x="542" 
d="M-98 -98h79l697 856h-79z" />
    <glyph glyph-name="Eth" unicode="&#xd0;" horiz-adv-x="800" 
d="M57 0h237q112 0 204 35t155 98q54 54 82.5 123t28.5 150q0 64 -19.5 113.5t-57.5 87.5q-45 45 -114.5 69t-157.5 24h-170l-84 -312h-77l-20 -72h78zM156 73l65 243h208l19 72h-207l64 239h104q71 0 125 -18t89 -53q28 -28 43 -66.5t15 -88.5q0 -65 -22.5 -120.5
t-64.5 -97.5q-54 -54 -128 -82t-162 -28h-148z" />
    <glyph glyph-name="eth" unicode="&#xf0;" horiz-adv-x="622" 
d="M275 -11q67 0 122 25t94.5 66.5t61 95.5t21.5 113q0 46 -11 90.5t-35 103.5l-64 157l117 49l-25 50l-113 -48l-16 39h-84l30 -67l-153 -64l26 -50l149 63l78 -181q-26 23 -62.5 38.5t-90.5 15.5t-104 -21.5t-88 -59t-60.5 -88t-22.5 -108.5q0 -47 17 -87.5t47.5 -69.5
t73 -45.5t92.5 -16.5zM281 57q-35 0 -64 10.5t-50 31t-33 49t-12 64.5q0 43 16.5 81.5t44 67.5t65 46t79.5 17q39 0 70 -12t52.5 -33t33 -49t11.5 -60q0 -43 -16.5 -81.5t-45.5 -68t-68 -46.5t-83 -17z" />
  </font>
</defs></svg>
